[
  {
    "Date": "2020-02-12",
    "Price": 0.045896,
    "Open": 0.045154,
    "High": 0.0466,
    "Low": 0.045138,
    "Vol": 37620
  },
  {
    "Date": "2020-02-11",
    "Price": 0.045209,
    "Open": 0.045881,
    "High": 0.046433,
    "Low": 0.044718,
    "Vol": 32370
  },
  {
    "Date": "2020-02-10",
    "Price": 0.045932,
    "Open": 0.044307,
    "High": 0.046748,
    "Low": 0.043814,
    "Vol": 33610
  },
  {
    "Date": "2020-02-09",
    "Price": 0.0443,
    "Open": 0.044912,
    "High": 0.046041,
    "Low": 0.043453,
    "Vol": 28320
  },
  {
    "Date": "2020-02-08",
    "Price": 0.044905,
    "Open": 0.044797,
    "High": 0.046355,
    "Low": 0.044,
    "Vol": 25760
  },
  {
    "Date": "2020-02-07",
    "Price": 0.044813,
    "Open": 0.045565,
    "High": 0.046741,
    "Low": 0.044357,
    "Vol": 30080
  },
  {
    "Date": "2020-02-06",
    "Price": 0.045607,
    "Open": 0.04635,
    "High": 0.046537,
    "Low": 0.043431,
    "Vol": 34880
  },
  {
    "Date": "2020-02-05",
    "Price": 0.04629,
    "Open": 0.041421,
    "High": 0.04629,
    "Low": 0.041177,
    "Vol": 60250
  },
  {
    "Date": "2020-02-04",
    "Price": 0.041421,
    "Open": 0.041354,
    "High": 0.041656,
    "Low": 0.040916,
    "Vol": 17450
  },
  {
    "Date": "2020-02-03",
    "Price": 0.041372,
    "Open": 0.040433,
    "High": 0.041424,
    "Low": 0.040318,
    "Vol": 24480
  },
  {
    "Date": "2020-02-02",
    "Price": 0.040415,
    "Open": 0.0405,
    "High": 0.040964,
    "Low": 0.040014,
    "Vol": 20430
  },
  {
    "Date": "2020-02-01",
    "Price": 0.040496,
    "Open": 0.040113,
    "High": 0.041194,
    "Low": 0.039974,
    "Vol": 20290
  },
  {
    "Date": "2020-01-31",
    "Price": 0.040121,
    "Open": 0.041261,
    "High": 0.04145,
    "Low": 0.039522,
    "Vol": 33840
  },
  {
    "Date": "2020-01-30",
    "Price": 0.041253,
    "Open": 0.04087,
    "High": 0.041921,
    "Low": 0.040377,
    "Vol": 40480
  },
  {
    "Date": "2020-01-29",
    "Price": 0.040847,
    "Open": 0.040362,
    "High": 0.042178,
    "Low": 0.040362,
    "Vol": 42650
  },
  {
    "Date": "2020-01-28",
    "Price": 0.040402,
    "Open": 0.040698,
    "High": 0.042,
    "Low": 0.040196,
    "Vol": 50570
  },
  {
    "Date": "2020-01-27",
    "Price": 0.040693,
    "Open": 0.040458,
    "High": 0.042933,
    "Low": 0.040301,
    "Vol": 50550
  },
  {
    "Date": "2020-01-26",
    "Price": 0.040447,
    "Open": 0.037121,
    "High": 0.040676,
    "Low": 0.037067,
    "Vol": 41380
  },
  {
    "Date": "2020-01-25",
    "Price": 0.037192,
    "Open": 0.037747,
    "High": 0.037958,
    "Low": 0.036631,
    "Vol": 18540
  },
  {
    "Date": "2020-01-24",
    "Price": 0.037775,
    "Open": 0.038707,
    "High": 0.038931,
    "Low": 0.036107,
    "Vol": 45450
  },
  {
    "Date": "2020-01-23",
    "Price": 0.03867,
    "Open": 0.040192,
    "High": 0.040372,
    "Low": 0.038096,
    "Vol": 30820
  },
  {
    "Date": "2020-01-22",
    "Price": 0.040182,
    "Open": 0.039313,
    "High": 0.040201,
    "Low": 0.03897,
    "Vol": 19510
  },
  {
    "Date": "2020-01-21",
    "Price": 0.039314,
    "Open": 0.039703,
    "High": 0.040089,
    "Low": 0.039011,
    "Vol": 23230
  },
  {
    "Date": "2020-01-20",
    "Price": 0.039711,
    "Open": 0.039057,
    "High": 0.040576,
    "Low": 0.037877,
    "Vol": 36970
  },
  {
    "Date": "2020-01-19",
    "Price": 0.038994,
    "Open": 0.038011,
    "High": 0.039931,
    "Low": 0.03745,
    "Vol": 73010
  },
  {
    "Date": "2020-01-18",
    "Price": 0.037946,
    "Open": 0.041266,
    "High": 0.044946,
    "Low": 0.037608,
    "Vol": 152720
  },
  {
    "Date": "2020-01-17",
    "Price": 0.041284,
    "Open": 0.037505,
    "High": 0.042699,
    "Low": 0.036866,
    "Vol": 102110
  },
  {
    "Date": "2020-01-16",
    "Price": 0.037477,
    "Open": 0.038578,
    "High": 0.03871,
    "Low": 0.036302,
    "Vol": 61510
  },
  {
    "Date": "2020-01-15",
    "Price": 0.038518,
    "Open": 0.039462,
    "High": 0.040666,
    "Low": 0.03656,
    "Vol": 124180
  },
  {
    "Date": "2020-01-14",
    "Price": 0.039578,
    "Open": 0.032955,
    "High": 0.04188,
    "Low": 0.032955,
    "Vol": 198350
  },
  {
    "Date": "2020-01-13",
    "Price": 0.032942,
    "Open": 0.033175,
    "High": 0.033175,
    "Low": 0.032351,
    "Vol": 23470
  },
  {
    "Date": "2020-01-12",
    "Price": 0.033016,
    "Open": 0.032507,
    "High": 0.033246,
    "Low": 0.0323,
    "Vol": 26990
  },
  {
    "Date": "2020-01-11",
    "Price": 0.032545,
    "Open": 0.033165,
    "High": 0.033869,
    "Low": 0.032384,
    "Vol": 48610
  },
  {
    "Date": "2020-01-10",
    "Price": 0.033169,
    "Open": 0.030499,
    "High": 0.033447,
    "Low": 0.03011,
    "Vol": 81470
  },
  {
    "Date": "2020-01-09",
    "Price": 0.030423,
    "Open": 0.029834,
    "High": 0.030595,
    "Low": 0.029633,
    "Vol": 19670
  },
  {
    "Date": "2020-01-08",
    "Price": 0.029842,
    "Open": 0.029707,
    "High": 0.030037,
    "Low": 0.028492,
    "Vol": 44510
  },
  {
    "Date": "2020-01-07",
    "Price": 0.029779,
    "Open": 0.031463,
    "High": 0.031463,
    "Low": 0.029743,
    "Vol": 35200
  },
  {
    "Date": "2020-01-06",
    "Price": 0.031491,
    "Open": 0.030294,
    "High": 0.031959,
    "Low": 0.03021,
    "Vol": 34460
  },
  {
    "Date": "2020-01-05",
    "Price": 0.030287,
    "Open": 0.030531,
    "High": 0.030715,
    "Low": 0.029798,
    "Vol": 18140
  },
  {
    "Date": "2020-01-04",
    "Price": 0.030534,
    "Open": 0.030289,
    "High": 0.030889,
    "Low": 0.030067,
    "Vol": 21490
  },
  {
    "Date": "2020-01-03",
    "Price": 0.030317,
    "Open": 0.028058,
    "High": 0.030476,
    "Low": 0.027883,
    "Vol": 42760
  },
  {
    "Date": "2020-01-02",
    "Price": 0.028058,
    "Open": 0.02836,
    "High": 0.028572,
    "Low": 0.02779,
    "Vol": 13880
  },
  {
    "Date": "2020-01-01",
    "Price": 0.028371,
    "Open": 0.028439,
    "High": 0.028867,
    "Low": 0.02828,
    "Vol": 7290
  },
  {
    "Date": "2019-12-31",
    "Price": 0.028439,
    "Open": 0.028763,
    "High": 0.029299,
    "Low": 0.028132,
    "Vol": 19640
  },
  {
    "Date": "2019-12-30",
    "Price": 0.02878,
    "Open": 0.02873,
    "High": 0.029093,
    "Low": 0.028456,
    "Vol": 14950
  },
  {
    "Date": "2019-12-29",
    "Price": 0.028733,
    "Open": 0.028171,
    "High": 0.029086,
    "Low": 0.02804,
    "Vol": 19110
  },
  {
    "Date": "2019-12-28",
    "Price": 0.028171,
    "Open": 0.028026,
    "High": 0.028713,
    "Low": 0.027955,
    "Vol": 24300
  },
  {
    "Date": "2019-12-27",
    "Price": 0.028021,
    "Open": 0.026048,
    "High": 0.028059,
    "Low": 0.025959,
    "Vol": 35740
  },
  {
    "Date": "2019-12-26",
    "Price": 0.026047,
    "Open": 0.025725,
    "High": 0.026459,
    "Low": 0.025598,
    "Vol": 10250
  },
  {
    "Date": "2019-12-25",
    "Price": 0.025717,
    "Open": 0.025975,
    "High": 0.026029,
    "Low": 0.025546,
    "Vol": 5440
  },
  {
    "Date": "2019-12-24",
    "Price": 0.025941,
    "Open": 0.025912,
    "High": 0.026185,
    "Low": 0.025608,
    "Vol": 8700
  },
  {
    "Date": "2019-12-23",
    "Price": 0.025915,
    "Open": 0.026153,
    "High": 0.026254,
    "Low": 0.025659,
    "Vol": 8530
  },
  {
    "Date": "2019-12-22",
    "Price": 0.02617,
    "Open": 0.026093,
    "High": 0.026617,
    "Low": 0.025959,
    "Vol": 8480
  },
  {
    "Date": "2019-12-21",
    "Price": 0.026096,
    "Open": 0.026085,
    "High": 0.026337,
    "Low": 0.02591,
    "Vol": 4740
  },
  {
    "Date": "2019-12-20",
    "Price": 0.026071,
    "Open": 0.026009,
    "High": 0.026513,
    "Low": 0.02591,
    "Vol": 9800
  },
  {
    "Date": "2019-12-19",
    "Price": 0.026023,
    "Open": 0.025986,
    "High": 0.02645,
    "Low": 0.025828,
    "Vol": 12920
  },
  {
    "Date": "2019-12-18",
    "Price": 0.025994,
    "Open": 0.026635,
    "High": 0.027082,
    "Low": 0.025846,
    "Vol": 30520
  },
  {
    "Date": "2019-12-17",
    "Price": 0.026635,
    "Open": 0.028472,
    "High": 0.02854,
    "Low": 0.026238,
    "Vol": 31480
  },
  {
    "Date": "2019-12-16",
    "Price": 0.028472,
    "Open": 0.029045,
    "High": 0.02919,
    "Low": 0.0282,
    "Vol": 19500
  },
  {
    "Date": "2019-12-15",
    "Price": 0.029069,
    "Open": 0.029158,
    "High": 0.029324,
    "Low": 0.029012,
    "Vol": 8990
  },
  {
    "Date": "2019-12-14",
    "Price": 0.029134,
    "Open": 0.029149,
    "High": 0.029304,
    "Low": 0.029024,
    "Vol": 12100
  },
  {
    "Date": "2019-12-13",
    "Price": 0.029149,
    "Open": 0.028712,
    "High": 0.029267,
    "Low": 0.02863,
    "Vol": 10260
  },
  {
    "Date": "2019-12-12",
    "Price": 0.028712,
    "Open": 0.028736,
    "High": 0.028862,
    "Low": 0.028461,
    "Vol": 7040
  },
  {
    "Date": "2019-12-11",
    "Price": 0.028717,
    "Open": 0.0286,
    "High": 0.028748,
    "Low": 0.028421,
    "Vol": 5640
  },
  {
    "Date": "2019-12-10",
    "Price": 0.028599,
    "Open": 0.028371,
    "High": 0.028658,
    "Low": 0.028154,
    "Vol": 11510
  },
  {
    "Date": "2019-12-09",
    "Price": 0.028344,
    "Open": 0.028293,
    "High": 0.028513,
    "Low": 0.027996,
    "Vol": 10540
  },
  {
    "Date": "2019-12-08",
    "Price": 0.028305,
    "Open": 0.028188,
    "High": 0.028477,
    "Low": 0.027983,
    "Vol": 6870
  },
  {
    "Date": "2019-12-07",
    "Price": 0.028177,
    "Open": 0.02829,
    "High": 0.028506,
    "Low": 0.0281,
    "Vol": 5460
  },
  {
    "Date": "2019-12-06",
    "Price": 0.028248,
    "Open": 0.028644,
    "High": 0.028857,
    "Low": 0.028174,
    "Vol": 10570
  },
  {
    "Date": "2019-12-05",
    "Price": 0.028632,
    "Open": 0.028769,
    "High": 0.028984,
    "Low": 0.028398,
    "Vol": 13420
  },
  {
    "Date": "2019-11-29",
    "Price": 0.02933,
    "Open": 0.02933,
    "High": 0.02933,
    "Low": 0.02933,
    "Vol": "#VALUE!"
  },
  {
    "Date": "2019-11-28",
    "Price": 0.02933,
    "Open": 0.029201,
    "High": 0.029332,
    "Low": 0.02911,
    "Vol": 27040
  },
  {
    "Date": "2019-11-27",
    "Price": 0.029165,
    "Open": 0.029447,
    "High": 0.029789,
    "Low": 0.029112,
    "Vol": 26790
  },
  {
    "Date": "2019-11-26",
    "Price": 0.029466,
    "Open": 0.029123,
    "High": 0.02985,
    "Low": 0.029123,
    "Vol": 20150
  },
  {
    "Date": "2019-11-25",
    "Price": 0.029093,
    "Open": 0.029355,
    "High": 0.030531,
    "Low": 0.029093,
    "Vol": 45740
  },
  {
    "Date": "2019-11-24",
    "Price": 0.029278,
    "Open": 0.029409,
    "High": 0.029526,
    "Low": 0.028868,
    "Vol": 20560
  },
  {
    "Date": "2019-11-23",
    "Price": 0.029407,
    "Open": 0.02853,
    "High": 0.029658,
    "Low": 0.028299,
    "Vol": 27100
  },
  {
    "Date": "2019-11-22",
    "Price": 0.02853,
    "Open": 0.029685,
    "High": 0.029843,
    "Low": 0.02812,
    "Vol": 65370
  },
  {
    "Date": "2019-11-21",
    "Price": 0.029694,
    "Open": 0.030054,
    "High": 0.030352,
    "Low": 0.029009,
    "Vol": 30220
  },
  {
    "Date": "2019-11-20",
    "Price": 0.030048,
    "Open": 0.029772,
    "High": 0.03027,
    "Low": 0.029541,
    "Vol": 15320
  },
  {
    "Date": "2019-11-19",
    "Price": 0.029765,
    "Open": 0.030091,
    "High": 0.03026,
    "Low": 0.029232,
    "Vol": 29600
  },
  {
    "Date": "2019-11-18",
    "Price": 0.030092,
    "Open": 0.031281,
    "High": 0.031302,
    "Low": 0.029533,
    "Vol": 29210
  },
  {
    "Date": "2019-11-17",
    "Price": 0.031269,
    "Open": 0.031213,
    "High": 0.031516,
    "Low": 0.0309,
    "Vol": 11800
  },
  {
    "Date": "2019-11-16",
    "Price": 0.031247,
    "Open": 0.03108,
    "High": 0.03139,
    "Low": 0.031017,
    "Vol": 7080
  },
  {
    "Date": "2019-11-15",
    "Price": 0.031075,
    "Open": 0.032122,
    "High": 0.032142,
    "Low": 0.0306,
    "Vol": 26590
  },
  {
    "Date": "2019-11-14",
    "Price": 0.032108,
    "Open": 0.032504,
    "High": 0.032569,
    "Low": 0.031804,
    "Vol": 21140
  },
  {
    "Date": "2019-11-13",
    "Price": 0.032509,
    "Open": 0.032776,
    "High": 0.032945,
    "Low": 0.032194,
    "Vol": 19120
  },
  {
    "Date": "2019-11-12",
    "Price": 0.032798,
    "Open": 0.032809,
    "High": 0.033325,
    "Low": 0.03267,
    "Vol": 23760
  },
  {
    "Date": "2019-11-11",
    "Price": 0.03282,
    "Open": 0.032434,
    "High": 0.033173,
    "Low": 0.032411,
    "Vol": 23030
  },
  {
    "Date": "2019-11-10",
    "Price": 0.032418,
    "Open": 0.032082,
    "High": 0.0327,
    "Low": 0.031733,
    "Vol": 29020
  },
  {
    "Date": "2019-11-09",
    "Price": 0.032093,
    "Open": 0.031569,
    "High": 0.032183,
    "Low": 0.031569,
    "Vol": 13180
  },
  {
    "Date": "2019-11-08",
    "Price": 0.031582,
    "Open": 0.031686,
    "High": 0.032028,
    "Low": 0.031002,
    "Vol": 36600
  },
  {
    "Date": "2019-11-07",
    "Price": 0.031705,
    "Open": 0.032704,
    "High": 0.032772,
    "Low": 0.031316,
    "Vol": 31380
  },
  {
    "Date": "2019-11-06",
    "Price": 0.032706,
    "Open": 0.031465,
    "High": 0.032822,
    "Low": 0.031385,
    "Vol": 40690
  },
  {
    "Date": "2019-11-05",
    "Price": 0.031487,
    "Open": 0.030903,
    "High": 0.031781,
    "Low": 0.030787,
    "Vol": 17640
  },
  {
    "Date": "2019-11-04",
    "Price": 0.030916,
    "Open": 0.031668,
    "High": 0.031779,
    "Low": 0.030488,
    "Vol": 25010
  },
  {
    "Date": "2019-11-03",
    "Price": 0.031679,
    "Open": 0.03117,
    "High": 0.032481,
    "Low": 0.030959,
    "Vol": 35950
  },
  {
    "Date": "2019-11-02",
    "Price": 0.031172,
    "Open": 0.030143,
    "High": 0.03165,
    "Low": 0.030095,
    "Vol": 21520
  },
  {
    "Date": "2019-11-01",
    "Price": 0.030156,
    "Open": 0.030911,
    "High": 0.030982,
    "Low": 0.029691,
    "Vol": 25100
  },
  {
    "Date": "2019-10-31",
    "Price": 0.03091,
    "Open": 0.031513,
    "High": 0.031853,
    "Low": 0.030135,
    "Vol": 45300
  },
  {
    "Date": "2019-10-30",
    "Price": 0.031543,
    "Open": 0.030731,
    "High": 0.032661,
    "Low": 0.030534,
    "Vol": 66050
  },
  {
    "Date": "2019-10-29",
    "Price": 0.030744,
    "Open": 0.028692,
    "High": 0.031401,
    "Low": 0.028561,
    "Vol": 98890
  },
  {
    "Date": "2019-10-28",
    "Price": 0.028667,
    "Open": 0.027353,
    "High": 0.029142,
    "Low": 0.027238,
    "Vol": 51310
  },
  {
    "Date": "2019-10-27",
    "Price": 0.02735,
    "Open": 0.027314,
    "High": 0.027966,
    "Low": 0.026912,
    "Vol": 45650
  },
  {
    "Date": "2019-10-26",
    "Price": 0.027375,
    "Open": 0.029921,
    "High": 0.030048,
    "Low": 0.026789,
    "Vol": 95630
  },
  {
    "Date": "2019-10-25",
    "Price": 0.029921,
    "Open": 0.028593,
    "High": 0.03162,
    "Low": 0.028217,
    "Vol": 83020
  },
  {
    "Date": "2019-10-24",
    "Price": 0.02859,
    "Open": 0.028146,
    "High": 0.029154,
    "Low": 0.027898,
    "Vol": 26010
  },
  {
    "Date": "2019-10-23",
    "Price": 0.028125,
    "Open": 0.028293,
    "High": 0.028314,
    "Low": 0.027128,
    "Vol": 45470
  },
  {
    "Date": "2019-10-22",
    "Price": 0.028288,
    "Open": 0.028301,
    "High": 0.0285,
    "Low": 0.027724,
    "Vol": 17510
  },
  {
    "Date": "2019-10-21",
    "Price": 0.02832,
    "Open": 0.027313,
    "High": 0.028751,
    "Low": 0.027162,
    "Vol": 33120
  },
  {
    "Date": "2019-10-20",
    "Price": 0.027331,
    "Open": 0.026785,
    "High": 0.027828,
    "Low": 0.026716,
    "Vol": 19080
  },
  {
    "Date": "2019-10-19",
    "Price": 0.026786,
    "Open": 0.026631,
    "High": 0.027125,
    "Low": 0.026599,
    "Vol": 9590
  },
  {
    "Date": "2019-10-18",
    "Price": 0.026665,
    "Open": 0.027253,
    "High": 0.027344,
    "Low": 0.026554,
    "Vol": 20170
  },
  {
    "Date": "2019-10-17",
    "Price": 0.027274,
    "Open": 0.027124,
    "High": 0.027359,
    "Low": 0.026893,
    "Vol": 9900
  },
  {
    "Date": "2019-10-16",
    "Price": 0.027131,
    "Open": 0.027217,
    "High": 0.02756,
    "Low": 0.026858,
    "Vol": 17250
  },
  {
    "Date": "2019-10-15",
    "Price": 0.027212,
    "Open": 0.0273,
    "High": 0.027342,
    "Low": 0.026879,
    "Vol": 15900
  },
  {
    "Date": "2019-10-14",
    "Price": 0.027305,
    "Open": 0.026947,
    "High": 0.027511,
    "Low": 0.026947,
    "Vol": 11710
  },
  {
    "Date": "2019-10-13",
    "Price": 0.026946,
    "Open": 0.027,
    "High": 0.027198,
    "Low": 0.026688,
    "Vol": 7830
  },
  {
    "Date": "2019-10-12",
    "Price": 0.026982,
    "Open": 0.026701,
    "High": 0.027309,
    "Low": 0.026675,
    "Vol": 10630
  },
  {
    "Date": "2019-10-11",
    "Price": 0.026691,
    "Open": 0.026825,
    "High": 0.027087,
    "Low": 0.026372,
    "Vol": 20040
  },
  {
    "Date": "2019-10-10",
    "Price": 0.026813,
    "Open": 0.027822,
    "High": 0.0279,
    "Low": 0.026796,
    "Vol": 25830
  },
  {
    "Date": "2019-10-09",
    "Price": 0.02781,
    "Open": 0.028334,
    "High": 0.028625,
    "Low": 0.027507,
    "Vol": 25480
  },
  {
    "Date": "2019-10-08",
    "Price": 0.028329,
    "Open": 0.0284,
    "High": 0.028824,
    "Low": 0.027913,
    "Vol": 15390
  },
  {
    "Date": "2019-10-07",
    "Price": 0.028411,
    "Open": 0.028048,
    "High": 0.028805,
    "Low": 0.028029,
    "Vol": 26220
  },
  {
    "Date": "2019-10-06",
    "Price": 0.028018,
    "Open": 0.027408,
    "High": 0.028155,
    "Low": 0.027336,
    "Vol": 13370
  },
  {
    "Date": "2019-10-05",
    "Price": 0.027405,
    "Open": 0.027222,
    "High": 0.027564,
    "Low": 0.027129,
    "Vol": 10280
  },
  {
    "Date": "2019-10-04",
    "Price": 0.027208,
    "Open": 0.027,
    "High": 0.027501,
    "Low": 0.027,
    "Vol": 13900
  },
  {
    "Date": "2019-10-03",
    "Price": 0.027,
    "Open": 0.026872,
    "High": 0.02729,
    "Low": 0.026791,
    "Vol": 11140
  },
  {
    "Date": "2019-10-02",
    "Price": 0.02689,
    "Open": 0.026838,
    "High": 0.027254,
    "Low": 0.026722,
    "Vol": 15310
  },
  {
    "Date": "2019-10-01",
    "Price": 0.026832,
    "Open": 0.027392,
    "High": 0.028302,
    "Low": 0.02656,
    "Vol": 37820
  },
  {
    "Date": "2019-09-30",
    "Price": 0.027403,
    "Open": 0.027107,
    "High": 0.028312,
    "Low": 0.026883,
    "Vol": 34170
  },
  {
    "Date": "2019-09-29",
    "Price": 0.027107,
    "Open": 0.027704,
    "High": 0.027709,
    "Low": 0.026688,
    "Vol": 27440
  },
  {
    "Date": "2019-09-28",
    "Price": 0.027665,
    "Open": 0.026917,
    "High": 0.028286,
    "Low": 0.026832,
    "Vol": 28140
  },
  {
    "Date": "2019-09-27",
    "Price": 0.026912,
    "Open": 0.02655,
    "High": 0.027164,
    "Low": 0.026445,
    "Vol": 25780
  },
  {
    "Date": "2019-09-26",
    "Price": 0.026556,
    "Open": 0.026952,
    "High": 0.026955,
    "Low": 0.026149,
    "Vol": 47200
  },
  {
    "Date": "2019-09-25",
    "Price": 0.026955,
    "Open": 0.025644,
    "High": 0.027116,
    "Low": 0.025497,
    "Vol": 80460
  },
  {
    "Date": "2019-09-24",
    "Price": 0.02556,
    "Open": 0.030114,
    "High": 0.030122,
    "Low": 0.025334,
    "Vol": 97290
  },
  {
    "Date": "2019-09-23",
    "Price": 0.030145,
    "Open": 0.030602,
    "High": 0.031075,
    "Low": 0.030105,
    "Vol": 15330
  },
  {
    "Date": "2019-09-22",
    "Price": 0.030576,
    "Open": 0.0312,
    "High": 0.031234,
    "Low": 0.030322,
    "Vol": 7140
  },
  {
    "Date": "2019-09-21",
    "Price": 0.031228,
    "Open": 0.03105,
    "High": 0.031339,
    "Low": 0.030961,
    "Vol": 11300
  },
  {
    "Date": "2019-09-20",
    "Price": 0.031036,
    "Open": 0.031488,
    "High": 0.031608,
    "Low": 0.030579,
    "Vol": 16290
  },
  {
    "Date": "2019-09-19",
    "Price": 0.031497,
    "Open": 0.031851,
    "High": 0.031851,
    "Low": 0.030937,
    "Vol": 26610
  },
  {
    "Date": "2019-09-18",
    "Price": 0.03186,
    "Open": 0.031272,
    "High": 0.032665,
    "Low": 0.03127,
    "Vol": 34060
  },
  {
    "Date": "2019-09-17",
    "Price": 0.031246,
    "Open": 0.029998,
    "High": 0.03195,
    "Low": 0.029869,
    "Vol": 33010
  },
  {
    "Date": "2019-09-16",
    "Price": 0.029974,
    "Open": 0.029413,
    "High": 0.030009,
    "Low": 0.02941,
    "Vol": 12510
  },
  {
    "Date": "2019-09-15",
    "Price": 0.029412,
    "Open": 0.029422,
    "High": 0.029682,
    "Low": 0.029305,
    "Vol": 6690
  },
  {
    "Date": "2019-09-14",
    "Price": 0.02943,
    "Open": 0.028825,
    "High": 0.02959,
    "Low": 0.028781,
    "Vol": 8600
  },
  {
    "Date": "2019-09-13",
    "Price": 0.02881,
    "Open": 0.028797,
    "High": 0.029048,
    "Low": 0.028654,
    "Vol": 9150
  },
  {
    "Date": "2019-09-12",
    "Price": 0.028813,
    "Open": 0.029463,
    "High": 0.029488,
    "Low": 0.028813,
    "Vol": 9560
  },
  {
    "Date": "2019-09-11",
    "Price": 0.029425,
    "Open": 0.030105,
    "High": 0.030301,
    "Low": 0.02918,
    "Vol": 12720
  },
  {
    "Date": "2019-09-10",
    "Price": 0.030112,
    "Open": 0.029514,
    "High": 0.030179,
    "Low": 0.029495,
    "Vol": 12430
  },
  {
    "Date": "2019-09-09",
    "Price": 0.029518,
    "Open": 0.029497,
    "High": 0.030335,
    "Low": 0.029074,
    "Vol": 22190
  },
  {
    "Date": "2019-09-08",
    "Price": 0.029523,
    "Open": 0.028665,
    "High": 0.02959,
    "Low": 0.028631,
    "Vol": 21300
  },
  {
    "Date": "2019-09-07",
    "Price": 0.028659,
    "Open": 0.027835,
    "High": 0.029044,
    "Low": 0.027443,
    "Vol": 14650
  },
  {
    "Date": "2019-09-06",
    "Price": 0.027797,
    "Open": 0.0277,
    "High": 0.028196,
    "Low": 0.027307,
    "Vol": 15510
  },
  {
    "Date": "2019-09-05",
    "Price": 0.027688,
    "Open": 0.027839,
    "High": 0.027902,
    "Low": 0.027165,
    "Vol": 13360
  },
  {
    "Date": "2019-09-04",
    "Price": 0.027834,
    "Open": 0.028291,
    "High": 0.028457,
    "Low": 0.027677,
    "Vol": 14930
  },
  {
    "Date": "2019-09-03",
    "Price": 0.028308,
    "Open": 0.028314,
    "High": 0.028882,
    "Low": 0.027964,
    "Vol": 17520
  },
  {
    "Date": "2019-09-02",
    "Price": 0.028335,
    "Open": 0.028881,
    "High": 0.029427,
    "Low": 0.028175,
    "Vol": 18110
  },
  {
    "Date": "2019-09-01",
    "Price": 0.02887,
    "Open": 0.029094,
    "High": 0.029398,
    "Low": 0.028655,
    "Vol": 9470
  },
  {
    "Date": "2019-08-31",
    "Price": 0.029116,
    "Open": 0.029103,
    "High": 0.029409,
    "Low": 0.028424,
    "Vol": 10860
  },
  {
    "Date": "2019-08-30",
    "Price": 0.029092,
    "Open": 0.029483,
    "High": 0.029665,
    "Low": 0.028854,
    "Vol": 14070
  },
  {
    "Date": "2019-08-29",
    "Price": 0.029502,
    "Open": 0.030028,
    "High": 0.030104,
    "Low": 0.02919,
    "Vol": 19260
  },
  {
    "Date": "2019-08-28",
    "Price": 0.03003,
    "Open": 0.030273,
    "High": 0.030432,
    "Low": 0.029138,
    "Vol": 38610
  },
  {
    "Date": "2019-08-27",
    "Price": 0.030294,
    "Open": 0.029996,
    "High": 0.030768,
    "Low": 0.029712,
    "Vol": 11660
  },
  {
    "Date": "2019-08-26",
    "Price": 0.030002,
    "Open": 0.030134,
    "High": 0.030375,
    "Low": 0.029428,
    "Vol": 13190
  },
  {
    "Date": "2019-08-25",
    "Price": 0.030135,
    "Open": 0.03017,
    "High": 0.030629,
    "Low": 0.030063,
    "Vol": 11000
  },
  {
    "Date": "2019-08-24",
    "Price": 0.030172,
    "Open": 0.030378,
    "High": 0.030583,
    "Low": 0.030085,
    "Vol": 11540
  },
  {
    "Date": "2019-08-23",
    "Price": 0.030386,
    "Open": 0.030864,
    "High": 0.030881,
    "Low": 0.029873,
    "Vol": 14730
  },
  {
    "Date": "2019-08-22",
    "Price": 0.030877,
    "Open": 0.030114,
    "High": 0.030932,
    "Low": 0.029751,
    "Vol": 17010
  },
  {
    "Date": "2019-08-21",
    "Price": 0.030214,
    "Open": 0.029322,
    "High": 0.030214,
    "Low": 0.029169,
    "Vol": 20550
  },
  {
    "Date": "2019-08-20",
    "Price": 0.029338,
    "Open": 0.029787,
    "High": 0.029902,
    "Low": 0.029117,
    "Vol": 13770
  },
  {
    "Date": "2019-08-19",
    "Price": 0.029782,
    "Open": 0.030752,
    "High": 0.030779,
    "Low": 0.029777,
    "Vol": 15910
  },
  {
    "Date": "2019-08-18",
    "Price": 0.030736,
    "Open": 0.030012,
    "High": 0.031115,
    "Low": 0.029907,
    "Vol": 15680
  },
  {
    "Date": "2019-08-17",
    "Price": 0.030025,
    "Open": 0.029876,
    "High": 0.030302,
    "Low": 0.029639,
    "Vol": 10950
  },
  {
    "Date": "2019-08-16",
    "Price": 0.029893,
    "Open": 0.030508,
    "High": 0.031097,
    "Low": 0.029623,
    "Vol": 26720
  },
  {
    "Date": "2019-08-15",
    "Price": 0.030535,
    "Open": 0.030941,
    "High": 0.031701,
    "Low": 0.029869,
    "Vol": 30980
  },
  {
    "Date": "2019-08-14",
    "Price": 0.03103,
    "Open": 0.031903,
    "High": 0.033799,
    "Low": 0.030151,
    "Vol": 68850
  },
  {
    "Date": "2019-08-13",
    "Price": 0.031879,
    "Open": 0.028952,
    "High": 0.032267,
    "Low": 0.028806,
    "Vol": 43850
  },
  {
    "Date": "2019-08-12",
    "Price": 0.028982,
    "Open": 0.02936,
    "High": 0.0297,
    "Low": 0.028814,
    "Vol": 13450
  },
  {
    "Date": "2019-08-11",
    "Price": 0.029289,
    "Open": 0.027954,
    "High": 0.03025,
    "Low": 0.027934,
    "Vol": 22320
  },
  {
    "Date": "2019-08-10",
    "Price": 0.027944,
    "Open": 0.026521,
    "High": 0.028178,
    "Low": 0.026506,
    "Vol": 20590
  },
  {
    "Date": "2019-08-09",
    "Price": 0.026516,
    "Open": 0.027786,
    "High": 0.02799,
    "Low": 0.026238,
    "Vol": 23820
  },
  {
    "Date": "2019-08-08",
    "Price": 0.02779,
    "Open": 0.02825,
    "High": 0.028473,
    "Low": 0.027771,
    "Vol": 14750
  },
  {
    "Date": "2019-08-07",
    "Price": 0.028297,
    "Open": 0.029268,
    "High": 0.029362,
    "Low": 0.02824,
    "Vol": 22650
  },
  {
    "Date": "2019-08-06",
    "Price": 0.029289,
    "Open": 0.029365,
    "High": 0.029639,
    "Low": 0.028665,
    "Vol": 25280
  },
  {
    "Date": "2019-08-05",
    "Price": 0.029441,
    "Open": 0.030669,
    "High": 0.030669,
    "Low": 0.029199,
    "Vol": 32580
  },
  {
    "Date": "2019-08-04",
    "Price": 0.030647,
    "Open": 0.031031,
    "High": 0.031396,
    "Low": 0.030557,
    "Vol": 14010
  },
  {
    "Date": "2019-08-03",
    "Price": 0.031042,
    "Open": 0.031159,
    "High": 0.032722,
    "Low": 0.030732,
    "Vol": 30090
  },
  {
    "Date": "2019-08-02",
    "Price": 0.031149,
    "Open": 0.031668,
    "High": 0.031871,
    "Low": 0.030642,
    "Vol": 28470
  },
  {
    "Date": "2019-08-01",
    "Price": 0.031693,
    "Open": 0.032609,
    "High": 0.032609,
    "Low": 0.031286,
    "Vol": 23730
  },
  {
    "Date": "2019-07-31",
    "Price": 0.032592,
    "Open": 0.033229,
    "High": 0.034583,
    "Low": 0.032289,
    "Vol": 37950
  },
  {
    "Date": "2019-07-30",
    "Price": 0.033197,
    "Open": 0.032131,
    "High": 0.033669,
    "Low": 0.03196,
    "Vol": 25360
  },
  {
    "Date": "2019-07-29",
    "Price": 0.032159,
    "Open": 0.032631,
    "High": 0.032631,
    "Low": 0.03198,
    "Vol": 17910
  },
  {
    "Date": "2019-07-28",
    "Price": 0.032515,
    "Open": 0.032281,
    "High": 0.032743,
    "Low": 0.031611,
    "Vol": 19580
  },
  {
    "Date": "2019-07-27",
    "Price": 0.032215,
    "Open": 0.032269,
    "High": 0.032403,
    "Low": 0.03129,
    "Vol": 32920
  },
  {
    "Date": "2019-07-26",
    "Price": 0.032277,
    "Open": 0.030595,
    "High": 0.032997,
    "Low": 0.030448,
    "Vol": 47690
  },
  {
    "Date": "2019-07-25",
    "Price": 0.030608,
    "Open": 0.030946,
    "High": 0.031196,
    "Low": 0.029747,
    "Vol": 18040
  },
  {
    "Date": "2019-07-24",
    "Price": 0.030994,
    "Open": 0.030178,
    "High": 0.031092,
    "Low": 0.029324,
    "Vol": 29490
  },
  {
    "Date": "2019-07-23",
    "Price": 0.030206,
    "Open": 0.030055,
    "High": 0.03066,
    "Low": 0.02963,
    "Vol": 23930
  },
  {
    "Date": "2019-07-22",
    "Price": 0.030026,
    "Open": 0.03031,
    "High": 0.030515,
    "Low": 0.029672,
    "Vol": 18680
  },
  {
    "Date": "2019-07-21",
    "Price": 0.030328,
    "Open": 0.03019,
    "High": 0.030961,
    "Low": 0.02996,
    "Vol": 21480
  },
  {
    "Date": "2019-07-20",
    "Price": 0.030226,
    "Open": 0.029244,
    "High": 0.03208,
    "Low": 0.029214,
    "Vol": 45450
  },
  {
    "Date": "2019-07-19",
    "Price": 0.029259,
    "Open": 0.02957,
    "High": 0.029768,
    "Low": 0.028572,
    "Vol": 20410
  },
  {
    "Date": "2019-07-18",
    "Price": 0.029564,
    "Open": 0.030028,
    "High": 0.030938,
    "Low": 0.029328,
    "Vol": 48660
  },
  {
    "Date": "2019-07-17",
    "Price": 0.030131,
    "Open": 0.029982,
    "High": 0.031457,
    "Low": 0.029678,
    "Vol": 94330
  },
  {
    "Date": "2019-07-16",
    "Price": 0.029955,
    "Open": 0.028877,
    "High": 0.029955,
    "Low": 0.027878,
    "Vol": 84130
  },
  {
    "Date": "2019-07-15",
    "Price": 0.028826,
    "Open": 0.027639,
    "High": 0.03038,
    "Low": 0.026012,
    "Vol": 93240
  },
  {
    "Date": "2019-07-14",
    "Price": 0.027694,
    "Open": 0.030196,
    "High": 0.030585,
    "Low": 0.027153,
    "Vol": 51580
  },
  {
    "Date": "2019-07-13",
    "Price": 0.030231,
    "Open": 0.029973,
    "High": 0.03092,
    "Low": 0.029599,
    "Vol": 30460
  },
  {
    "Date": "2019-07-12",
    "Price": 0.029982,
    "Open": 0.030379,
    "High": 0.031849,
    "Low": 0.029754,
    "Vol": 39270
  },
  {
    "Date": "2019-07-11",
    "Price": 0.030468,
    "Open": 0.032178,
    "High": 0.032497,
    "Low": 0.028115,
    "Vol": 102790
  },
  {
    "Date": "2019-07-10",
    "Price": 0.032178,
    "Open": 0.033063,
    "High": 0.033103,
    "Low": 0.031073,
    "Vol": 57690
  },
  {
    "Date": "2019-07-09",
    "Price": 0.033039,
    "Open": 0.034043,
    "High": 0.034204,
    "Low": 0.032947,
    "Vol": 42440
  },
  {
    "Date": "2019-07-08",
    "Price": 0.034003,
    "Open": 0.035954,
    "High": 0.035964,
    "Low": 0.033899,
    "Vol": 25580
  },
  {
    "Date": "2019-07-07",
    "Price": 0.035999,
    "Open": 0.036154,
    "High": 0.036251,
    "Low": 0.035417,
    "Vol": 16960
  },
  {
    "Date": "2019-07-06",
    "Price": 0.036134,
    "Open": 0.036402,
    "High": 0.036514,
    "Low": 0.035112,
    "Vol": 35440
  },
  {
    "Date": "2019-07-05",
    "Price": 0.036432,
    "Open": 0.035915,
    "High": 0.036698,
    "Low": 0.035378,
    "Vol": 91230
  },
  {
    "Date": "2019-07-04",
    "Price": 0.035848,
    "Open": 0.035222,
    "High": 0.036381,
    "Low": 0.034754,
    "Vol": 80230
  },
  {
    "Date": "2019-07-03",
    "Price": 0.035237,
    "Open": 0.037625,
    "High": 0.037625,
    "Low": 0.035145,
    "Vol": 62190
  },
  {
    "Date": "2019-07-02",
    "Price": 0.037657,
    "Open": 0.039375,
    "High": 0.040283,
    "Low": 0.037039,
    "Vol": 100810
  },
  {
    "Date": "2019-07-01",
    "Price": 0.039354,
    "Open": 0.037155,
    "High": 0.039785,
    "Low": 0.036918,
    "Vol": 94620
  },
  {
    "Date": "2019-06-30",
    "Price": 0.037203,
    "Open": 0.037014,
    "High": 0.037451,
    "Low": 0.036287,
    "Vol": 79390
  },
  {
    "Date": "2019-06-29",
    "Price": 0.037092,
    "Open": 0.035187,
    "High": 0.0372,
    "Low": 0.034956,
    "Vol": 107740
  },
  {
    "Date": "2019-06-28",
    "Price": 0.03516,
    "Open": 0.036938,
    "High": 0.037998,
    "Low": 0.034966,
    "Vol": 137990
  },
  {
    "Date": "2019-06-27",
    "Price": 0.036951,
    "Open": 0.037312,
    "High": 0.038289,
    "Low": 0.035496,
    "Vol": 125560
  },
  {
    "Date": "2019-06-26",
    "Price": 0.037238,
    "Open": 0.040553,
    "High": 0.040848,
    "Low": 0.036388,
    "Vol": 153790
  },
  {
    "Date": "2019-06-25",
    "Price": 0.040635,
    "Open": 0.043378,
    "High": 0.043378,
    "Low": 0.040552,
    "Vol": 64030
  },
  {
    "Date": "2019-06-24",
    "Price": 0.043351,
    "Open": 0.043834,
    "High": 0.044165,
    "Low": 0.042645,
    "Vol": 41000
  },
  {
    "Date": "2019-06-23",
    "Price": 0.043805,
    "Open": 0.044966,
    "High": 0.046122,
    "Low": 0.043694,
    "Vol": 81520
  },
  {
    "Date": "2019-06-22",
    "Price": 0.044947,
    "Open": 0.043295,
    "High": 0.051866,
    "Low": 0.040721,
    "Vol": 179230
  },
  {
    "Date": "2019-06-21",
    "Price": 0.043254,
    "Open": 0.043288,
    "High": 0.045317,
    "Low": 0.043214,
    "Vol": 64880
  },
  {
    "Date": "2019-06-20",
    "Price": 0.043301,
    "Open": 0.044844,
    "High": 0.044886,
    "Low": 0.043063,
    "Vol": 31270
  },
  {
    "Date": "2019-06-19",
    "Price": 0.044889,
    "Open": 0.045565,
    "High": 0.045822,
    "Low": 0.044605,
    "Vol": 39280
  },
  {
    "Date": "2019-06-18",
    "Price": 0.045586,
    "Open": 0.046258,
    "High": 0.046271,
    "Low": 0.044626,
    "Vol": 72060
  },
  {
    "Date": "2019-06-17",
    "Price": 0.046245,
    "Open": 0.047619,
    "High": 0.047619,
    "Low": 0.04609,
    "Vol": 40710
  },
  {
    "Date": "2019-06-16",
    "Price": 0.047621,
    "Open": 0.047814,
    "High": 0.047906,
    "Low": 0.046703,
    "Vol": 57170
  },
  {
    "Date": "2019-06-15",
    "Price": 0.047825,
    "Open": 0.04853,
    "High": 0.048934,
    "Low": 0.04749,
    "Vol": 32620
  },
  {
    "Date": "2019-06-14",
    "Price": 0.048531,
    "Open": 0.050026,
    "High": 0.050461,
    "Low": 0.047846,
    "Vol": 56510
  },
  {
    "Date": "2019-06-13",
    "Price": 0.050012,
    "Open": 0.048622,
    "High": 0.051608,
    "Low": 0.048488,
    "Vol": 80520
  },
  {
    "Date": "2019-06-12",
    "Price": 0.048595,
    "Open": 0.049038,
    "High": 0.049517,
    "Low": 0.047991,
    "Vol": 39300
  },
  {
    "Date": "2019-06-11",
    "Price": 0.049058,
    "Open": 0.04923,
    "High": 0.049884,
    "Low": 0.048904,
    "Vol": 25630
  },
  {
    "Date": "2019-06-10",
    "Price": 0.049226,
    "Open": 0.049809,
    "High": 0.050335,
    "Low": 0.048973,
    "Vol": 34010
  },
  {
    "Date": "2019-06-09",
    "Price": 0.049827,
    "Open": 0.049718,
    "High": 0.05,
    "Low": 0.048882,
    "Vol": 21710
  },
  {
    "Date": "2019-06-08",
    "Price": 0.049634,
    "Open": 0.049927,
    "High": 0.050479,
    "Low": 0.04941,
    "Vol": 28150
  },
  {
    "Date": "2019-06-07",
    "Price": 0.049963,
    "Open": 0.050955,
    "High": 0.050955,
    "Low": 0.049744,
    "Vol": 33980
  },
  {
    "Date": "2019-06-06",
    "Price": 0.050867,
    "Open": 0.050961,
    "High": 0.051271,
    "Low": 0.049354,
    "Vol": 85040
  },
  {
    "Date": "2019-06-05",
    "Price": 0.050967,
    "Open": 0.049957,
    "High": 0.052842,
    "Low": 0.049387,
    "Vol": 315870
  },
  {
    "Date": "2019-06-04",
    "Price": 0.049844,
    "Open": 0.04945,
    "High": 0.0504,
    "Low": 0.048362,
    "Vol": 78880
  },
  {
    "Date": "2019-06-03",
    "Price": 0.049453,
    "Open": 0.050507,
    "High": 0.051519,
    "Low": 0.049074,
    "Vol": 56270
  },
  {
    "Date": "2019-06-02",
    "Price": 0.050605,
    "Open": 0.050485,
    "High": 0.051527,
    "Low": 0.050364,
    "Vol": 23910
  },
  {
    "Date": "2019-06-01",
    "Price": 0.050548,
    "Open": 0.051861,
    "High": 0.052322,
    "Low": 0.050263,
    "Vol": 33380
  },
  {
    "Date": "2019-05-31",
    "Price": 0.05183,
    "Open": 0.050868,
    "High": 0.052112,
    "Low": 0.050671,
    "Vol": 53900
  },
  {
    "Date": "2019-05-30",
    "Price": 0.050924,
    "Open": 0.052921,
    "High": 0.055203,
    "Low": 0.050093,
    "Vol": 122680
  },
  {
    "Date": "2019-05-29",
    "Price": 0.052777,
    "Open": 0.049742,
    "High": 0.053364,
    "Low": 0.04938,
    "Vol": 83740
  },
  {
    "Date": "2019-05-28",
    "Price": 0.049736,
    "Open": 0.050118,
    "High": 0.05057,
    "Low": 0.04925,
    "Vol": 51040
  },
  {
    "Date": "2019-05-27",
    "Price": 0.05018,
    "Open": 0.049681,
    "High": 0.051312,
    "Low": 0.048592,
    "Vol": 81880
  },
  {
    "Date": "2019-05-26",
    "Price": 0.049707,
    "Open": 0.05033,
    "High": 0.05085,
    "Low": 0.048794,
    "Vol": 57070
  },
  {
    "Date": "2019-05-25",
    "Price": 0.050383,
    "Open": 0.051153,
    "High": 0.05172,
    "Low": 0.049916,
    "Vol": 33000
  },
  {
    "Date": "2019-05-24",
    "Price": 0.051161,
    "Open": 0.051474,
    "High": 0.052477,
    "Low": 0.050611,
    "Vol": 67510
  },
  {
    "Date": "2019-05-23",
    "Price": 0.051431,
    "Open": 0.050833,
    "High": 0.051674,
    "Low": 0.049115,
    "Vol": 67720
  },
  {
    "Date": "2019-05-22",
    "Price": 0.050868,
    "Open": 0.052433,
    "High": 0.05294,
    "Low": 0.049856,
    "Vol": 80960
  },
  {
    "Date": "2019-05-21",
    "Price": 0.052423,
    "Open": 0.051858,
    "High": 0.056,
    "Low": 0.051059,
    "Vol": 117770
  },
  {
    "Date": "2019-05-20",
    "Price": 0.051835,
    "Open": 0.050833,
    "High": 0.052292,
    "Low": 0.050001,
    "Vol": 94360
  },
  {
    "Date": "2019-05-19",
    "Price": 0.051035,
    "Open": 0.049164,
    "High": 0.053301,
    "Low": 0.04895,
    "Vol": 117040
  },
  {
    "Date": "2019-05-18",
    "Price": 0.049208,
    "Open": 0.049977,
    "High": 0.050337,
    "Low": 0.048555,
    "Vol": 56400
  },
  {
    "Date": "2019-05-17",
    "Price": 0.049921,
    "Open": 0.050605,
    "High": 0.052059,
    "Low": 0.048268,
    "Vol": 146600
  },
  {
    "Date": "2019-05-16",
    "Price": 0.050631,
    "Open": 0.049306,
    "High": 0.054293,
    "Low": 0.048988,
    "Vol": 197330
  },
  {
    "Date": "2019-05-15",
    "Price": 0.049373,
    "Open": 0.048501,
    "High": 0.050303,
    "Low": 0.046652,
    "Vol": 82380
  },
  {
    "Date": "2019-05-14",
    "Price": 0.048667,
    "Open": 0.049029,
    "High": 0.05082,
    "Low": 0.046535,
    "Vol": 114530
  },
  {
    "Date": "2019-05-13",
    "Price": 0.049088,
    "Open": 0.051095,
    "High": 0.051825,
    "Low": 0.048132,
    "Vol": 149340
  },
  {
    "Date": "2019-05-12",
    "Price": 0.051108,
    "Open": 0.049188,
    "High": 0.051641,
    "Low": 0.047782,
    "Vol": 185830
  },
  {
    "Date": "2019-05-11",
    "Price": 0.049213,
    "Open": 0.045032,
    "High": 0.05269,
    "Low": 0.043043,
    "Vol": 174980
  },
  {
    "Date": "2019-05-10",
    "Price": 0.04503,
    "Open": 0.045852,
    "High": 0.047104,
    "Low": 0.044368,
    "Vol": 56070
  },
  {
    "Date": "2019-05-09",
    "Price": 0.045852,
    "Open": 0.04778,
    "High": 0.048201,
    "Low": 0.045361,
    "Vol": 36900
  },
  {
    "Date": "2019-05-08",
    "Price": 0.04784,
    "Open": 0.048541,
    "High": 0.048765,
    "Low": 0.047429,
    "Vol": 34570
  },
  {
    "Date": "2019-05-07",
    "Price": 0.048859,
    "Open": 0.050382,
    "High": 0.051321,
    "Low": 0.048259,
    "Vol": 77150
  },
  {
    "Date": "2019-05-06",
    "Price": 0.050147,
    "Open": 0.050902,
    "High": 0.051291,
    "Low": 0.049008,
    "Vol": 75920
  },
  {
    "Date": "2019-05-05",
    "Price": 0.050827,
    "Open": 0.049854,
    "High": 0.051941,
    "Low": 0.049749,
    "Vol": 96630
  },
  {
    "Date": "2019-05-04",
    "Price": 0.049853,
    "Open": 0.05083,
    "High": 0.053321,
    "Low": 0.047645,
    "Vol": 158240
  },
  {
    "Date": "2019-05-03",
    "Price": 0.05082,
    "Open": 0.049,
    "High": 0.051771,
    "Low": 0.047118,
    "Vol": 98400
  },
  {
    "Date": "2019-05-02",
    "Price": 0.049064,
    "Open": 0.05036,
    "High": 0.051781,
    "Low": 0.048668,
    "Vol": 73120
  },
  {
    "Date": "2019-05-01",
    "Price": 0.050307,
    "Open": 0.050297,
    "High": 0.052082,
    "Low": 0.049478,
    "Vol": 96760
  },
  {
    "Date": "2019-04-30",
    "Price": 0.050271,
    "Open": 0.045603,
    "High": 0.050293,
    "Low": 0.045252,
    "Vol": 78630
  },
  {
    "Date": "2019-04-29",
    "Price": 0.04558,
    "Open": 0.048293,
    "High": 0.048319,
    "Low": 0.044632,
    "Vol": 62540
  },
  {
    "Date": "2019-04-28",
    "Price": 0.048358,
    "Open": 0.050148,
    "High": 0.050371,
    "Low": 0.047769,
    "Vol": 28270
  },
  {
    "Date": "2019-04-27",
    "Price": 0.050138,
    "Open": 0.050256,
    "High": 0.050814,
    "Low": 0.049739,
    "Vol": 23250
  },
  {
    "Date": "2019-04-26",
    "Price": 0.050212,
    "Open": 0.051356,
    "High": 0.051588,
    "Low": 0.049425,
    "Vol": 55690
  },
  {
    "Date": "2019-04-25",
    "Price": 0.051387,
    "Open": 0.051144,
    "High": 0.05208,
    "Low": 0.05096,
    "Vol": 62610
  },
  {
    "Date": "2019-04-24",
    "Price": 0.051186,
    "Open": 0.052189,
    "High": 0.052494,
    "Low": 0.04961,
    "Vol": 86860
  },
  {
    "Date": "2019-04-23",
    "Price": 0.052168,
    "Open": 0.054289,
    "High": 0.056131,
    "Low": 0.052059,
    "Vol": 79550
  },
  {
    "Date": "2019-04-22",
    "Price": 0.054312,
    "Open": 0.054804,
    "High": 0.055771,
    "Low": 0.053943,
    "Vol": 53990
  },
  {
    "Date": "2019-04-21",
    "Price": 0.054835,
    "Open": 0.056377,
    "High": 0.0569,
    "Low": 0.053491,
    "Vol": 59020
  },
  {
    "Date": "2019-04-20",
    "Price": 0.056391,
    "Open": 0.058032,
    "High": 0.05837,
    "Low": 0.056027,
    "Vol": 40170
  },
  {
    "Date": "2019-04-19",
    "Price": 0.058022,
    "Open": 0.058059,
    "High": 0.05866,
    "Low": 0.055635,
    "Vol": 79380
  },
  {
    "Date": "2019-04-18",
    "Price": 0.058022,
    "Open": 0.059309,
    "High": 0.059581,
    "Low": 0.057895,
    "Vol": 45740
  },
  {
    "Date": "2019-04-17",
    "Price": 0.059314,
    "Open": 0.060924,
    "High": 0.061184,
    "Low": 0.058546,
    "Vol": 61210
  },
  {
    "Date": "2019-04-16",
    "Price": 0.060894,
    "Open": 0.062082,
    "High": 0.064219,
    "Low": 0.060203,
    "Vol": 111280
  },
  {
    "Date": "2019-04-15",
    "Price": 0.062109,
    "Open": 0.056101,
    "High": 0.064998,
    "Low": 0.055777,
    "Vol": 228880
  },
  {
    "Date": "2019-04-14",
    "Price": 0.056028,
    "Open": 0.05485,
    "High": 0.056194,
    "Low": 0.054364,
    "Vol": 31160
  },
  {
    "Date": "2019-04-13",
    "Price": 0.054896,
    "Open": 0.055611,
    "High": 0.056196,
    "Low": 0.054085,
    "Vol": 44210
  },
  {
    "Date": "2019-04-12",
    "Price": 0.055541,
    "Open": 0.05379,
    "High": 0.056964,
    "Low": 0.052217,
    "Vol": 56170
  },
  {
    "Date": "2019-04-11",
    "Price": 0.053878,
    "Open": 0.05738,
    "High": 0.05738,
    "Low": 0.051332,
    "Vol": 96470
  },
  {
    "Date": "2019-04-10",
    "Price": 0.057393,
    "Open": 0.056908,
    "High": 0.0585,
    "Low": 0.056495,
    "Vol": 56200
  },
  {
    "Date": "2019-04-09",
    "Price": 0.056965,
    "Open": 0.058521,
    "High": 0.058627,
    "Low": 0.056762,
    "Vol": 54170
  },
  {
    "Date": "2019-04-08",
    "Price": 0.058581,
    "Open": 0.061608,
    "High": 0.062123,
    "Low": 0.057,
    "Vol": 102960
  },
  {
    "Date": "2019-04-07",
    "Price": 0.061619,
    "Open": 0.060492,
    "High": 0.063337,
    "Low": 0.059211,
    "Vol": 150490
  },
  {
    "Date": "2019-04-06",
    "Price": 0.060623,
    "Open": 0.058359,
    "High": 0.063397,
    "Low": 0.057214,
    "Vol": 182940
  },
  {
    "Date": "2019-04-05",
    "Price": 0.058298,
    "Open": 0.058329,
    "High": 0.059628,
    "Low": 0.057138,
    "Vol": 148320
  },
  {
    "Date": "2019-04-04",
    "Price": 0.058154,
    "Open": 0.060533,
    "High": 0.063417,
    "Low": 0.056034,
    "Vol": 306370
  },
  {
    "Date": "2019-04-03",
    "Price": 0.060586,
    "Open": 0.049681,
    "High": 0.066907,
    "Low": 0.049681,
    "Vol": 660760
  },
  {
    "Date": "2019-04-02",
    "Price": 0.049593,
    "Open": 0.040382,
    "High": 0.050313,
    "Low": 0.037194,
    "Vol": 198230
  },
  {
    "Date": "2019-04-01",
    "Price": 0.040373,
    "Open": 0.041147,
    "High": 0.041185,
    "Low": 0.04024,
    "Vol": 26480
  },
  {
    "Date": "2019-03-31",
    "Price": 0.041171,
    "Open": 0.040622,
    "High": 0.041237,
    "Low": 0.040381,
    "Vol": 20830
  },
  {
    "Date": "2019-03-30",
    "Price": 0.040652,
    "Open": 0.041539,
    "High": 0.04175,
    "Low": 0.040421,
    "Vol": 26900
  },
  {
    "Date": "2019-03-29",
    "Price": 0.041511,
    "Open": 0.041697,
    "High": 0.042441,
    "Low": 0.041002,
    "Vol": 39400
  },
  {
    "Date": "2019-03-28",
    "Price": 0.041691,
    "Open": 0.042269,
    "High": 0.042286,
    "Low": 0.041365,
    "Vol": 37340
  },
  {
    "Date": "2019-03-27",
    "Price": 0.042295,
    "Open": 0.040361,
    "High": 0.042918,
    "Low": 0.040205,
    "Vol": 71660
  },
  {
    "Date": "2019-03-26",
    "Price": 0.040349,
    "Open": 0.040578,
    "High": 0.040765,
    "Low": 0.039244,
    "Vol": 48640
  },
  {
    "Date": "2019-03-25",
    "Price": 0.040586,
    "Open": 0.041208,
    "High": 0.041378,
    "Low": 0.039413,
    "Vol": 61570
  },
  {
    "Date": "2019-03-24",
    "Price": 0.041215,
    "Open": 0.04142,
    "High": 0.041558,
    "Low": 0.040554,
    "Vol": 53030
  },
  {
    "Date": "2019-03-23",
    "Price": 0.041518,
    "Open": 0.039158,
    "High": 0.04227,
    "Low": 0.039089,
    "Vol": 86590
  },
  {
    "Date": "2019-03-22",
    "Price": 0.039208,
    "Open": 0.038397,
    "High": 0.039773,
    "Low": 0.038011,
    "Vol": 40710
  },
  {
    "Date": "2019-03-21",
    "Price": 0.038365,
    "Open": 0.039325,
    "High": 0.03938,
    "Low": 0.037287,
    "Vol": 56020
  },
  {
    "Date": "2019-03-20",
    "Price": 0.039316,
    "Open": 0.039891,
    "High": 0.039891,
    "Low": 0.038549,
    "Vol": 45390
  },
  {
    "Date": "2019-03-19",
    "Price": 0.039889,
    "Open": 0.040342,
    "High": 0.040479,
    "Low": 0.039003,
    "Vol": 52130
  },
  {
    "Date": "2019-03-18",
    "Price": 0.040392,
    "Open": 0.038781,
    "High": 0.041207,
    "Low": 0.038613,
    "Vol": 118180
  },
  {
    "Date": "2019-03-17",
    "Price": 0.038761,
    "Open": 0.038878,
    "High": 0.039425,
    "Low": 0.036976,
    "Vol": 80760
  },
  {
    "Date": "2019-03-16",
    "Price": 0.038933,
    "Open": 0.036552,
    "High": 0.040643,
    "Low": 0.036524,
    "Vol": 160480
  },
  {
    "Date": "2019-03-15",
    "Price": 0.036501,
    "Open": 0.03413,
    "High": 0.037159,
    "Low": 0.033999,
    "Vol": 86030
  },
  {
    "Date": "2019-03-14",
    "Price": 0.03413,
    "Open": 0.033053,
    "High": 0.034764,
    "Low": 0.033025,
    "Vol": 64720
  },
  {
    "Date": "2019-03-13",
    "Price": 0.033048,
    "Open": 0.033076,
    "High": 0.033278,
    "Low": 0.032853,
    "Vol": 23730
  },
  {
    "Date": "2019-03-12",
    "Price": 0.033068,
    "Open": 0.033261,
    "High": 0.033286,
    "Low": 0.032782,
    "Vol": 26190
  },
  {
    "Date": "2019-03-11",
    "Price": 0.033262,
    "Open": 0.033453,
    "High": 0.033523,
    "Low": 0.032905,
    "Vol": 22710
  },
  {
    "Date": "2019-03-10",
    "Price": 0.033455,
    "Open": 0.033872,
    "High": 0.033955,
    "Low": 0.033343,
    "Vol": 21030
  },
  {
    "Date": "2019-03-09",
    "Price": 0.033846,
    "Open": 0.033047,
    "High": 0.034692,
    "Low": 0.032853,
    "Vol": 37080
  },
  {
    "Date": "2019-03-08",
    "Price": 0.033051,
    "Open": 0.033683,
    "High": 0.034025,
    "Low": 0.03262,
    "Vol": 34960
  },
  {
    "Date": "2019-03-07",
    "Price": 0.033679,
    "Open": 0.034009,
    "High": 0.034149,
    "Low": 0.033581,
    "Vol": 22280
  },
  {
    "Date": "2019-03-06",
    "Price": 0.033993,
    "Open": 0.034246,
    "High": 0.034424,
    "Low": 0.033451,
    "Vol": 27680
  },
  {
    "Date": "2019-03-05",
    "Price": 0.034221,
    "Open": 0.033132,
    "High": 0.034355,
    "Low": 0.033003,
    "Vol": 36210
  },
  {
    "Date": "2019-03-04",
    "Price": 0.033152,
    "Open": 0.03403,
    "High": 0.034131,
    "Low": 0.032453,
    "Vol": 31010
  },
  {
    "Date": "2019-03-03",
    "Price": 0.034027,
    "Open": 0.03418,
    "High": 0.034404,
    "Low": 0.033958,
    "Vol": 13030
  },
  {
    "Date": "2019-03-02",
    "Price": 0.034162,
    "Open": 0.034339,
    "High": 0.034473,
    "Low": 0.033824,
    "Vol": 14850
  },
  {
    "Date": "2019-03-01",
    "Price": 0.034313,
    "Open": 0.034095,
    "High": 0.034636,
    "Low": 0.03398,
    "Vol": 28440
  },
  {
    "Date": "2019-02-28",
    "Price": 0.034111,
    "Open": 0.034334,
    "High": 0.034751,
    "Low": 0.033836,
    "Vol": 40170
  },
  {
    "Date": "2019-02-27",
    "Price": 0.034338,
    "Open": 0.034705,
    "High": 0.034935,
    "Low": 0.034071,
    "Vol": 35140
  },
  {
    "Date": "2019-02-26",
    "Price": 0.034728,
    "Open": 0.03483,
    "High": 0.035871,
    "Low": 0.034366,
    "Vol": 47070
  },
  {
    "Date": "2019-02-25",
    "Price": 0.03483,
    "Open": 0.033915,
    "High": 0.03635,
    "Low": 0.033882,
    "Vol": 72490
  },
  {
    "Date": "2019-02-24",
    "Price": 0.033869,
    "Open": 0.037489,
    "High": 0.037609,
    "Low": 0.033869,
    "Vol": 109030
  },
  {
    "Date": "2019-02-23",
    "Price": 0.037425,
    "Open": 0.03614,
    "High": 0.037425,
    "Low": 0.035601,
    "Vol": 39000
  },
  {
    "Date": "2019-02-22",
    "Price": 0.036122,
    "Open": 0.035976,
    "High": 0.036624,
    "Low": 0.035631,
    "Vol": 25490
  },
  {
    "Date": "2019-02-21",
    "Price": 0.036008,
    "Open": 0.036955,
    "High": 0.036976,
    "Low": 0.035533,
    "Vol": 39100
  },
  {
    "Date": "2019-02-20",
    "Price": 0.03693,
    "Open": 0.036163,
    "High": 0.037176,
    "Low": 0.035638,
    "Vol": 52530
  },
  {
    "Date": "2019-02-19",
    "Price": 0.036232,
    "Open": 0.036747,
    "High": 0.038403,
    "Low": 0.036032,
    "Vol": 87740
  },
  {
    "Date": "2019-02-18",
    "Price": 0.036767,
    "Open": 0.033846,
    "High": 0.038314,
    "Low": 0.033846,
    "Vol": 120390
  },
  {
    "Date": "2019-02-17",
    "Price": 0.033859,
    "Open": 0.033587,
    "High": 0.03411,
    "Low": 0.03339,
    "Vol": 21780
  },
  {
    "Date": "2019-02-16",
    "Price": 0.033599,
    "Open": 0.033684,
    "High": 0.033859,
    "Low": 0.033525,
    "Vol": 14080
  },
  {
    "Date": "2019-02-15",
    "Price": 0.033681,
    "Open": 0.03368,
    "High": 0.033927,
    "Low": 0.033518,
    "Vol": 22440
  },
  {
    "Date": "2019-02-14",
    "Price": 0.033676,
    "Open": 0.033805,
    "High": 0.034341,
    "Low": 0.033348,
    "Vol": 41230
  },
  {
    "Date": "2019-02-13",
    "Price": 0.033807,
    "Open": 0.033742,
    "High": 0.034833,
    "Low": 0.033502,
    "Vol": 28160
  },
  {
    "Date": "2019-02-12",
    "Price": 0.033741,
    "Open": 0.033654,
    "High": 0.033874,
    "Low": 0.03296,
    "Vol": 26160
  },
  {
    "Date": "2019-02-11",
    "Price": 0.03364,
    "Open": 0.034466,
    "High": 0.034511,
    "Low": 0.033218,
    "Vol": 30460
  },
  {
    "Date": "2019-02-10",
    "Price": 0.034454,
    "Open": 0.034903,
    "High": 0.035063,
    "Low": 0.033463,
    "Vol": 31640
  },
  {
    "Date": "2019-02-09",
    "Price": 0.034907,
    "Open": 0.035404,
    "High": 0.035527,
    "Low": 0.0345,
    "Vol": 38260
  },
  {
    "Date": "2019-02-08",
    "Price": 0.035407,
    "Open": 0.033961,
    "High": 0.035889,
    "Low": 0.033716,
    "Vol": 65180
  },
  {
    "Date": "2019-02-07",
    "Price": 0.033974,
    "Open": 0.033664,
    "High": 0.034355,
    "Low": 0.033433,
    "Vol": 27640
  },
  {
    "Date": "2019-02-06",
    "Price": 0.033678,
    "Open": 0.03381,
    "High": 0.03591,
    "Low": 0.032621,
    "Vol": 62720
  },
  {
    "Date": "2019-02-05",
    "Price": 0.033802,
    "Open": 0.03434,
    "High": 0.0346,
    "Low": 0.033767,
    "Vol": 16660
  },
  {
    "Date": "2019-02-04",
    "Price": 0.03434,
    "Open": 0.034319,
    "High": 0.0347,
    "Low": 0.034111,
    "Vol": 20930
  },
  {
    "Date": "2019-02-03",
    "Price": 0.034322,
    "Open": 0.034612,
    "High": 0.034881,
    "Low": 0.033975,
    "Vol": 31040
  },
  {
    "Date": "2019-02-02",
    "Price": 0.034573,
    "Open": 0.033311,
    "High": 0.03538,
    "Low": 0.033237,
    "Vol": 47510
  },
  {
    "Date": "2019-02-01",
    "Price": 0.033311,
    "Open": 0.033106,
    "High": 0.034158,
    "Low": 0.0325,
    "Vol": 33540
  },
  {
    "Date": "2019-01-31",
    "Price": 0.033091,
    "Open": 0.033831,
    "High": 0.034534,
    "Low": 0.032895,
    "Vol": 45190
  },
  {
    "Date": "2019-01-30",
    "Price": 0.033792,
    "Open": 0.032092,
    "High": 0.034634,
    "Low": 0.031772,
    "Vol": 50180
  },
  {
    "Date": "2019-01-29",
    "Price": 0.032092,
    "Open": 0.032325,
    "High": 0.032802,
    "Low": 0.031503,
    "Vol": 29790
  },
  {
    "Date": "2019-01-28",
    "Price": 0.03234,
    "Open": 0.034151,
    "High": 0.034157,
    "Low": 0.030995,
    "Vol": 53350
  },
  {
    "Date": "2019-01-27",
    "Price": 0.034169,
    "Open": 0.035212,
    "High": 0.035323,
    "Low": 0.033692,
    "Vol": 24610
  },
  {
    "Date": "2019-01-26",
    "Price": 0.035195,
    "Open": 0.035526,
    "High": 0.035565,
    "Low": 0.035124,
    "Vol": 13780
  },
  {
    "Date": "2019-01-25",
    "Price": 0.035552,
    "Open": 0.035864,
    "High": 0.035917,
    "Low": 0.035275,
    "Vol": 21430
  },
  {
    "Date": "2019-01-24",
    "Price": 0.035882,
    "Open": 0.036928,
    "High": 0.036928,
    "Low": 0.03563,
    "Vol": 36200
  },
  {
    "Date": "2019-01-23",
    "Price": 0.036939,
    "Open": 0.03562,
    "High": 0.037763,
    "Low": 0.035355,
    "Vol": 69890
  },
  {
    "Date": "2019-01-22",
    "Price": 0.035601,
    "Open": 0.034339,
    "High": 0.036568,
    "Low": 0.033387,
    "Vol": 50040
  },
  {
    "Date": "2019-01-21",
    "Price": 0.034347,
    "Open": 0.034417,
    "High": 0.034697,
    "Low": 0.034147,
    "Vol": 22130
  },
  {
    "Date": "2019-01-20",
    "Price": 0.034393,
    "Open": 0.034894,
    "High": 0.034989,
    "Low": 0.034106,
    "Vol": 24950
  },
  {
    "Date": "2019-01-19",
    "Price": 0.034914,
    "Open": 0.035136,
    "High": 0.035217,
    "Low": 0.034692,
    "Vol": 20080
  },
  {
    "Date": "2019-01-18",
    "Price": 0.035137,
    "Open": 0.035643,
    "High": 0.035656,
    "Low": 0.034826,
    "Vol": 24590
  },
  {
    "Date": "2019-01-17",
    "Price": 0.035643,
    "Open": 0.035363,
    "High": 0.036358,
    "Low": 0.034932,
    "Vol": 37890
  },
  {
    "Date": "2019-01-16",
    "Price": 0.035361,
    "Open": 0.035307,
    "High": 0.0358,
    "Low": 0.035102,
    "Vol": 32170
  },
  {
    "Date": "2019-01-15",
    "Price": 0.03531,
    "Open": 0.036099,
    "High": 0.036313,
    "Low": 0.034939,
    "Vol": 46410
  },
  {
    "Date": "2019-01-14",
    "Price": 0.036116,
    "Open": 0.035515,
    "High": 0.037,
    "Low": 0.034797,
    "Vol": 57280
  },
  {
    "Date": "2019-01-13",
    "Price": 0.035489,
    "Open": 0.036686,
    "High": 0.037139,
    "Low": 0.034753,
    "Vol": 47170
  },
  {
    "Date": "2019-01-12",
    "Price": 0.036683,
    "Open": 0.035589,
    "High": 0.037719,
    "Low": 0.035523,
    "Vol": 61310
  },
  {
    "Date": "2019-01-11",
    "Price": 0.035603,
    "Open": 0.036526,
    "High": 0.036531,
    "Low": 0.035004,
    "Vol": 70210
  },
  {
    "Date": "2019-01-10",
    "Price": 0.036571,
    "Open": 0.039603,
    "High": 0.040785,
    "Low": 0.034549,
    "Vol": 121700
  },
  {
    "Date": "2019-01-09",
    "Price": 0.039636,
    "Open": 0.040002,
    "High": 0.040029,
    "Low": 0.03921,
    "Vol": 29450
  },
  {
    "Date": "2019-01-08",
    "Price": 0.040036,
    "Open": 0.039899,
    "High": 0.040277,
    "Low": 0.03934,
    "Vol": 33630
  },
  {
    "Date": "2019-01-07",
    "Price": 0.039882,
    "Open": 0.040716,
    "High": 0.041234,
    "Low": 0.0395,
    "Vol": 46660
  },
  {
    "Date": "2019-01-06",
    "Price": 0.040716,
    "Open": 0.041544,
    "High": 0.041788,
    "Low": 0.04027,
    "Vol": 44530
  },
  {
    "Date": "2019-01-05",
    "Price": 0.04162,
    "Open": 0.041628,
    "High": 0.043207,
    "Low": 0.040823,
    "Vol": 47750
  },
  {
    "Date": "2019-01-04",
    "Price": 0.04161,
    "Open": 0.042151,
    "High": 0.042799,
    "Low": 0.040751,
    "Vol": 49060
  },
  {
    "Date": "2019-01-03",
    "Price": 0.042087,
    "Open": 0.043779,
    "High": 0.044984,
    "Low": 0.041563,
    "Vol": 62770
  },
  {
    "Date": "2019-01-02",
    "Price": 0.043776,
    "Open": 0.042841,
    "High": 0.04421,
    "Low": 0.042292,
    "Vol": 65950
  },
  {
    "Date": "2019-01-01",
    "Price": 0.04268,
    "Open": 0.040066,
    "High": 0.04447,
    "Low": 0.03985,
    "Vol": 60380
  }
]