[
  {
    "Date": "2020-02-12",
    "Price": 251.45,
    "Open": 237.06,
    "High": 256.42,
    "Low": 237.06,
    "Vol": 127280
  },
  {
    "Date": "2020-02-11",
    "Price": 237.24,
    "Open": 223.14,
    "High": 239,
    "Low": 218.25,
    "Vol": 66800
  },
  {
    "Date": "2020-02-10",
    "Price": 223.14,
    "Open": 228.23,
    "High": 229.21,
    "Low": 216.68,
    "Vol": 89640
  },
  {
    "Date": "2020-02-09",
    "Price": 228.23,
    "Open": 222.64,
    "High": 230,
    "Low": 222.55,
    "Vol": 70860
  },
  {
    "Date": "2020-02-08",
    "Price": 222.69,
    "Open": 223.11,
    "High": 227.58,
    "Low": 213.09,
    "Vol": 92550
  },
  {
    "Date": "2020-02-07",
    "Price": 223.11,
    "Open": 212.6,
    "High": 223.9,
    "Low": 212.6,
    "Vol": 131050
  },
  {
    "Date": "2020-02-06",
    "Price": 212.59,
    "Open": 203.79,
    "High": 216,
    "Low": 201.02,
    "Vol": 97270
  },
  {
    "Date": "2020-02-05",
    "Price": 203.79,
    "Open": 189.06,
    "High": 207.86,
    "Low": 188.29,
    "Vol": 112610
  },
  {
    "Date": "2020-02-04",
    "Price": 189.06,
    "Open": 190.19,
    "High": 191.76,
    "Low": 184.89,
    "Vol": 32830
  },
  {
    "Date": "2020-02-03",
    "Price": 190.41,
    "Open": 188.85,
    "High": 195.67,
    "Low": 187.01,
    "Vol": 52550
  },
  {
    "Date": "2020-02-02",
    "Price": 188.69,
    "Open": 184,
    "High": 193.95,
    "Low": 179.66,
    "Vol": 73810
  },
  {
    "Date": "2020-02-01",
    "Price": 184.07,
    "Open": 180.27,
    "High": 184.46,
    "Low": 179.67,
    "Vol": 62120
  },
  {
    "Date": "2020-01-31",
    "Price": 180.08,
    "Open": 184.52,
    "High": 185.5,
    "Low": 175.23,
    "Vol": 40930
  },
  {
    "Date": "2020-01-30",
    "Price": 184.62,
    "Open": 173.68,
    "High": 186.74,
    "Low": 171.09,
    "Vol": 86590
  },
  {
    "Date": "2020-01-29",
    "Price": 173.81,
    "Open": 176.08,
    "High": 178.78,
    "Low": 173.38,
    "Vol": 31180
  },
  {
    "Date": "2020-01-28",
    "Price": 176.09,
    "Open": 170.14,
    "High": 176.64,
    "Low": 170.14,
    "Vol": 49550
  },
  {
    "Date": "2020-01-27",
    "Price": 170.14,
    "Open": 168.2,
    "High": 172.06,
    "Low": 165.45,
    "Vol": 64450
  },
  {
    "Date": "2020-01-26",
    "Price": 168.16,
    "Open": 160.32,
    "High": 168.27,
    "Low": 159.56,
    "Vol": 62740
  },
  {
    "Date": "2020-01-25",
    "Price": 160.47,
    "Open": 162.69,
    "High": 162.73,
    "Low": 157.82,
    "Vol": 14480
  },
  {
    "Date": "2020-01-24",
    "Price": 162.71,
    "Open": 162.73,
    "High": 164.42,
    "Low": 155.76,
    "Vol": 30790
  },
  {
    "Date": "2020-01-23",
    "Price": 162.92,
    "Open": 167.7,
    "High": 167.7,
    "Low": 159.21,
    "Vol": 37900
  },
  {
    "Date": "2020-01-22",
    "Price": 167.7,
    "Open": 169.33,
    "High": 171.18,
    "Low": 165.67,
    "Vol": 18110
  },
  {
    "Date": "2020-01-21",
    "Price": 169.33,
    "Open": 166.87,
    "High": 169.99,
    "Low": 164.96,
    "Vol": 27030
  },
  {
    "Date": "2020-01-20",
    "Price": 166.86,
    "Open": 166.73,
    "High": 169,
    "Low": 161.09,
    "Vol": 33650
  },
  {
    "Date": "2020-01-19",
    "Price": 166.84,
    "Open": 173.58,
    "High": 177.55,
    "Low": 161.21,
    "Vol": 84550
  },
  {
    "Date": "2020-01-18",
    "Price": 173.58,
    "Open": 169.18,
    "High": 178.97,
    "Low": 165,
    "Vol": 90530
  },
  {
    "Date": "2020-01-17",
    "Price": 169.32,
    "Open": 164.01,
    "High": 174,
    "Low": 161.98,
    "Vol": 104120
  },
  {
    "Date": "2020-01-16",
    "Price": 164.03,
    "Open": 166.15,
    "High": 167.11,
    "Low": 158.46,
    "Vol": 66630
  },
  {
    "Date": "2020-01-15",
    "Price": 166.05,
    "Open": 164.73,
    "High": 171,
    "Low": 159,
    "Vol": 132500
  },
  {
    "Date": "2020-01-14",
    "Price": 164.98,
    "Open": 143.52,
    "High": 169.78,
    "Low": 143.49,
    "Vol": 213400
  },
  {
    "Date": "2020-01-13",
    "Price": 143.55,
    "Open": 146.4,
    "High": 146.94,
    "Low": 142.24,
    "Vol": 25540
  },
  {
    "Date": "2020-01-12",
    "Price": 146.35,
    "Open": 142.41,
    "High": 146.35,
    "Low": 141.71,
    "Vol": 22580
  },
  {
    "Date": "2020-01-11",
    "Price": 142.48,
    "Open": 144.59,
    "High": 147.74,
    "Low": 142.04,
    "Vol": 36470
  },
  {
    "Date": "2020-01-10",
    "Price": 144.57,
    "Open": 137.57,
    "High": 144.95,
    "Low": 135.36,
    "Vol": 41790
  },
  {
    "Date": "2020-01-09",
    "Price": 137.81,
    "Open": 140.59,
    "High": 141.32,
    "Low": 135.43,
    "Vol": 29440
  },
  {
    "Date": "2020-01-08",
    "Price": 140.5,
    "Open": 142.95,
    "High": 147.73,
    "Low": 137.3,
    "Vol": 65440
  },
  {
    "Date": "2020-01-07",
    "Price": 143.09,
    "Open": 144.23,
    "High": 144.97,
    "Low": 139.06,
    "Vol": 49510
  },
  {
    "Date": "2020-01-06",
    "Price": 144.18,
    "Open": 135.54,
    "High": 144.27,
    "Low": 135.09,
    "Vol": 66630
  },
  {
    "Date": "2020-01-05",
    "Price": 135.6,
    "Open": 134.49,
    "High": 138.44,
    "Low": 134.42,
    "Vol": 46000
  },
  {
    "Date": "2020-01-04",
    "Price": 134.49,
    "Open": 134.89,
    "High": 136.26,
    "Low": 133.12,
    "Vol": 23570
  },
  {
    "Date": "2020-01-03",
    "Price": 134.74,
    "Open": 127.56,
    "High": 135.57,
    "Low": 126.39,
    "Vol": 76510
  },
  {
    "Date": "2020-01-02",
    "Price": 127.56,
    "Open": 130.94,
    "High": 130.94,
    "Low": 126.84,
    "Vol": 46990
  },
  {
    "Date": "2020-01-01",
    "Price": 130.94,
    "Open": 129.45,
    "High": 133.24,
    "Low": 128.9,
    "Vol": 37250
  },
  {
    "Date": "2019-12-31",
    "Price": 129.45,
    "Open": 131.83,
    "High": 133.94,
    "Low": 128.31,
    "Vol": 36600
  },
  {
    "Date": "2019-12-30",
    "Price": 131.83,
    "Open": 134.86,
    "High": 136.58,
    "Low": 130.56,
    "Vol": 34880
  },
  {
    "Date": "2019-12-29",
    "Price": 134.9,
    "Open": 128.49,
    "High": 138.52,
    "Low": 128.03,
    "Vol": 49060
  },
  {
    "Date": "2019-12-28",
    "Price": 128.48,
    "Open": 126.92,
    "High": 130.23,
    "Low": 126.69,
    "Vol": 19070
  },
  {
    "Date": "2019-12-27",
    "Price": 126.92,
    "Open": 126.15,
    "High": 127.46,
    "Low": 123.03,
    "Vol": 44860
  },
  {
    "Date": "2019-12-26",
    "Price": 126.15,
    "Open": 125.39,
    "High": 132.85,
    "Low": 124.61,
    "Vol": 36870
  },
  {
    "Date": "2019-12-25",
    "Price": 125.32,
    "Open": 127.96,
    "High": 128.11,
    "Low": 123.8,
    "Vol": 32240
  },
  {
    "Date": "2019-12-24",
    "Price": 128.04,
    "Open": 128.19,
    "High": 129.9,
    "Low": 127.24,
    "Vol": 12070
  },
  {
    "Date": "2019-12-23",
    "Price": 128.13,
    "Open": 132.96,
    "High": 135.54,
    "Low": 126.52,
    "Vol": 58500
  },
  {
    "Date": "2019-12-22",
    "Price": 132.77,
    "Open": 127.5,
    "High": 133.61,
    "Low": 127.4,
    "Vol": 24460
  },
  {
    "Date": "2019-12-21",
    "Price": 127.5,
    "Open": 128.9,
    "High": 129.01,
    "Low": 127.12,
    "Vol": 7040
  },
  {
    "Date": "2019-12-20",
    "Price": 128.9,
    "Open": 128.68,
    "High": 129.97,
    "Low": 126.43,
    "Vol": 17160
  },
  {
    "Date": "2019-12-19",
    "Price": 128.68,
    "Open": 133.5,
    "High": 134.74,
    "Low": 126.51,
    "Vol": 34430
  },
  {
    "Date": "2019-12-18",
    "Price": 133.5,
    "Open": 122.81,
    "High": 134.99,
    "Low": 116.98,
    "Vol": 113440
  },
  {
    "Date": "2019-12-17",
    "Price": 122.81,
    "Open": 133.34,
    "High": 133.47,
    "Low": 120.54,
    "Vol": 102120
  },
  {
    "Date": "2019-12-16",
    "Price": 133.34,
    "Open": 143.11,
    "High": 143.39,
    "Low": 130.31,
    "Vol": 64160
  },
  {
    "Date": "2019-12-15",
    "Price": 143.11,
    "Open": 142.56,
    "High": 144.6,
    "Low": 140.57,
    "Vol": 16720
  },
  {
    "Date": "2019-12-14",
    "Price": 142.56,
    "Open": 145.38,
    "High": 145.74,
    "Low": 141.56,
    "Vol": 19720
  },
  {
    "Date": "2019-12-13",
    "Price": 145.38,
    "Open": 145.51,
    "High": 145.81,
    "Low": 143.78,
    "Vol": 16720
  },
  {
    "Date": "2019-12-12",
    "Price": 145.51,
    "Open": 143.91,
    "High": 146.53,
    "Low": 140.01,
    "Vol": 47190
  },
  {
    "Date": "2019-12-11",
    "Price": 143.91,
    "Open": 146.36,
    "High": 146.94,
    "Low": 142.65,
    "Vol": 18880
  },
  {
    "Date": "2019-12-10",
    "Price": 146.36,
    "Open": 148.08,
    "High": 148.8,
    "Low": 144.61,
    "Vol": 27580
  },
  {
    "Date": "2019-12-09",
    "Price": 148.08,
    "Open": 151.41,
    "High": 152.04,
    "Low": 147.25,
    "Vol": 29730
  },
  {
    "Date": "2019-12-08",
    "Price": 151.41,
    "Open": 148.15,
    "High": 152.62,
    "Low": 147,
    "Vol": 27660
  },
  {
    "Date": "2019-12-07",
    "Price": 148.15,
    "Open": 149.69,
    "High": 150.55,
    "Low": 147.69,
    "Vol": 10910
  },
  {
    "Date": "2019-12-06",
    "Price": 149.69,
    "Open": 148.73,
    "High": 150.64,
    "Low": 146.6,
    "Vol": 17630
  },
  {
    "Date": "2019-12-05",
    "Price": 148.73,
    "Open": 146.3,
    "High": 149.79,
    "Low": 144.65,
    "Vol": 23830
  },
  {
    "Date": "2019-12-04",
    "Price": 146.23,
    "Open": 148.17,
    "High": 154.11,
    "Low": 144.18,
    "Vol": 73270
  },
  {
    "Date": "2019-12-03",
    "Price": 148.17,
    "Open": 149.63,
    "High": 150.96,
    "Low": 146.52,
    "Vol": 23510
  },
  {
    "Date": "2019-12-02",
    "Price": 149.69,
    "Open": 151.84,
    "High": 152.33,
    "Low": 147.66,
    "Vol": 24720
  },
  {
    "Date": "2019-12-01",
    "Price": 151.84,
    "Open": 152.43,
    "High": 153.35,
    "Low": 146.78,
    "Vol": 33580
  },
  {
    "Date": "2019-11-30",
    "Price": 152.54,
    "Open": 155.6,
    "High": 156.63,
    "Low": 150.59,
    "Vol": 26390
  },
  {
    "Date": "2019-11-29",
    "Price": 155.53,
    "Open": 151.52,
    "High": 158.66,
    "Low": 151.09,
    "Vol": 36980
  },
  {
    "Date": "2019-11-28",
    "Price": 151.52,
    "Open": 153.27,
    "High": 155.36,
    "Low": 150.11,
    "Vol": 31370
  },
  {
    "Date": "2019-11-27",
    "Price": 153.34,
    "Open": 148.31,
    "High": 156.23,
    "Low": 142,
    "Vol": 67030
  },
  {
    "Date": "2019-11-26",
    "Price": 148.31,
    "Open": 146.58,
    "High": 150.86,
    "Low": 144.57,
    "Vol": 32600
  },
  {
    "Date": "2019-11-25",
    "Price": 146.78,
    "Open": 141.17,
    "High": 152.69,
    "Low": 133.58,
    "Vol": 144430
  },
  {
    "Date": "2019-11-24",
    "Price": 141.18,
    "Open": 152.77,
    "High": 153.66,
    "Low": 140,
    "Vol": 64460
  },
  {
    "Date": "2019-11-23",
    "Price": 152.77,
    "Open": 150.56,
    "High": 155,
    "Low": 147.26,
    "Vol": 59100
  },
  {
    "Date": "2019-11-22",
    "Price": 150.56,
    "Open": 162.05,
    "High": 163.4,
    "Low": 138.79,
    "Vol": 131280
  },
  {
    "Date": "2019-11-21",
    "Price": 162.11,
    "Open": 175.27,
    "High": 176.38,
    "Low": 157.79,
    "Vol": 77170
  },
  {
    "Date": "2019-11-20",
    "Price": 175.27,
    "Open": 176.46,
    "High": 178.18,
    "Low": 173.96,
    "Vol": 20410
  },
  {
    "Date": "2019-11-19",
    "Price": 176.46,
    "Open": 178.61,
    "High": 178.96,
    "Low": 173.39,
    "Vol": 24580
  },
  {
    "Date": "2019-11-18",
    "Price": 178.55,
    "Open": 184.48,
    "High": 184.97,
    "Low": 175.5,
    "Vol": 40770
  },
  {
    "Date": "2019-11-17",
    "Price": 184.53,
    "Open": 183.05,
    "High": 186.89,
    "Low": 181,
    "Vol": 19990
  },
  {
    "Date": "2019-11-16",
    "Price": 182.97,
    "Open": 180.23,
    "High": 183.98,
    "Low": 179.5,
    "Vol": 16340
  },
  {
    "Date": "2019-11-15",
    "Price": 180.27,
    "Open": 185,
    "High": 187.41,
    "Low": 177.47,
    "Vol": 70350
  },
  {
    "Date": "2019-11-14",
    "Price": 185,
    "Open": 188.84,
    "High": 189.22,
    "Low": 183.43,
    "Vol": 19910
  },
  {
    "Date": "2019-11-13",
    "Price": 188.69,
    "Open": 187.34,
    "High": 189.99,
    "Low": 185.5,
    "Vol": 23720
  },
  {
    "Date": "2019-11-12",
    "Price": 187.34,
    "Open": 184.93,
    "High": 187.56,
    "Low": 182.64,
    "Vol": 26380
  },
  {
    "Date": "2019-11-11",
    "Price": 185.15,
    "Open": 189.68,
    "High": 190.89,
    "Low": 184.2,
    "Vol": 29560
  },
  {
    "Date": "2019-11-10",
    "Price": 189.68,
    "Open": 184.99,
    "High": 192.17,
    "Low": 183.5,
    "Vol": 58270
  },
  {
    "Date": "2019-11-09",
    "Price": 184.99,
    "Open": 183.59,
    "High": 185.62,
    "Low": 182.8,
    "Vol": 17190
  },
  {
    "Date": "2019-11-08",
    "Price": 184,
    "Open": 186.65,
    "High": 188.3,
    "Low": 181.01,
    "Vol": 45810
  },
  {
    "Date": "2019-11-07",
    "Price": 186.66,
    "Open": 191.58,
    "High": 192.67,
    "Low": 184.55,
    "Vol": 28320
  },
  {
    "Date": "2019-11-06",
    "Price": 191.51,
    "Open": 189.44,
    "High": 195.2,
    "Low": 188.36,
    "Vol": 37910
  },
  {
    "Date": "2019-11-05",
    "Price": 189.24,
    "Open": 186.87,
    "High": 192.51,
    "Low": 182.76,
    "Vol": 48140
  },
  {
    "Date": "2019-11-04",
    "Price": 186.87,
    "Open": 182.19,
    "High": 190.03,
    "Low": 180.92,
    "Vol": 47670
  },
  {
    "Date": "2019-11-03",
    "Price": 182.19,
    "Open": 183.89,
    "High": 185.45,
    "Low": 179.31,
    "Vol": 21000
  },
  {
    "Date": "2019-11-02",
    "Price": 183.92,
    "Open": 183.98,
    "High": 186.68,
    "Low": 182.65,
    "Vol": 24610
  },
  {
    "Date": "2019-11-01",
    "Price": 183.98,
    "Open": 183.01,
    "High": 185.4,
    "Low": 177.73,
    "Vol": 25340
  },
  {
    "Date": "2019-10-31",
    "Price": 183.04,
    "Open": 183.68,
    "High": 185.7,
    "Low": 178.34,
    "Vol": 30140
  },
  {
    "Date": "2019-10-30",
    "Price": 183.82,
    "Open": 191.29,
    "High": 192.5,
    "Low": 180.47,
    "Vol": 59210
  },
  {
    "Date": "2019-10-29",
    "Price": 191.29,
    "Open": 182.08,
    "High": 193.55,
    "Low": 181.78,
    "Vol": 56330
  },
  {
    "Date": "2019-10-28",
    "Price": 182.25,
    "Open": 184.72,
    "High": 190.55,
    "Low": 181.28,
    "Vol": 38270
  },
  {
    "Date": "2019-10-27",
    "Price": 184.58,
    "Open": 180.42,
    "High": 189.32,
    "Low": 177.2,
    "Vol": 58290
  },
  {
    "Date": "2019-10-26",
    "Price": 180.42,
    "Open": 182.05,
    "High": 198.62,
    "Low": 174.32,
    "Vol": 177040
  },
  {
    "Date": "2019-10-25",
    "Price": 181.95,
    "Open": 160.95,
    "High": 188,
    "Low": 160.95,
    "Vol": 115680
  },
  {
    "Date": "2019-10-24",
    "Price": 161.18,
    "Open": 162.95,
    "High": 164.36,
    "Low": 158.9,
    "Vol": 99860
  },
  {
    "Date": "2019-10-23",
    "Price": 162.97,
    "Open": 171.83,
    "High": 172.2,
    "Low": 153.4,
    "Vol": 119100
  },
  {
    "Date": "2019-10-22",
    "Price": 171.82,
    "Open": 175.02,
    "High": 176.31,
    "Low": 171.14,
    "Vol": 38760
  },
  {
    "Date": "2019-10-21",
    "Price": 175.02,
    "Open": 176.1,
    "High": 178.8,
    "Low": 172.5,
    "Vol": 38750
  },
  {
    "Date": "2019-10-20",
    "Price": 176.11,
    "Open": 172.59,
    "High": 177.51,
    "Low": 170.03,
    "Vol": 29880
  },
  {
    "Date": "2019-10-19",
    "Price": 172.59,
    "Open": 173.67,
    "High": 175.75,
    "Low": 170.55,
    "Vol": 33000
  },
  {
    "Date": "2019-10-18",
    "Price": 173.64,
    "Open": 177.83,
    "High": 177.94,
    "Low": 169.17,
    "Vol": 53710
  },
  {
    "Date": "2019-10-17",
    "Price": 177.49,
    "Open": 175.01,
    "High": 179.56,
    "Low": 173.25,
    "Vol": 29640
  },
  {
    "Date": "2019-10-16",
    "Price": 175,
    "Open": 181.12,
    "High": 181.75,
    "Low": 172.62,
    "Vol": 57620
  },
  {
    "Date": "2019-10-15",
    "Price": 181.02,
    "Open": 187.21,
    "High": 188.98,
    "Low": 177.66,
    "Vol": 62860
  },
  {
    "Date": "2019-10-14",
    "Price": 187.14,
    "Open": 181.57,
    "High": 187.88,
    "Low": 181,
    "Vol": 41420
  },
  {
    "Date": "2019-10-13",
    "Price": 181.61,
    "Open": 180.16,
    "High": 184.97,
    "Low": 179.1,
    "Vol": 25390
  },
  {
    "Date": "2019-10-12",
    "Price": 180.16,
    "Open": 181.09,
    "High": 185.1,
    "Low": 178.01,
    "Vol": 36200
  },
  {
    "Date": "2019-10-11",
    "Price": 181.04,
    "Open": 192.06,
    "High": 198,
    "Low": 179.71,
    "Vol": 109380
  },
  {
    "Date": "2019-10-10",
    "Price": 192.06,
    "Open": 193.59,
    "High": 194.95,
    "Low": 188.05,
    "Vol": 37160
  },
  {
    "Date": "2019-10-09",
    "Price": 193.51,
    "Open": 181.5,
    "High": 196.35,
    "Low": 179.95,
    "Vol": 114220
  },
  {
    "Date": "2019-10-08",
    "Price": 181.72,
    "Open": 180.66,
    "High": 185.72,
    "Low": 178.16,
    "Vol": 46360
  },
  {
    "Date": "2019-10-07",
    "Price": 180.66,
    "Open": 170.56,
    "High": 183.45,
    "Low": 169.07,
    "Vol": 86580
  },
  {
    "Date": "2019-10-06",
    "Price": 170.51,
    "Open": 176.94,
    "High": 177.5,
    "Low": 168.31,
    "Vol": 63870
  },
  {
    "Date": "2019-10-05",
    "Price": 176.93,
    "Open": 176.29,
    "High": 177.49,
    "Low": 172.61,
    "Vol": 39650
  },
  {
    "Date": "2019-10-04",
    "Price": 176.19,
    "Open": 175.36,
    "High": 179.82,
    "Low": 171.49,
    "Vol": 38250
  },
  {
    "Date": "2019-10-03",
    "Price": 175.37,
    "Open": 181.24,
    "High": 181.66,
    "Low": 170.18,
    "Vol": 56870
  },
  {
    "Date": "2019-10-02",
    "Price": 181.24,
    "Open": 176.41,
    "High": 182.1,
    "Low": 174.32,
    "Vol": 40100
  },
  {
    "Date": "2019-10-01",
    "Price": 176.41,
    "Open": 182.27,
    "High": 186.43,
    "Low": 174.15,
    "Vol": 94810
  },
  {
    "Date": "2019-09-30",
    "Price": 181.68,
    "Open": 169.91,
    "High": 182.5,
    "Low": 165.66,
    "Vol": 108770
  },
  {
    "Date": "2019-09-29",
    "Price": 169.84,
    "Open": 174.41,
    "High": 175.1,
    "Low": 164.85,
    "Vol": 72460
  },
  {
    "Date": "2019-09-28",
    "Price": 174.41,
    "Open": 174.61,
    "High": 176.2,
    "Low": 169.2,
    "Vol": 55900
  },
  {
    "Date": "2019-09-27",
    "Price": 174.61,
    "Open": 166.77,
    "High": 177.73,
    "Low": 162.02,
    "Vol": 75670
  },
  {
    "Date": "2019-09-26",
    "Price": 166.6,
    "Open": 170.67,
    "High": 171.33,
    "Low": 153.75,
    "Vol": 114520
  },
  {
    "Date": "2019-09-25",
    "Price": 170.67,
    "Open": 166.54,
    "High": 175.42,
    "Low": 162.82,
    "Vol": 115220
  },
  {
    "Date": "2019-09-24",
    "Price": 166.91,
    "Open": 200.79,
    "High": 202.73,
    "Low": 155,
    "Vol": 347560
  },
  {
    "Date": "2019-09-23",
    "Price": 200.79,
    "Open": 211.26,
    "High": 212.21,
    "Low": 199.03,
    "Vol": 73980
  },
  {
    "Date": "2019-09-22",
    "Price": 211.55,
    "Open": 215.56,
    "High": 216,
    "Low": 206.5,
    "Vol": 66860
  },
  {
    "Date": "2019-09-21",
    "Price": 215.56,
    "Open": 218.68,
    "High": 221.9,
    "Low": 213.97,
    "Vol": 41730
  },
  {
    "Date": "2019-09-20",
    "Price": 218.73,
    "Open": 221.35,
    "High": 222.69,
    "Low": 212.5,
    "Vol": 56830
  },
  {
    "Date": "2019-09-19",
    "Price": 221.47,
    "Open": 210.9,
    "High": 224.73,
    "Low": 202.46,
    "Vol": 145400
  },
  {
    "Date": "2019-09-18",
    "Price": 210.9,
    "Open": 208.41,
    "High": 217.99,
    "Low": 208.41,
    "Vol": 100210
  },
  {
    "Date": "2019-09-17",
    "Price": 208.62,
    "Open": 198.29,
    "High": 215.82,
    "Low": 196.6,
    "Vol": 109350
  },
  {
    "Date": "2019-09-16",
    "Price": 198.29,
    "Open": 189.63,
    "High": 200.71,
    "Low": 189.13,
    "Vol": 109160
  },
  {
    "Date": "2019-09-15",
    "Price": 189.64,
    "Open": 189.05,
    "High": 191.37,
    "Low": 186.45,
    "Vol": 35680
  },
  {
    "Date": "2019-09-14",
    "Price": 189.03,
    "Open": 181.89,
    "High": 189.76,
    "Low": 180.44,
    "Vol": 65170
  },
  {
    "Date": "2019-09-13",
    "Price": 181.65,
    "Open": 181.35,
    "High": 182.2,
    "Low": 178,
    "Vol": 32910
  },
  {
    "Date": "2019-09-12",
    "Price": 181.41,
    "Open": 178.55,
    "High": 183.09,
    "Low": 177.01,
    "Vol": 31570
  },
  {
    "Date": "2019-09-11",
    "Price": 178.55,
    "Open": 180.25,
    "High": 182.73,
    "Low": 174.71,
    "Vol": 49970
  },
  {
    "Date": "2019-09-10",
    "Price": 180.24,
    "Open": 180.8,
    "High": 184.5,
    "Low": 176.93,
    "Vol": 40100
  },
  {
    "Date": "2019-09-09",
    "Price": 180.75,
    "Open": 181.96,
    "High": 186.52,
    "Low": 176.54,
    "Vol": 66890
  },
  {
    "Date": "2019-09-08",
    "Price": 181.96,
    "Open": 178.33,
    "High": 184.9,
    "Low": 177.22,
    "Vol": 65320
  },
  {
    "Date": "2019-09-07",
    "Price": 178.41,
    "Open": 169.35,
    "High": 181.34,
    "Low": 168.6,
    "Vol": 62210
  },
  {
    "Date": "2019-09-06",
    "Price": 169.35,
    "Open": 174.04,
    "High": 178.45,
    "Low": 165.4,
    "Vol": 62430
  },
  {
    "Date": "2019-09-05",
    "Price": 174.03,
    "Open": 175.1,
    "High": 175.92,
    "Low": 169.68,
    "Vol": 59840
  },
  {
    "Date": "2019-09-04",
    "Price": 175.1,
    "Open": 179.44,
    "High": 180.74,
    "Low": 173.97,
    "Vol": 47080
  },
  {
    "Date": "2019-09-03",
    "Price": 179.39,
    "Open": 178.7,
    "High": 183,
    "Low": 175.22,
    "Vol": 79430
  },
  {
    "Date": "2019-09-02",
    "Price": 178.7,
    "Open": 171.63,
    "High": 181.65,
    "Low": 170.55,
    "Vol": 56790
  },
  {
    "Date": "2019-09-01",
    "Price": 171.25,
    "Open": 172.06,
    "High": 173.99,
    "Low": 168.33,
    "Vol": 42370
  },
  {
    "Date": "2019-08-31",
    "Price": 172.13,
    "Open": 168.74,
    "High": 175.29,
    "Low": 166.13,
    "Vol": 42060
  },
  {
    "Date": "2019-08-30",
    "Price": 168.63,
    "Open": 169.42,
    "High": 170.8,
    "Low": 166.17,
    "Vol": 30660
  },
  {
    "Date": "2019-08-29",
    "Price": 169.15,
    "Open": 173.08,
    "High": 173.69,
    "Low": 164.19,
    "Vol": 60980
  },
  {
    "Date": "2019-08-28",
    "Price": 173.21,
    "Open": 187.3,
    "High": 188.47,
    "Low": 166.54,
    "Vol": 111690
  },
  {
    "Date": "2019-08-27",
    "Price": 187.29,
    "Open": 188.73,
    "High": 189.24,
    "Low": 184.94,
    "Vol": 25070
  },
  {
    "Date": "2019-08-26",
    "Price": 188.73,
    "Open": 186.37,
    "High": 194.14,
    "Low": 186.22,
    "Vol": 48890
  },
  {
    "Date": "2019-08-25",
    "Price": 186.31,
    "Open": 191.08,
    "High": 192.89,
    "Low": 183.06,
    "Vol": 47900
  },
  {
    "Date": "2019-08-24",
    "Price": 191.04,
    "Open": 194.77,
    "High": 194.78,
    "Low": 186.37,
    "Vol": 38600
  },
  {
    "Date": "2019-08-23",
    "Price": 194.78,
    "Open": 190.7,
    "High": 196.61,
    "Low": 188.61,
    "Vol": 38020
  },
  {
    "Date": "2019-08-22",
    "Price": 190.69,
    "Open": 187.66,
    "High": 195.35,
    "Low": 183.25,
    "Vol": 53840
  },
  {
    "Date": "2019-08-21",
    "Price": 187.66,
    "Open": 196.98,
    "High": 197.5,
    "Low": 180,
    "Vol": 89840
  },
  {
    "Date": "2019-08-20",
    "Price": 196.67,
    "Open": 202.68,
    "High": 203.26,
    "Low": 195.05,
    "Vol": 46530
  },
  {
    "Date": "2019-08-19",
    "Price": 202.66,
    "Open": 194.9,
    "High": 203.9,
    "Low": 193.09,
    "Vol": 63060
  },
  {
    "Date": "2019-08-18",
    "Price": 194.9,
    "Open": 185.95,
    "High": 198.31,
    "Low": 183.53,
    "Vol": 50220
  },
  {
    "Date": "2019-08-17",
    "Price": 185.82,
    "Open": 185.71,
    "High": 187.32,
    "Low": 182.33,
    "Vol": 30180
  },
  {
    "Date": "2019-08-16",
    "Price": 185.61,
    "Open": 188.35,
    "High": 188.57,
    "Low": 178.78,
    "Vol": 56220
  },
  {
    "Date": "2019-08-15",
    "Price": 188.59,
    "Open": 187.28,
    "High": 189.94,
    "Low": 174.31,
    "Vol": 102830
  },
  {
    "Date": "2019-08-14",
    "Price": 187.28,
    "Open": 209.25,
    "High": 210.08,
    "Low": 183.13,
    "Vol": 112920
  },
  {
    "Date": "2019-08-13",
    "Price": 209.25,
    "Open": 211.61,
    "High": 211.92,
    "Low": 205.25,
    "Vol": 44880
  },
  {
    "Date": "2019-08-12",
    "Price": 211.61,
    "Open": 217.02,
    "High": 217.11,
    "Low": 210.17,
    "Vol": 46390
  },
  {
    "Date": "2019-08-11",
    "Price": 217.21,
    "Open": 206.48,
    "High": 217.21,
    "Low": 206.24,
    "Vol": 56740
  },
  {
    "Date": "2019-08-10",
    "Price": 206.57,
    "Open": 210.8,
    "High": 214.9,
    "Low": 201.68,
    "Vol": 51010
  },
  {
    "Date": "2019-08-09",
    "Price": 210.8,
    "Open": 222.04,
    "High": 222.42,
    "Low": 207.38,
    "Vol": 85060
  },
  {
    "Date": "2019-08-08",
    "Price": 222.04,
    "Open": 226.35,
    "High": 227.28,
    "Low": 216.58,
    "Vol": 67150
  },
  {
    "Date": "2019-08-07",
    "Price": 226.35,
    "Open": 226.02,
    "High": 230.86,
    "Low": 221.65,
    "Vol": 59060
  },
  {
    "Date": "2019-08-06",
    "Price": 226.02,
    "Open": 233.62,
    "High": 239.52,
    "Low": 223.33,
    "Vol": 119310
  },
  {
    "Date": "2019-08-05",
    "Price": 233.62,
    "Open": 222.51,
    "High": 236.26,
    "Low": 222.42,
    "Vol": 153890
  },
  {
    "Date": "2019-08-04",
    "Price": 222.51,
    "Open": 222,
    "High": 223.65,
    "Low": 217.86,
    "Vol": 33810
  },
  {
    "Date": "2019-08-03",
    "Price": 222,
    "Open": 217.62,
    "High": 224.53,
    "Low": 216.67,
    "Vol": 45820
  },
  {
    "Date": "2019-08-02",
    "Price": 217.62,
    "Open": 217.56,
    "High": 222.61,
    "Low": 215.06,
    "Vol": 52230
  },
  {
    "Date": "2019-08-01",
    "Price": 217.56,
    "Open": 218.76,
    "High": 219.49,
    "Low": 212,
    "Vol": 44970
  },
  {
    "Date": "2019-07-31",
    "Price": 218.7,
    "Open": 209.74,
    "High": 219.21,
    "Low": 209.71,
    "Vol": 58740
  },
  {
    "Date": "2019-07-30",
    "Price": 209.74,
    "Open": 210.81,
    "High": 214.44,
    "Low": 205.71,
    "Vol": 47180
  },
  {
    "Date": "2019-07-29",
    "Price": 210.81,
    "Open": 210.81,
    "High": 215,
    "Low": 206.22,
    "Vol": 42630
  },
  {
    "Date": "2019-07-28",
    "Price": 210.81,
    "Open": 207.07,
    "High": 213.17,
    "Low": 197.84,
    "Vol": 67030
  },
  {
    "Date": "2019-07-27",
    "Price": 207.05,
    "Open": 219.06,
    "High": 223.61,
    "Low": 202.71,
    "Vol": 111690
  },
  {
    "Date": "2019-07-26",
    "Price": 219.06,
    "Open": 219.44,
    "High": 220.41,
    "Low": 213.01,
    "Vol": 52540
  },
  {
    "Date": "2019-07-25",
    "Price": 219.44,
    "Open": 216.76,
    "High": 224.96,
    "Low": 215.84,
    "Vol": 75290
  },
  {
    "Date": "2019-07-24",
    "Price": 216.76,
    "Open": 212.3,
    "High": 218.35,
    "Low": 201.28,
    "Vol": 129480
  },
  {
    "Date": "2019-07-23",
    "Price": 212.38,
    "Open": 217.28,
    "High": 219.35,
    "Low": 208.58,
    "Vol": 87760
  },
  {
    "Date": "2019-07-22",
    "Price": 217.38,
    "Open": 225.41,
    "High": 227.8,
    "Low": 211.84,
    "Vol": 90240
  },
  {
    "Date": "2019-07-21",
    "Price": 225.04,
    "Open": 228.21,
    "High": 229.49,
    "Low": 217.68,
    "Vol": 83550
  },
  {
    "Date": "2019-07-20",
    "Price": 228.44,
    "Open": 221.15,
    "High": 235.23,
    "Low": 220.59,
    "Vol": 87780
  },
  {
    "Date": "2019-07-19",
    "Price": 221.16,
    "Open": 225.82,
    "High": 226.18,
    "Low": 214.43,
    "Vol": 80000
  },
  {
    "Date": "2019-07-18",
    "Price": 225.63,
    "Open": 211.08,
    "High": 229,
    "Low": 205.64,
    "Vol": 168900
  },
  {
    "Date": "2019-07-17",
    "Price": 211.08,
    "Open": 198.69,
    "High": 219.4,
    "Low": 192.03,
    "Vol": 208200
  },
  {
    "Date": "2019-07-16",
    "Price": 198.57,
    "Open": 227.39,
    "High": 233.65,
    "Low": 192.57,
    "Vol": 315830
  },
  {
    "Date": "2019-07-15",
    "Price": 227.71,
    "Open": 226.19,
    "High": 234.76,
    "Low": 203.7,
    "Vol": 290970
  },
  {
    "Date": "2019-07-14",
    "Price": 226.38,
    "Open": 268.12,
    "High": 268.59,
    "Low": 223.6,
    "Vol": 216780
  },
  {
    "Date": "2019-07-13",
    "Price": 268.07,
    "Open": 274.73,
    "High": 274.97,
    "Low": 260.92,
    "Vol": 58080
  },
  {
    "Date": "2019-07-12",
    "Price": 274.73,
    "Open": 268.38,
    "High": 277.89,
    "Low": 266.51,
    "Vol": 42050
  },
  {
    "Date": "2019-07-11",
    "Price": 268.38,
    "Open": 288.72,
    "High": 288.72,
    "Low": 261.76,
    "Vol": 147800
  },
  {
    "Date": "2019-07-10",
    "Price": 288.71,
    "Open": 307.76,
    "High": 314.59,
    "Low": 281.35,
    "Vol": 145870
  },
  {
    "Date": "2019-07-09",
    "Price": 307.86,
    "Open": 313.39,
    "High": 318,
    "Low": 302.7,
    "Vol": 95200
  },
  {
    "Date": "2019-07-08",
    "Price": 313.39,
    "Open": 306.59,
    "High": 315.21,
    "Low": 302.54,
    "Vol": 114320
  },
  {
    "Date": "2019-07-07",
    "Price": 306.54,
    "Open": 288.6,
    "High": 311,
    "Low": 284.87,
    "Vol": 109040
  },
  {
    "Date": "2019-07-06",
    "Price": 288.61,
    "Open": 287.77,
    "High": 298.43,
    "Low": 286.28,
    "Vol": 69750
  },
  {
    "Date": "2019-07-05",
    "Price": 287.95,
    "Open": 282.95,
    "High": 295.28,
    "Low": 281.3,
    "Vol": 53840
  },
  {
    "Date": "2019-07-04",
    "Price": 283.2,
    "Open": 302.21,
    "High": 303.43,
    "Low": 280.51,
    "Vol": 80620
  },
  {
    "Date": "2019-07-03",
    "Price": 302.22,
    "Open": 292.71,
    "High": 303.37,
    "Low": 289.78,
    "Vol": 120180
  },
  {
    "Date": "2019-07-02",
    "Price": 292.37,
    "Open": 295.45,
    "High": 298.18,
    "Low": 273.22,
    "Vol": 148130
  },
  {
    "Date": "2019-07-01",
    "Price": 295.5,
    "Open": 290.83,
    "High": 302.18,
    "Low": 281.19,
    "Vol": 136700
  },
  {
    "Date": "2019-06-30",
    "Price": 289.65,
    "Open": 319.49,
    "High": 324.35,
    "Low": 287.42,
    "Vol": 156160
  },
  {
    "Date": "2019-06-29",
    "Price": 317.71,
    "Open": 308.87,
    "High": 324.45,
    "Low": 292.41,
    "Vol": 130200
  },
  {
    "Date": "2019-06-28",
    "Price": 309.08,
    "Open": 294.86,
    "High": 311.97,
    "Low": 291.41,
    "Vol": 193670
  },
  {
    "Date": "2019-06-27",
    "Price": 294.19,
    "Open": 332,
    "High": 340.47,
    "Low": 276.51,
    "Vol": 430360
  },
  {
    "Date": "2019-06-26",
    "Price": 332,
    "Open": 316.36,
    "High": 362.9,
    "Low": 313.13,
    "Vol": 576920
  },
  {
    "Date": "2019-06-25",
    "Price": 316.49,
    "Open": 312.32,
    "High": 317.23,
    "Low": 305.79,
    "Vol": 125690
  },
  {
    "Date": "2019-06-24",
    "Price": 311.7,
    "Open": 308.56,
    "High": 314.56,
    "Low": 294,
    "Vol": 290630
  },
  {
    "Date": "2019-06-23",
    "Price": 308.68,
    "Open": 311.26,
    "High": 321.97,
    "Low": 306.53,
    "Vol": 208830
  },
  {
    "Date": "2019-06-22",
    "Price": 311.24,
    "Open": 296.01,
    "High": 315.67,
    "Low": 293.79,
    "Vol": 292680
  },
  {
    "Date": "2019-06-21",
    "Price": 295.9,
    "Open": 272.82,
    "High": 297.59,
    "Low": 272.82,
    "Vol": 238200
  },
  {
    "Date": "2019-06-20",
    "Price": 272.82,
    "Open": 269.49,
    "High": 274.82,
    "Low": 267.18,
    "Vol": 64660
  },
  {
    "Date": "2019-06-19",
    "Price": 269.52,
    "Open": 264.93,
    "High": 270.72,
    "Low": 264.16,
    "Vol": 53470
  },
  {
    "Date": "2019-06-18",
    "Price": 264.98,
    "Open": 274.45,
    "High": 274.65,
    "Low": 261.32,
    "Vol": 107150
  },
  {
    "Date": "2019-06-17",
    "Price": 274.45,
    "Open": 268.63,
    "High": 276.04,
    "Low": 267.61,
    "Vol": 68670
  },
  {
    "Date": "2019-06-16",
    "Price": 268.86,
    "Open": 269.12,
    "High": 279.31,
    "Low": 264.28,
    "Vol": 181770
  },
  {
    "Date": "2019-06-15",
    "Price": 269.12,
    "Open": 263.72,
    "High": 273.1,
    "Low": 261.76,
    "Vol": 107730
  },
  {
    "Date": "2019-06-14",
    "Price": 263.69,
    "Open": 254.54,
    "High": 265.69,
    "Low": 250.99,
    "Vol": 230770
  },
  {
    "Date": "2019-06-13",
    "Price": 254.47,
    "Open": 262.9,
    "High": 264.65,
    "Low": 253.46,
    "Vol": 117810
  },
  {
    "Date": "2019-06-12",
    "Price": 263.3,
    "Open": 245.1,
    "High": 263.32,
    "Low": 243.05,
    "Vol": 180060
  },
  {
    "Date": "2019-06-11",
    "Price": 245.1,
    "Open": 248.11,
    "High": 248.88,
    "Low": 237.75,
    "Vol": 78370
  },
  {
    "Date": "2019-06-10",
    "Price": 247.75,
    "Open": 231.26,
    "High": 248.37,
    "Low": 227.52,
    "Vol": 111090
  },
  {
    "Date": "2019-06-09",
    "Price": 231.48,
    "Open": 244.41,
    "High": 244.92,
    "Low": 226.62,
    "Vol": 96550
  },
  {
    "Date": "2019-06-08",
    "Price": 244.36,
    "Open": 249.69,
    "High": 251.07,
    "Low": 241.85,
    "Vol": 35730
  },
  {
    "Date": "2019-06-07",
    "Price": 249.69,
    "Open": 249.93,
    "High": 253.91,
    "Low": 245.17,
    "Vol": 86990
  },
  {
    "Date": "2019-06-06",
    "Price": 250.1,
    "Open": 245.88,
    "High": 251.66,
    "Low": 236,
    "Vol": 64270
  },
  {
    "Date": "2019-06-05",
    "Price": 246.25,
    "Open": 241.44,
    "High": 249.56,
    "Low": 238.12,
    "Vol": 70110
  },
  {
    "Date": "2019-06-04",
    "Price": 241.44,
    "Open": 248.93,
    "High": 251.45,
    "Low": 235.38,
    "Vol": 207860
  },
  {
    "Date": "2019-06-03",
    "Price": 249.26,
    "Open": 269.4,
    "High": 269.78,
    "Low": 247,
    "Vol": 163980
  },
  {
    "Date": "2019-06-02",
    "Price": 269.4,
    "Open": 264.37,
    "High": 273.7,
    "Low": 263.5,
    "Vol": 73360
  },
  {
    "Date": "2019-06-01",
    "Price": 264.37,
    "Open": 267.13,
    "High": 273.59,
    "Low": 260.85,
    "Vol": 107240
  },
  {
    "Date": "2019-05-31",
    "Price": 267.28,
    "Open": 253.58,
    "High": 268.46,
    "Low": 245.57,
    "Vol": 206740
  },
  {
    "Date": "2019-05-30",
    "Price": 254.31,
    "Open": 270.23,
    "High": 289.14,
    "Low": 240.98,
    "Vol": 446130
  },
  {
    "Date": "2019-05-29",
    "Price": 270.17,
    "Open": 272.07,
    "High": 275,
    "Low": 262.69,
    "Vol": 118860
  },
  {
    "Date": "2019-05-28",
    "Price": 272.12,
    "Open": 272.98,
    "High": 276.87,
    "Low": 265,
    "Vol": 119650
  },
  {
    "Date": "2019-05-27",
    "Price": 272.57,
    "Open": 268.39,
    "High": 280.46,
    "Low": 264.47,
    "Vol": 196090
  },
  {
    "Date": "2019-05-26",
    "Price": 268.5,
    "Open": 250.96,
    "High": 273.5,
    "Low": 245.9,
    "Vol": 200460
  },
  {
    "Date": "2019-05-25",
    "Price": 250.83,
    "Open": 249.57,
    "High": 258,
    "Low": 248.01,
    "Vol": 99410
  },
  {
    "Date": "2019-05-24",
    "Price": 249.34,
    "Open": 245.54,
    "High": 255.33,
    "Low": 242.88,
    "Vol": 98280
  },
  {
    "Date": "2019-05-23",
    "Price": 245.43,
    "Open": 243.5,
    "High": 247.87,
    "Low": 230.46,
    "Vol": 145110
  },
  {
    "Date": "2019-05-22",
    "Price": 243.34,
    "Open": 254.34,
    "High": 261.01,
    "Low": 240.39,
    "Vol": 155980
  },
  {
    "Date": "2019-05-21",
    "Price": 254.34,
    "Open": 252.15,
    "High": 263.4,
    "Low": 247.69,
    "Vol": 124290
  },
  {
    "Date": "2019-05-20",
    "Price": 252.15,
    "Open": 259.9,
    "High": 260.08,
    "Low": 239.44,
    "Vol": 192300
  },
  {
    "Date": "2019-05-19",
    "Price": 259.9,
    "Open": 233.63,
    "High": 264.06,
    "Low": 231.83,
    "Vol": 205970
  },
  {
    "Date": "2019-05-18",
    "Price": 234.09,
    "Open": 246.28,
    "High": 249.61,
    "Low": 231.15,
    "Vol": 121750
  },
  {
    "Date": "2019-05-17",
    "Price": 246.03,
    "Open": 263.64,
    "High": 267.49,
    "Low": 227.68,
    "Vol": 420020
  },
  {
    "Date": "2019-05-16",
    "Price": 264.36,
    "Open": 246.61,
    "High": 278.35,
    "Low": 242.87,
    "Vol": 609530
  },
  {
    "Date": "2019-05-15",
    "Price": 246.48,
    "Open": 216.59,
    "High": 248.48,
    "Low": 216.39,
    "Vol": 275090
  },
  {
    "Date": "2019-05-14",
    "Price": 216.77,
    "Open": 194.85,
    "High": 219.67,
    "Low": 194.01,
    "Vol": 314940
  },
  {
    "Date": "2019-05-13",
    "Price": 194.95,
    "Open": 188.25,
    "High": 203.02,
    "Low": 186.01,
    "Vol": 245110
  },
  {
    "Date": "2019-05-12",
    "Price": 188.26,
    "Open": 191.27,
    "High": 200.82,
    "Low": 184.09,
    "Vol": 271650
  },
  {
    "Date": "2019-05-11",
    "Price": 191.93,
    "Open": 174.26,
    "High": 203.17,
    "Low": 174.26,
    "Vol": 341400
  },
  {
    "Date": "2019-05-10",
    "Price": 174.15,
    "Open": 173.42,
    "High": 178,
    "Low": 171.13,
    "Vol": 100670
  },
  {
    "Date": "2019-05-09",
    "Price": 173.35,
    "Open": 177.08,
    "High": 179.56,
    "Low": 170.59,
    "Vol": 82290
  },
  {
    "Date": "2019-05-08",
    "Price": 177.17,
    "Open": 176.47,
    "High": 179.28,
    "Low": 171,
    "Vol": 115030
  },
  {
    "Date": "2019-05-07",
    "Price": 176.92,
    "Open": 181.59,
    "High": 191.04,
    "Low": 176.17,
    "Vol": 157160
  },
  {
    "Date": "2019-05-06",
    "Price": 181.64,
    "Open": 171,
    "High": 186.28,
    "Low": 167.7,
    "Vol": 154100
  },
  {
    "Date": "2019-05-05",
    "Price": 171,
    "Open": 171,
    "High": 172.98,
    "Low": 166.29,
    "Vol": 56500
  },
  {
    "Date": "2019-05-04",
    "Price": 170.9,
    "Open": 175.4,
    "High": 178.35,
    "Low": 167.25,
    "Vol": 67470
  },
  {
    "Date": "2019-05-03",
    "Price": 175.3,
    "Open": 168.93,
    "High": 180.94,
    "Low": 167.87,
    "Vol": 162630
  },
  {
    "Date": "2019-05-02",
    "Price": 169.25,
    "Open": 167.67,
    "High": 170.59,
    "Low": 167.08,
    "Vol": 46660
  },
  {
    "Date": "2019-05-01",
    "Price": 167.79,
    "Open": 170.5,
    "High": 172.8,
    "Low": 166.18,
    "Vol": 86350
  },
  {
    "Date": "2019-04-30",
    "Price": 170.59,
    "Open": 162.35,
    "High": 171.49,
    "Low": 162.28,
    "Vol": 164640
  },
  {
    "Date": "2019-04-29",
    "Price": 162.25,
    "Open": 163.13,
    "High": 164.45,
    "Low": 157.52,
    "Vol": 150870
  },
  {
    "Date": "2019-04-28",
    "Price": 163.45,
    "Open": 162.79,
    "High": 166.4,
    "Low": 161.74,
    "Vol": 121430
  },
  {
    "Date": "2019-04-27",
    "Price": 162.79,
    "Open": 160.99,
    "High": 165.35,
    "Low": 159.3,
    "Vol": 107040
  },
  {
    "Date": "2019-04-26",
    "Price": 160.96,
    "Open": 154.54,
    "High": 162.5,
    "Low": 151.48,
    "Vol": 220280
  },
  {
    "Date": "2019-04-25",
    "Price": 154.54,
    "Open": 166.52,
    "High": 167.34,
    "Low": 149.12,
    "Vol": 238900
  },
  {
    "Date": "2019-04-24",
    "Price": 166.77,
    "Open": 170.7,
    "High": 171.6,
    "Low": 161.71,
    "Vol": 188220
  },
  {
    "Date": "2019-04-23",
    "Price": 170.93,
    "Open": 172.27,
    "High": 178.33,
    "Low": 169.46,
    "Vol": 194390
  },
  {
    "Date": "2019-04-22",
    "Price": 172.27,
    "Open": 170.61,
    "High": 173.79,
    "Low": 168.85,
    "Vol": 172560
  },
  {
    "Date": "2019-04-21",
    "Price": 170.43,
    "Open": 174.28,
    "High": 174.89,
    "Low": 167.35,
    "Vol": 198040
  },
  {
    "Date": "2019-04-20",
    "Price": 174.27,
    "Open": 174.6,
    "High": 178,
    "Low": 171.62,
    "Vol": 106900
  },
  {
    "Date": "2019-04-19",
    "Price": 174.6,
    "Open": 175.1,
    "High": 175.43,
    "Low": 170.33,
    "Vol": 145410
  },
  {
    "Date": "2019-04-18",
    "Price": 175.13,
    "Open": 167.5,
    "High": 177.2,
    "Low": 167.26,
    "Vol": 291870
  },
  {
    "Date": "2019-04-17",
    "Price": 167.5,
    "Open": 167.44,
    "High": 169.07,
    "Low": 165.65,
    "Vol": 130420
  },
  {
    "Date": "2019-04-16",
    "Price": 167.44,
    "Open": 160.33,
    "High": 168.42,
    "Low": 159.5,
    "Vol": 181690
  },
  {
    "Date": "2019-04-15",
    "Price": 160.37,
    "Open": 169.39,
    "High": 170.39,
    "Low": 156.61,
    "Vol": 224870
  },
  {
    "Date": "2019-04-14",
    "Price": 169.08,
    "Open": 165.2,
    "High": 169.99,
    "Low": 162.9,
    "Vol": 164300
  },
  {
    "Date": "2019-04-13",
    "Price": 165.2,
    "Open": 165.07,
    "High": 167.06,
    "Low": 163.18,
    "Vol": 120020
  },
  {
    "Date": "2019-04-12",
    "Price": 165.34,
    "Open": 165.59,
    "High": 168.38,
    "Low": 160.24,
    "Vol": 136680
  },
  {
    "Date": "2019-04-11",
    "Price": 165.6,
    "Open": 177.2,
    "High": 177.39,
    "Low": 161,
    "Vol": 336680
  },
  {
    "Date": "2019-04-10",
    "Price": 177.25,
    "Open": 176.8,
    "High": 186.3,
    "Low": 169.54,
    "Vol": 417740
  },
  {
    "Date": "2019-04-09",
    "Price": 176.8,
    "Open": 181.43,
    "High": 181.66,
    "Low": 175.59,
    "Vol": 243260
  },
  {
    "Date": "2019-04-08",
    "Price": 181.75,
    "Open": 176.75,
    "High": 187.7,
    "Low": 175,
    "Vol": 461180
  },
  {
    "Date": "2019-04-07",
    "Price": 176.56,
    "Open": 167.08,
    "High": 178.62,
    "Low": 165.86,
    "Vol": 237560
  },
  {
    "Date": "2019-04-06",
    "Price": 167.07,
    "Open": 167.33,
    "High": 174.32,
    "Low": 161.8,
    "Vol": 255980
  },
  {
    "Date": "2019-04-05",
    "Price": 167.07,
    "Open": 158.76,
    "High": 169.99,
    "Low": 157.77,
    "Vol": 191290
  },
  {
    "Date": "2019-04-04",
    "Price": 158.66,
    "Open": 161,
    "High": 165.35,
    "Low": 155.06,
    "Vol": 305830
  },
  {
    "Date": "2019-04-03",
    "Price": 161.14,
    "Open": 165.52,
    "High": 179.86,
    "Low": 152.31,
    "Vol": 820600
  },
  {
    "Date": "2019-04-02",
    "Price": 165.63,
    "Open": 143.14,
    "High": 168.32,
    "Low": 142.94,
    "Vol": 575120
  },
  {
    "Date": "2019-04-01",
    "Price": 143.5,
    "Open": 143.78,
    "High": 145.37,
    "Low": 141.55,
    "Vol": 103570
  },
  {
    "Date": "2019-03-31",
    "Price": 143.78,
    "Open": 144.62,
    "High": 144.68,
    "Low": 142.69,
    "Vol": 59910
  },
  {
    "Date": "2019-03-30",
    "Price": 144.65,
    "Open": 146.2,
    "High": 148.52,
    "Low": 142.72,
    "Vol": 136090
  },
  {
    "Date": "2019-03-29",
    "Price": 146.2,
    "Open": 140.27,
    "High": 146.32,
    "Low": 140,
    "Vol": 154470
  },
  {
    "Date": "2019-03-28",
    "Price": 140.26,
    "Open": 141.65,
    "High": 141.65,
    "Low": 139.47,
    "Vol": 59670
  },
  {
    "Date": "2019-03-27",
    "Price": 141.63,
    "Open": 135.4,
    "High": 142.18,
    "Low": 135.33,
    "Vol": 177220
  },
  {
    "Date": "2019-03-26",
    "Price": 135.4,
    "Open": 135.14,
    "High": 136.2,
    "Low": 134.03,
    "Vol": 112620
  },
  {
    "Date": "2019-03-25",
    "Price": 135.14,
    "Open": 137.81,
    "High": 138.7,
    "Low": 133.31,
    "Vol": 114060
  },
  {
    "Date": "2019-03-24",
    "Price": 137.81,
    "Open": 139.28,
    "High": 139.33,
    "Low": 136.73,
    "Vol": 59310
  },
  {
    "Date": "2019-03-23",
    "Price": 139.28,
    "Open": 137.86,
    "High": 140.4,
    "Low": 137.83,
    "Vol": 81480
  },
  {
    "Date": "2019-03-22",
    "Price": 138.07,
    "Open": 136.99,
    "High": 139.4,
    "Low": 136.45,
    "Vol": 90280
  },
  {
    "Date": "2019-03-21",
    "Price": 137.01,
    "Open": 142.17,
    "High": 142.62,
    "Low": 135.41,
    "Vol": 172120
  },
  {
    "Date": "2019-03-20",
    "Price": 142.08,
    "Open": 141.69,
    "High": 142.86,
    "Low": 138.99,
    "Vol": 120360
  },
  {
    "Date": "2019-03-19",
    "Price": 141.63,
    "Open": 140.59,
    "High": 142.28,
    "Low": 139.89,
    "Vol": 82390
  },
  {
    "Date": "2019-03-18",
    "Price": 140.65,
    "Open": 141.71,
    "High": 144.88,
    "Low": 139.16,
    "Vol": 148540
  },
  {
    "Date": "2019-03-17",
    "Price": 141.71,
    "Open": 143.79,
    "High": 143.79,
    "Low": 140.39,
    "Vol": 119260
  },
  {
    "Date": "2019-03-16",
    "Price": 143.8,
    "Open": 139.3,
    "High": 147.29,
    "Low": 139.3,
    "Vol": 195600
  },
  {
    "Date": "2019-03-15",
    "Price": 139.15,
    "Open": 134.71,
    "High": 141,
    "Low": 134.69,
    "Vol": 262270
  },
  {
    "Date": "2019-03-14",
    "Price": 134.72,
    "Open": 134.44,
    "High": 138.14,
    "Low": 132.33,
    "Vol": 144500
  },
  {
    "Date": "2019-03-13",
    "Price": 134.53,
    "Open": 136.26,
    "High": 136.28,
    "Low": 133.48,
    "Vol": 105010
  },
  {
    "Date": "2019-03-12",
    "Price": 136.27,
    "Open": 135.41,
    "High": 137.76,
    "Low": 131.38,
    "Vol": 189900
  },
  {
    "Date": "2019-03-11",
    "Price": 135.41,
    "Open": 138.2,
    "High": 138.76,
    "Low": 134.1,
    "Vol": 168750
  },
  {
    "Date": "2019-03-10",
    "Price": 138.2,
    "Open": 140.04,
    "High": 140.25,
    "Low": 136.9,
    "Vol": 102140
  },
  {
    "Date": "2019-03-09",
    "Price": 140.06,
    "Open": 136.18,
    "High": 141.65,
    "Low": 135.54,
    "Vol": 172800
  },
  {
    "Date": "2019-03-08",
    "Price": 136.19,
    "Open": 140.03,
    "High": 143.01,
    "Low": 133.24,
    "Vol": 254400
  },
  {
    "Date": "2019-03-07",
    "Price": 140.04,
    "Open": 140.58,
    "High": 142.94,
    "Low": 138.56,
    "Vol": 144040
  },
  {
    "Date": "2019-03-06",
    "Price": 140.57,
    "Open": 140,
    "High": 143.77,
    "Low": 137,
    "Vol": 236680
  },
  {
    "Date": "2019-03-05",
    "Price": 140,
    "Open": 128.39,
    "High": 140.66,
    "Low": 127.74,
    "Vol": 302890
  },
  {
    "Date": "2019-03-04",
    "Price": 128.39,
    "Open": 133.27,
    "High": 133.87,
    "Low": 125.97,
    "Vol": 217500
  },
  {
    "Date": "2019-03-03",
    "Price": 133.29,
    "Open": 135.6,
    "High": 137.84,
    "Low": 130.81,
    "Vol": 110320
  },
  {
    "Date": "2019-03-02",
    "Price": 135.6,
    "Open": 138.4,
    "High": 139.31,
    "Low": 133,
    "Vol": 179050
  },
  {
    "Date": "2019-03-01",
    "Price": 138.39,
    "Open": 138.17,
    "High": 141.43,
    "Low": 137.84,
    "Vol": 112400
  },
  {
    "Date": "2019-02-28",
    "Price": 138.17,
    "Open": 137.71,
    "High": 142.54,
    "Low": 136.48,
    "Vol": 327680
  },
  {
    "Date": "2019-02-27",
    "Price": 137.71,
    "Open": 139.42,
    "High": 143.64,
    "Low": 129.6,
    "Vol": 372480
  },
  {
    "Date": "2019-02-26",
    "Price": 139.55,
    "Open": 141.22,
    "High": 141.62,
    "Low": 137.01,
    "Vol": 139960
  },
  {
    "Date": "2019-02-25",
    "Price": 141.16,
    "Open": 135.31,
    "High": 144.77,
    "Low": 135.21,
    "Vol": 322370
  },
  {
    "Date": "2019-02-24",
    "Price": 135.12,
    "Open": 161.54,
    "High": 169.9,
    "Low": 135.06,
    "Vol": 879790
  },
  {
    "Date": "2019-02-23",
    "Price": 161.34,
    "Open": 151.27,
    "High": 163.42,
    "Low": 148.97,
    "Vol": 442930
  },
  {
    "Date": "2019-02-22",
    "Price": 151.27,
    "Open": 148.44,
    "High": 152.16,
    "Low": 146.16,
    "Vol": 349020
  },
  {
    "Date": "2019-02-21",
    "Price": 148.25,
    "Open": 151.67,
    "High": 153.59,
    "Low": 145.58,
    "Vol": 324590
  },
  {
    "Date": "2019-02-20",
    "Price": 151.67,
    "Open": 146.61,
    "High": 152.82,
    "Low": 143.89,
    "Vol": 315060
  },
  {
    "Date": "2019-02-19",
    "Price": 146.61,
    "Open": 148.87,
    "High": 152.95,
    "Low": 145.99,
    "Vol": 343890
  },
  {
    "Date": "2019-02-18",
    "Price": 148.98,
    "Open": 136.27,
    "High": 151.86,
    "Low": 135.71,
    "Vol": 677470
  },
  {
    "Date": "2019-02-17",
    "Price": 136.19,
    "Open": 124.68,
    "High": 138.24,
    "Low": 124.49,
    "Vol": 520130
  },
  {
    "Date": "2019-02-16",
    "Price": 124.68,
    "Open": 123.78,
    "High": 126.85,
    "Low": 123.78,
    "Vol": 122630
  },
  {
    "Date": "2019-02-15",
    "Price": 123.75,
    "Open": 122.57,
    "High": 126.48,
    "Low": 122.2,
    "Vol": 179540
  },
  {
    "Date": "2019-02-14",
    "Price": 122.58,
    "Open": 123.76,
    "High": 126.25,
    "Low": 122.51,
    "Vol": 180680
  },
  {
    "Date": "2019-02-13",
    "Price": 123.85,
    "Open": 124.75,
    "High": 129.3,
    "Low": 122.55,
    "Vol": 244180
  },
  {
    "Date": "2019-02-12",
    "Price": 124.75,
    "Open": 122.69,
    "High": 126.4,
    "Low": 120.3,
    "Vol": 226670
  },
  {
    "Date": "2019-02-11",
    "Price": 122.68,
    "Open": 127.2,
    "High": 127.2,
    "Low": 121.39,
    "Vol": 207170
  },
  {
    "Date": "2019-02-10",
    "Price": 127.31,
    "Open": 121.14,
    "High": 128.13,
    "Low": 118,
    "Vol": 249130
  },
  {
    "Date": "2019-02-09",
    "Price": 121.01,
    "Open": 121.21,
    "High": 123.47,
    "Low": 119.59,
    "Vol": 150890
  },
  {
    "Date": "2019-02-08",
    "Price": 121.34,
    "Open": 105.71,
    "High": 124.8,
    "Low": 105.01,
    "Vol": 519950
  },
  {
    "Date": "2019-02-07",
    "Price": 105.71,
    "Open": 106.06,
    "High": 107.6,
    "Low": 105.07,
    "Vol": 115020
  },
  {
    "Date": "2019-02-06",
    "Price": 106.1,
    "Open": 108.69,
    "High": 109,
    "Low": 102.61,
    "Vol": 280560
  },
  {
    "Date": "2019-02-05",
    "Price": 108.68,
    "Open": 108.46,
    "High": 109.13,
    "Low": 107.65,
    "Vol": 66830
  },
  {
    "Date": "2019-02-04",
    "Price": 108.46,
    "Open": 108.52,
    "High": 110,
    "Low": 107.77,
    "Vol": 105140
  },
  {
    "Date": "2019-02-03",
    "Price": 108.52,
    "Open": 112.7,
    "High": 113.49,
    "Low": 107.18,
    "Vol": 191290
  },
  {
    "Date": "2019-02-02",
    "Price": 112.7,
    "Open": 109.02,
    "High": 113.37,
    "Low": 107.93,
    "Vol": 163320
  },
  {
    "Date": "2019-02-01",
    "Price": 109.02,
    "Open": 108.61,
    "High": 110.51,
    "Low": 105.6,
    "Vol": 192470
  },
  {
    "Date": "2019-01-31",
    "Price": 108.45,
    "Open": 110.65,
    "High": 112.97,
    "Low": 107.47,
    "Vol": 179430
  },
  {
    "Date": "2019-01-30",
    "Price": 110.62,
    "Open": 106.3,
    "High": 111.96,
    "Low": 105.32,
    "Vol": 324020
  },
  {
    "Date": "2019-01-29",
    "Price": 106.3,
    "Open": 107.54,
    "High": 108.36,
    "Low": 104.26,
    "Vol": 164510
  },
  {
    "Date": "2019-01-28",
    "Price": 107.54,
    "Open": 113.41,
    "High": 114.33,
    "Low": 103.22,
    "Vol": 370270
  },
  {
    "Date": "2019-01-27",
    "Price": 113.4,
    "Open": 117.33,
    "High": 118.4,
    "Low": 112.71,
    "Vol": 238120
  },
  {
    "Date": "2019-01-26",
    "Price": 117.31,
    "Open": 117.27,
    "High": 120.33,
    "Low": 117.03,
    "Vol": 136020
  },
  {
    "Date": "2019-01-25",
    "Price": 117.27,
    "Open": 119.05,
    "High": 119.5,
    "Low": 116.32,
    "Vol": 139870
  },
  {
    "Date": "2019-01-24",
    "Price": 119.05,
    "Open": 118.76,
    "High": 120.12,
    "Low": 115.88,
    "Vol": 181030
  },
  {
    "Date": "2019-01-23",
    "Price": 118.76,
    "Open": 120.19,
    "High": 121.1,
    "Low": 117.03,
    "Vol": 153110
  },
  {
    "Date": "2019-01-22",
    "Price": 120.19,
    "Open": 117.42,
    "High": 121.95,
    "Low": 112.66,
    "Vol": 298440
  },
  {
    "Date": "2019-01-21",
    "Price": 117.5,
    "Open": 119.04,
    "High": 120.09,
    "Low": 114.98,
    "Vol": 207940
  },
  {
    "Date": "2019-01-20",
    "Price": 119.04,
    "Open": 125.98,
    "High": 126.61,
    "Low": 117.63,
    "Vol": 370730
  },
  {
    "Date": "2019-01-19",
    "Price": 126,
    "Open": 121.88,
    "High": 131.69,
    "Low": 121.88,
    "Vol": 284970
  },
  {
    "Date": "2019-01-18",
    "Price": 121.82,
    "Open": 125.1,
    "High": 125.58,
    "Low": 120.27,
    "Vol": 146720
  },
  {
    "Date": "2019-01-17",
    "Price": 125.25,
    "Open": 124.46,
    "High": 126.94,
    "Low": 119.52,
    "Vol": 258910
  },
  {
    "Date": "2019-01-16",
    "Price": 124.35,
    "Open": 122.7,
    "High": 131.29,
    "Low": 121.83,
    "Vol": 300500
  },
  {
    "Date": "2019-01-15",
    "Price": 122.7,
    "Open": 131.45,
    "High": 133.67,
    "Low": 119.8,
    "Vol": 359960
  },
  {
    "Date": "2019-01-14",
    "Price": 131.45,
    "Open": 117.94,
    "High": 134.41,
    "Low": 117.8,
    "Vol": 380580
  },
  {
    "Date": "2019-01-13",
    "Price": 117.93,
    "Open": 127.41,
    "High": 127.65,
    "Low": 116.11,
    "Vol": 245760
  },
  {
    "Date": "2019-01-12",
    "Price": 127.41,
    "Open": 128.76,
    "High": 130.25,
    "Low": 126.31,
    "Vol": 142550
  },
  {
    "Date": "2019-01-11",
    "Price": 128.75,
    "Open": 129.53,
    "High": 131.79,
    "Low": 124.98,
    "Vol": 281060
  },
  {
    "Date": "2019-01-10",
    "Price": 129.5,
    "Open": 152.8,
    "High": 154.32,
    "Low": 125.82,
    "Vol": 684780
  },
  {
    "Date": "2019-01-09",
    "Price": 152.65,
    "Open": 152.85,
    "High": 159.08,
    "Low": 151.34,
    "Vol": 291780
  },
  {
    "Date": "2019-01-08",
    "Price": 152.85,
    "Open": 154.77,
    "High": 157.2,
    "Low": 150.54,
    "Vol": 394300
  },
  {
    "Date": "2019-01-07",
    "Price": 154.87,
    "Open": 160.74,
    "High": 162.49,
    "Low": 153.46,
    "Vol": 194380
  },
  {
    "Date": "2019-01-06",
    "Price": 160.84,
    "Open": 158.32,
    "High": 164.35,
    "Low": 154.13,
    "Vol": 507030
  },
  {
    "Date": "2019-01-05",
    "Price": 158.32,
    "Open": 158.73,
    "High": 166.62,
    "Low": 157.59,
    "Vol": 500830
  },
  {
    "Date": "2019-01-04",
    "Price": 158.67,
    "Open": 152.44,
    "High": 162.07,
    "Low": 150.51,
    "Vol": 553200
  },
  {
    "Date": "2019-01-03",
    "Price": 152.42,
    "Open": 159.51,
    "High": 160.78,
    "Low": 150.02,
    "Vol": 329590
  },
  {
    "Date": "2019-01-02",
    "Price": 159.36,
    "Open": 145.07,
    "High": 163.14,
    "Low": 144.26,
    "Vol": 566330
  },
  {
    "Date": "2019-01-01",
    "Price": 144.84,
    "Open": 136,
    "High": 148,
    "Low": 134.85,
    "Vol": 392260
  }
]