[
  {
    "Date": "2020-02-12",
    "Price": 0.00762,
    "Open": 0.007478,
    "High": 0.007684,
    "Low": 0.007478,
    "Vol": 234880
  },
  {
    "Date": "2020-02-11",
    "Price": 0.007484,
    "Open": 0.007503,
    "High": 0.007638,
    "Low": 0.007401,
    "Vol": 196500
  },
  {
    "Date": "2020-02-10",
    "Price": 0.007514,
    "Open": 0.007576,
    "High": 0.007601,
    "Low": 0.007394,
    "Vol": 213790
  },
  {
    "Date": "2020-02-09",
    "Price": 0.007584,
    "Open": 0.007735,
    "High": 0.007799,
    "Low": 0.007484,
    "Vol": 185250
  },
  {
    "Date": "2020-02-08",
    "Price": 0.00774,
    "Open": 0.007573,
    "High": 0.00789,
    "Low": 0.007379,
    "Vol": 234840
  },
  {
    "Date": "2020-02-07",
    "Price": 0.007569,
    "Open": 0.007532,
    "High": 0.007666,
    "Low": 0.007478,
    "Vol": 159480
  },
  {
    "Date": "2020-02-06",
    "Price": 0.007526,
    "Open": 0.007553,
    "High": 0.007744,
    "Low": 0.00738,
    "Vol": 212030
  },
  {
    "Date": "2020-02-05",
    "Price": 0.007549,
    "Open": 0.007401,
    "High": 0.007688,
    "Low": 0.007358,
    "Vol": 205030
  },
  {
    "Date": "2020-02-04",
    "Price": 0.007399,
    "Open": 0.007497,
    "High": 0.007543,
    "Low": 0.007264,
    "Vol": 166450
  },
  {
    "Date": "2020-02-03",
    "Price": 0.007495,
    "Open": 0.007495,
    "High": 0.007624,
    "Low": 0.007407,
    "Vol": 216800
  },
  {
    "Date": "2020-02-02",
    "Price": 0.00749,
    "Open": 0.007533,
    "High": 0.007755,
    "Low": 0.007348,
    "Vol": 290600
  },
  {
    "Date": "2020-02-01",
    "Price": 0.007536,
    "Open": 0.007272,
    "High": 0.007719,
    "Low": 0.007237,
    "Vol": 406680
  },
  {
    "Date": "2020-01-31",
    "Price": 0.007277,
    "Open": 0.007146,
    "High": 0.007426,
    "Low": 0.007105,
    "Vol": 396630
  },
  {
    "Date": "2020-01-30",
    "Price": 0.007148,
    "Open": 0.006421,
    "High": 0.00734,
    "Low": 0.006329,
    "Vol": 454360
  },
  {
    "Date": "2020-01-29",
    "Price": 0.006431,
    "Open": 0.006455,
    "High": 0.006668,
    "Low": 0.006417,
    "Vol": 161410
  },
  {
    "Date": "2020-01-28",
    "Price": 0.006457,
    "Open": 0.006575,
    "High": 0.006742,
    "Low": 0.00644,
    "Vol": 218960
  },
  {
    "Date": "2020-01-27",
    "Price": 0.006573,
    "Open": 0.006526,
    "High": 0.006775,
    "Low": 0.006478,
    "Vol": 160940
  },
  {
    "Date": "2020-01-26",
    "Price": 0.006529,
    "Open": 0.006368,
    "High": 0.006594,
    "Low": 0.006356,
    "Vol": 116810
  },
  {
    "Date": "2020-01-25",
    "Price": 0.006387,
    "Open": 0.006442,
    "High": 0.00649,
    "Low": 0.006272,
    "Vol": 97320
  },
  {
    "Date": "2020-01-24",
    "Price": 0.006444,
    "Open": 0.006486,
    "High": 0.006497,
    "Low": 0.006128,
    "Vol": 206020
  },
  {
    "Date": "2020-01-23",
    "Price": 0.006479,
    "Open": 0.006716,
    "High": 0.006729,
    "Low": 0.006358,
    "Vol": 165540
  },
  {
    "Date": "2020-01-22",
    "Price": 0.006719,
    "Open": 0.006588,
    "High": 0.006741,
    "Low": 0.006563,
    "Vol": 99800
  },
  {
    "Date": "2020-01-21",
    "Price": 0.006593,
    "Open": 0.006615,
    "High": 0.006686,
    "Low": 0.006549,
    "Vol": 84110
  },
  {
    "Date": "2020-01-20",
    "Price": 0.00662,
    "Open": 0.006622,
    "High": 0.0067,
    "Low": 0.006525,
    "Vol": 83680
  },
  {
    "Date": "2020-01-19",
    "Price": 0.006624,
    "Open": 0.006646,
    "High": 0.006847,
    "Low": 0.006473,
    "Vol": 201050
  },
  {
    "Date": "2020-01-18",
    "Price": 0.006652,
    "Open": 0.006857,
    "High": 0.006946,
    "Low": 0.006563,
    "Vol": 277820
  },
  {
    "Date": "2020-01-17",
    "Price": 0.006855,
    "Open": 0.006601,
    "High": 0.007059,
    "Low": 0.006541,
    "Vol": 317290
  },
  {
    "Date": "2020-01-16",
    "Price": 0.006603,
    "Open": 0.006591,
    "High": 0.006705,
    "Low": 0.006367,
    "Vol": 202860
  },
  {
    "Date": "2020-01-15",
    "Price": 0.006596,
    "Open": 0.006596,
    "High": 0.006819,
    "Low": 0.006459,
    "Vol": 388080
  },
  {
    "Date": "2020-01-14",
    "Price": 0.006629,
    "Open": 0.006116,
    "High": 0.006847,
    "Low": 0.006114,
    "Vol": 615840
  },
  {
    "Date": "2020-01-13",
    "Price": 0.006118,
    "Open": 0.006285,
    "High": 0.006296,
    "Low": 0.006061,
    "Vol": 182020
  },
  {
    "Date": "2020-01-12",
    "Price": 0.006272,
    "Open": 0.006157,
    "High": 0.006344,
    "Low": 0.006127,
    "Vol": 271930
  },
  {
    "Date": "2020-01-11",
    "Price": 0.006148,
    "Open": 0.005988,
    "High": 0.006339,
    "Low": 0.005956,
    "Vol": 331530
  },
  {
    "Date": "2020-01-10",
    "Price": 0.005986,
    "Open": 0.005724,
    "High": 0.006127,
    "Low": 0.005695,
    "Vol": 326890
  },
  {
    "Date": "2020-01-09",
    "Price": 0.005725,
    "Open": 0.00563,
    "High": 0.005749,
    "Low": 0.005616,
    "Vol": 97020
  },
  {
    "Date": "2020-01-08",
    "Price": 0.005633,
    "Open": 0.005684,
    "High": 0.005774,
    "Low": 0.005489,
    "Vol": 236080
  },
  {
    "Date": "2020-01-07",
    "Price": 0.005681,
    "Open": 0.005899,
    "High": 0.005899,
    "Low": 0.005677,
    "Vol": 193480
  },
  {
    "Date": "2020-01-06",
    "Price": 0.005905,
    "Open": 0.005886,
    "High": 0.005999,
    "Low": 0.005854,
    "Vol": 134730
  },
  {
    "Date": "2020-01-05",
    "Price": 0.005884,
    "Open": 0.005817,
    "High": 0.005965,
    "Low": 0.005741,
    "Vol": 106030
  },
  {
    "Date": "2020-01-04",
    "Price": 0.005817,
    "Open": 0.005749,
    "High": 0.005828,
    "Low": 0.005714,
    "Vol": 102060
  },
  {
    "Date": "2020-01-03",
    "Price": 0.005746,
    "Open": 0.005655,
    "High": 0.005751,
    "Low": 0.005595,
    "Vol": 108480
  },
  {
    "Date": "2020-01-02",
    "Price": 0.00566,
    "Open": 0.005776,
    "High": 0.005805,
    "Low": 0.005629,
    "Vol": 66360
  },
  {
    "Date": "2020-01-01",
    "Price": 0.005779,
    "Open": 0.005734,
    "High": 0.005811,
    "Low": 0.00573,
    "Vol": 39690
  },
  {
    "Date": "2019-12-31",
    "Price": 0.005741,
    "Open": 0.00585,
    "High": 0.005884,
    "Low": 0.00573,
    "Vol": 65660
  },
  {
    "Date": "2019-12-30",
    "Price": 0.005851,
    "Open": 0.005826,
    "High": 0.005966,
    "Low": 0.005793,
    "Vol": 103430
  },
  {
    "Date": "2019-12-29",
    "Price": 0.005833,
    "Open": 0.005852,
    "High": 0.005888,
    "Low": 0.005775,
    "Vol": 124020
  },
  {
    "Date": "2019-12-28",
    "Price": 0.005853,
    "Open": 0.005644,
    "High": 0.00595,
    "Low": 0.005644,
    "Vol": 133790
  },
  {
    "Date": "2019-12-27",
    "Price": 0.005644,
    "Open": 0.005557,
    "High": 0.005693,
    "Low": 0.005543,
    "Vol": 81750
  },
  {
    "Date": "2019-12-26",
    "Price": 0.005557,
    "Open": 0.005568,
    "High": 0.005632,
    "Low": 0.00551,
    "Vol": 61310
  },
  {
    "Date": "2019-12-25",
    "Price": 0.005569,
    "Open": 0.005559,
    "High": 0.0056,
    "Low": 0.005495,
    "Vol": 44070
  },
  {
    "Date": "2019-12-24",
    "Price": 0.005556,
    "Open": 0.005552,
    "High": 0.005624,
    "Low": 0.005492,
    "Vol": 64570
  },
  {
    "Date": "2019-12-23",
    "Price": 0.005539,
    "Open": 0.005569,
    "High": 0.005624,
    "Low": 0.005507,
    "Vol": 82360
  },
  {
    "Date": "2019-12-22",
    "Price": 0.005575,
    "Open": 0.005558,
    "High": 0.005741,
    "Low": 0.005555,
    "Vol": 70390
  },
  {
    "Date": "2019-12-21",
    "Price": 0.005559,
    "Open": 0.005589,
    "High": 0.005603,
    "Low": 0.005542,
    "Vol": 34640
  },
  {
    "Date": "2019-12-20",
    "Price": 0.005591,
    "Open": 0.005553,
    "High": 0.005644,
    "Low": 0.005543,
    "Vol": 49860
  },
  {
    "Date": "2019-12-19",
    "Price": 0.005548,
    "Open": 0.005603,
    "High": 0.005659,
    "Low": 0.005508,
    "Vol": 87020
  },
  {
    "Date": "2019-12-18",
    "Price": 0.005609,
    "Open": 0.005575,
    "High": 0.005805,
    "Low": 0.005555,
    "Vol": 175030
  },
  {
    "Date": "2019-12-17",
    "Price": 0.005575,
    "Open": 0.005798,
    "High": 0.005816,
    "Low": 0.005523,
    "Vol": 211310
  },
  {
    "Date": "2019-12-16",
    "Price": 0.005802,
    "Open": 0.006109,
    "High": 0.006121,
    "Low": 0.005689,
    "Vol": 153830
  },
  {
    "Date": "2019-12-15",
    "Price": 0.006107,
    "Open": 0.006125,
    "High": 0.00615,
    "Low": 0.006096,
    "Vol": 38610
  },
  {
    "Date": "2019-12-14",
    "Price": 0.006121,
    "Open": 0.006126,
    "High": 0.006182,
    "Low": 0.006084,
    "Vol": 48110
  },
  {
    "Date": "2019-12-13",
    "Price": 0.006122,
    "Open": 0.006063,
    "High": 0.006129,
    "Low": 0.006028,
    "Vol": 55370
  },
  {
    "Date": "2019-12-12",
    "Price": 0.006063,
    "Open": 0.006044,
    "High": 0.0061,
    "Low": 0.006018,
    "Vol": 56630
  },
  {
    "Date": "2019-12-11",
    "Price": 0.006066,
    "Open": 0.006105,
    "High": 0.006142,
    "Low": 0.006035,
    "Vol": 73600
  },
  {
    "Date": "2019-12-10",
    "Price": 0.006105,
    "Open": 0.006061,
    "High": 0.006106,
    "Low": 0.006012,
    "Vol": 61350
  },
  {
    "Date": "2019-12-09",
    "Price": 0.006055,
    "Open": 0.006066,
    "High": 0.006115,
    "Low": 0.005983,
    "Vol": 96390
  },
  {
    "Date": "2019-12-08",
    "Price": 0.006064,
    "Open": 0.006029,
    "High": 0.006116,
    "Low": 0.006013,
    "Vol": 51170
  },
  {
    "Date": "2019-12-07",
    "Price": 0.006029,
    "Open": 0.00601,
    "High": 0.00612,
    "Low": 0.006002,
    "Vol": 79200
  },
  {
    "Date": "2019-12-06",
    "Price": 0.00601,
    "Open": 0.006066,
    "High": 0.00613,
    "Low": 0.00599,
    "Vol": 105470
  },
  {
    "Date": "2019-12-05",
    "Price": 0.006065,
    "Open": 0.006209,
    "High": 0.006211,
    "Low": 0.005999,
    "Vol": 134290
  },
  {
    "Date": "2019-12-04",
    "Price": 0.006208,
    "Open": 0.006133,
    "High": 0.006249,
    "Low": 0.006054,
    "Vol": 143900
  },
  {
    "Date": "2019-12-03",
    "Price": 0.006139,
    "Open": 0.006231,
    "High": 0.006285,
    "Low": 0.006114,
    "Vol": 112070
  },
  {
    "Date": "2019-12-02",
    "Price": 0.006231,
    "Open": 0.006419,
    "High": 0.006429,
    "Low": 0.006161,
    "Vol": 124750
  },
  {
    "Date": "2019-12-01",
    "Price": 0.006415,
    "Open": 0.006259,
    "High": 0.006484,
    "Low": 0.006211,
    "Vol": 112990
  },
  {
    "Date": "2019-11-30",
    "Price": 0.006259,
    "Open": 0.006272,
    "High": 0.006345,
    "Low": 0.006202,
    "Vol": 90860
  },
  {
    "Date": "2019-11-29",
    "Price": 0.006282,
    "Open": 0.006306,
    "High": 0.006432,
    "Low": 0.006259,
    "Vol": 118970
  },
  {
    "Date": "2019-11-28",
    "Price": 0.006304,
    "Open": 0.006351,
    "High": 0.006389,
    "Low": 0.006229,
    "Vol": 84400
  },
  {
    "Date": "2019-11-27",
    "Price": 0.006348,
    "Open": 0.006556,
    "High": 0.006563,
    "Low": 0.006317,
    "Vol": 123720
  },
  {
    "Date": "2019-11-26",
    "Price": 0.006554,
    "Open": 0.006392,
    "High": 0.006607,
    "Low": 0.006392,
    "Vol": 96900
  },
  {
    "Date": "2019-11-25",
    "Price": 0.006397,
    "Open": 0.006356,
    "High": 0.00675,
    "Low": 0.006305,
    "Vol": 215440
  },
  {
    "Date": "2019-11-24",
    "Price": 0.006359,
    "Open": 0.006578,
    "High": 0.006591,
    "Low": 0.006295,
    "Vol": 162080
  },
  {
    "Date": "2019-11-23",
    "Price": 0.006578,
    "Open": 0.00651,
    "High": 0.006641,
    "Low": 0.006471,
    "Vol": 116330
  },
  {
    "Date": "2019-11-22",
    "Price": 0.006512,
    "Open": 0.006632,
    "High": 0.006716,
    "Low": 0.006402,
    "Vol": 296960
  },
  {
    "Date": "2019-11-21",
    "Price": 0.006645,
    "Open": 0.006791,
    "High": 0.006807,
    "Low": 0.006483,
    "Vol": 192750
  },
  {
    "Date": "2019-11-20",
    "Price": 0.006789,
    "Open": 0.006778,
    "High": 0.006899,
    "Low": 0.006753,
    "Vol": 95340
  },
  {
    "Date": "2019-11-19",
    "Price": 0.006777,
    "Open": 0.006817,
    "High": 0.006899,
    "Low": 0.006733,
    "Vol": 126490
  },
  {
    "Date": "2019-11-18",
    "Price": 0.006817,
    "Open": 0.006965,
    "High": 0.006985,
    "Low": 0.00666,
    "Vol": 154630
  },
  {
    "Date": "2019-11-17",
    "Price": 0.00696,
    "Open": 0.006863,
    "High": 0.007011,
    "Low": 0.006841,
    "Vol": 85370
  },
  {
    "Date": "2019-11-16",
    "Price": 0.006866,
    "Open": 0.006799,
    "High": 0.006912,
    "Low": 0.006768,
    "Vol": 61360
  },
  {
    "Date": "2019-11-15",
    "Price": 0.0068,
    "Open": 0.006822,
    "High": 0.006974,
    "Low": 0.006657,
    "Vol": 148390
  },
  {
    "Date": "2019-11-14",
    "Price": 0.006823,
    "Open": 0.006944,
    "High": 0.006951,
    "Low": 0.006795,
    "Vol": 101750
  },
  {
    "Date": "2019-11-13",
    "Price": 0.006947,
    "Open": 0.006966,
    "High": 0.007036,
    "Low": 0.006916,
    "Vol": 70580
  },
  {
    "Date": "2019-11-12",
    "Price": 0.006971,
    "Open": 0.00708,
    "High": 0.007107,
    "Low": 0.006937,
    "Vol": 104830
  },
  {
    "Date": "2019-11-11",
    "Price": 0.007078,
    "Open": 0.007041,
    "High": 0.007178,
    "Low": 0.006971,
    "Vol": 137240
  },
  {
    "Date": "2019-11-10",
    "Price": 0.007041,
    "Open": 0.007044,
    "High": 0.007353,
    "Low": 0.006973,
    "Vol": 227610
  },
  {
    "Date": "2019-11-09",
    "Price": 0.007044,
    "Open": 0.006882,
    "High": 0.007087,
    "Low": 0.006859,
    "Vol": 121210
  },
  {
    "Date": "2019-11-08",
    "Price": 0.006882,
    "Open": 0.006665,
    "High": 0.006884,
    "Low": 0.006644,
    "Vol": 140430
  },
  {
    "Date": "2019-11-07",
    "Price": 0.006665,
    "Open": 0.006873,
    "High": 0.006877,
    "Low": 0.00659,
    "Vol": 127660
  },
  {
    "Date": "2019-11-06",
    "Price": 0.006866,
    "Open": 0.006782,
    "High": 0.006869,
    "Low": 0.006711,
    "Vol": 144840
  },
  {
    "Date": "2019-11-05",
    "Price": 0.006789,
    "Open": 0.006524,
    "High": 0.006857,
    "Low": 0.006517,
    "Vol": 183720
  },
  {
    "Date": "2019-11-04",
    "Price": 0.006521,
    "Open": 0.006347,
    "High": 0.006663,
    "Low": 0.006329,
    "Vol": 185550
  },
  {
    "Date": "2019-11-03",
    "Price": 0.006338,
    "Open": 0.006267,
    "High": 0.006396,
    "Low": 0.006221,
    "Vol": 62850
  },
  {
    "Date": "2019-11-02",
    "Price": 0.006267,
    "Open": 0.006307,
    "High": 0.00634,
    "Low": 0.006234,
    "Vol": 54100
  },
  {
    "Date": "2019-11-01",
    "Price": 0.006316,
    "Open": 0.006373,
    "High": 0.006401,
    "Low": 0.006261,
    "Vol": 68010
  },
  {
    "Date": "2019-10-31",
    "Price": 0.006376,
    "Open": 0.006322,
    "High": 0.00642,
    "Low": 0.006322,
    "Vol": 105640
  },
  {
    "Date": "2019-10-30",
    "Price": 0.006325,
    "Open": 0.00635,
    "High": 0.006507,
    "Low": 0.006299,
    "Vol": 128710
  },
  {
    "Date": "2019-10-29",
    "Price": 0.006352,
    "Open": 0.00627,
    "High": 0.006422,
    "Low": 0.00627,
    "Vol": 146960
  },
  {
    "Date": "2019-10-28",
    "Price": 0.006278,
    "Open": 0.006275,
    "High": 0.006396,
    "Low": 0.006089,
    "Vol": 175270
  },
  {
    "Date": "2019-10-27",
    "Price": 0.006275,
    "Open": 0.006134,
    "High": 0.006435,
    "Low": 0.005995,
    "Vol": 181750
  },
  {
    "Date": "2019-10-26",
    "Price": 0.006148,
    "Open": 0.006575,
    "High": 0.006593,
    "Low": 0.005994,
    "Vol": 378860
  },
  {
    "Date": "2019-10-25",
    "Price": 0.006576,
    "Open": 0.006684,
    "High": 0.006924,
    "Low": 0.006561,
    "Vol": 282600
  },
  {
    "Date": "2019-10-24",
    "Price": 0.006682,
    "Open": 0.006625,
    "High": 0.006724,
    "Low": 0.006556,
    "Vol": 109930
  },
  {
    "Date": "2019-10-23",
    "Price": 0.00662,
    "Open": 0.006653,
    "High": 0.006653,
    "Low": 0.006374,
    "Vol": 157950
  },
  {
    "Date": "2019-10-22",
    "Price": 0.006652,
    "Open": 0.006656,
    "High": 0.006707,
    "Low": 0.006574,
    "Vol": 72520
  },
  {
    "Date": "2019-10-21",
    "Price": 0.006658,
    "Open": 0.006672,
    "High": 0.006722,
    "Low": 0.006548,
    "Vol": 104910
  },
  {
    "Date": "2019-10-20",
    "Price": 0.006673,
    "Open": 0.006757,
    "High": 0.006781,
    "Low": 0.006664,
    "Vol": 72050
  },
  {
    "Date": "2019-10-19",
    "Price": 0.006763,
    "Open": 0.006698,
    "High": 0.006797,
    "Low": 0.006645,
    "Vol": 61400
  },
  {
    "Date": "2019-10-18",
    "Price": 0.006697,
    "Open": 0.006807,
    "High": 0.006807,
    "Low": 0.006642,
    "Vol": 85680
  },
  {
    "Date": "2019-10-17",
    "Price": 0.006807,
    "Open": 0.006563,
    "High": 0.006811,
    "Low": 0.006499,
    "Vol": 115310
  },
  {
    "Date": "2019-10-16",
    "Price": 0.006562,
    "Open": 0.006688,
    "High": 0.006768,
    "Low": 0.006431,
    "Vol": 158620
  },
  {
    "Date": "2019-10-15",
    "Price": 0.006688,
    "Open": 0.006805,
    "High": 0.006849,
    "Low": 0.006501,
    "Vol": 183960
  },
  {
    "Date": "2019-10-14",
    "Price": 0.006808,
    "Open": 0.00682,
    "High": 0.006872,
    "Low": 0.006782,
    "Vol": 78370
  },
  {
    "Date": "2019-10-13",
    "Price": 0.006824,
    "Open": 0.00671,
    "High": 0.006862,
    "Low": 0.006702,
    "Vol": 70940
  },
  {
    "Date": "2019-10-12",
    "Price": 0.006714,
    "Open": 0.006767,
    "High": 0.006767,
    "Low": 0.006664,
    "Vol": 57850
  },
  {
    "Date": "2019-10-11",
    "Price": 0.006756,
    "Open": 0.006711,
    "High": 0.006763,
    "Low": 0.006582,
    "Vol": 100270
  },
  {
    "Date": "2019-10-10",
    "Price": 0.006718,
    "Open": 0.006904,
    "High": 0.006913,
    "Low": 0.006682,
    "Vol": 96280
  },
  {
    "Date": "2019-10-09",
    "Price": 0.006908,
    "Open": 0.006969,
    "High": 0.00709,
    "Low": 0.006827,
    "Vol": 175400
  },
  {
    "Date": "2019-10-08",
    "Price": 0.006971,
    "Open": 0.007015,
    "High": 0.00704,
    "Low": 0.006925,
    "Vol": 86370
  },
  {
    "Date": "2019-10-07",
    "Price": 0.007016,
    "Open": 0.006927,
    "High": 0.007101,
    "Low": 0.006879,
    "Vol": 154030
  },
  {
    "Date": "2019-10-06",
    "Price": 0.006926,
    "Open": 0.006975,
    "High": 0.00705,
    "Low": 0.006796,
    "Vol": 136800
  },
  {
    "Date": "2019-10-05",
    "Price": 0.006975,
    "Open": 0.006921,
    "High": 0.00709,
    "Low": 0.006899,
    "Vol": 110000
  },
  {
    "Date": "2019-10-04",
    "Price": 0.006917,
    "Open": 0.006859,
    "High": 0.00703,
    "Low": 0.006859,
    "Vol": 121160
  },
  {
    "Date": "2019-10-03",
    "Price": 0.006854,
    "Open": 0.006728,
    "High": 0.006935,
    "Low": 0.006667,
    "Vol": 144800
  },
  {
    "Date": "2019-10-02",
    "Price": 0.006733,
    "Open": 0.006702,
    "High": 0.006858,
    "Low": 0.006702,
    "Vol": 89960
  },
  {
    "Date": "2019-10-01",
    "Price": 0.006701,
    "Open": 0.006761,
    "High": 0.006868,
    "Low": 0.006616,
    "Vol": 137000
  },
  {
    "Date": "2019-09-30",
    "Price": 0.006756,
    "Open": 0.006696,
    "High": 0.006918,
    "Low": 0.006681,
    "Vol": 164480
  },
  {
    "Date": "2019-09-29",
    "Price": 0.006694,
    "Open": 0.006753,
    "High": 0.00677,
    "Low": 0.006597,
    "Vol": 101200
  },
  {
    "Date": "2019-09-28",
    "Price": 0.006748,
    "Open": 0.006831,
    "High": 0.006848,
    "Low": 0.006702,
    "Vol": 111490
  },
  {
    "Date": "2019-09-27",
    "Price": 0.006832,
    "Open": 0.006843,
    "High": 0.006915,
    "Low": 0.006707,
    "Vol": 159230
  },
  {
    "Date": "2019-09-26",
    "Price": 0.006846,
    "Open": 0.006814,
    "High": 0.006869,
    "Low": 0.006506,
    "Vol": 228500
  },
  {
    "Date": "2019-09-25",
    "Price": 0.006811,
    "Open": 0.006429,
    "High": 0.00694,
    "Low": 0.006411,
    "Vol": 342850
  },
  {
    "Date": "2019-09-24",
    "Price": 0.006417,
    "Open": 0.006857,
    "High": 0.007098,
    "Low": 0.006417,
    "Vol": 396350
  },
  {
    "Date": "2019-09-23",
    "Price": 0.006849,
    "Open": 0.007209,
    "High": 0.007439,
    "Low": 0.006412,
    "Vol": 262920
  },
  {
    "Date": "2019-09-22",
    "Price": 0.007202,
    "Open": 0.007326,
    "High": 0.007329,
    "Low": 0.007154,
    "Vol": 85510
  },
  {
    "Date": "2019-09-21",
    "Price": 0.007329,
    "Open": 0.00739,
    "High": 0.007431,
    "Low": 0.007273,
    "Vol": 80450
  },
  {
    "Date": "2019-09-20",
    "Price": 0.00738,
    "Open": 0.007465,
    "High": 0.007489,
    "Low": 0.007251,
    "Vol": 131920
  },
  {
    "Date": "2019-09-19",
    "Price": 0.007479,
    "Open": 0.007659,
    "High": 0.007696,
    "Low": 0.007331,
    "Vol": 232160
  },
  {
    "Date": "2019-09-18",
    "Price": 0.007655,
    "Open": 0.007268,
    "High": 0.007873,
    "Low": 0.007268,
    "Vol": 259820
  },
  {
    "Date": "2019-09-17",
    "Price": 0.007267,
    "Open": 0.007083,
    "High": 0.007517,
    "Low": 0.007062,
    "Vol": 177500
  },
  {
    "Date": "2019-09-16",
    "Price": 0.00709,
    "Open": 0.006798,
    "High": 0.00715,
    "Low": 0.006798,
    "Vol": 122670
  },
  {
    "Date": "2019-09-15",
    "Price": 0.006798,
    "Open": 0.006824,
    "High": 0.00689,
    "Low": 0.006759,
    "Vol": 58250
  },
  {
    "Date": "2019-09-14",
    "Price": 0.006824,
    "Open": 0.006666,
    "High": 0.006853,
    "Low": 0.006626,
    "Vol": 64790
  },
  {
    "Date": "2019-09-13",
    "Price": 0.006662,
    "Open": 0.006638,
    "High": 0.00674,
    "Low": 0.006604,
    "Vol": 60890
  },
  {
    "Date": "2019-09-12",
    "Price": 0.006642,
    "Open": 0.006866,
    "High": 0.006871,
    "Low": 0.006629,
    "Vol": 76150
  },
  {
    "Date": "2019-09-11",
    "Price": 0.006866,
    "Open": 0.007014,
    "High": 0.007078,
    "Low": 0.006798,
    "Vol": 88940
  },
  {
    "Date": "2019-09-10",
    "Price": 0.007014,
    "Open": 0.006783,
    "High": 0.007078,
    "Low": 0.006783,
    "Vol": 153010
  },
  {
    "Date": "2019-09-09",
    "Price": 0.006782,
    "Open": 0.006772,
    "High": 0.006894,
    "Low": 0.006646,
    "Vol": 98760
  },
  {
    "Date": "2019-09-08",
    "Price": 0.006773,
    "Open": 0.006577,
    "High": 0.006818,
    "Low": 0.006554,
    "Vol": 122870
  },
  {
    "Date": "2019-09-07",
    "Price": 0.006577,
    "Open": 0.006301,
    "High": 0.006698,
    "Low": 0.006249,
    "Vol": 141620
  },
  {
    "Date": "2019-09-06",
    "Price": 0.006298,
    "Open": 0.006174,
    "High": 0.006328,
    "Low": 0.006148,
    "Vol": 126170
  },
  {
    "Date": "2019-09-05",
    "Price": 0.006174,
    "Open": 0.00634,
    "High": 0.006371,
    "Low": 0.006094,
    "Vol": 102470
  },
  {
    "Date": "2019-09-04",
    "Price": 0.006337,
    "Open": 0.0065,
    "High": 0.006542,
    "Low": 0.006294,
    "Vol": 93880
  },
  {
    "Date": "2019-09-03",
    "Price": 0.006504,
    "Open": 0.006471,
    "High": 0.006723,
    "Low": 0.006425,
    "Vol": 125910
  },
  {
    "Date": "2019-09-02",
    "Price": 0.00647,
    "Open": 0.006764,
    "High": 0.006797,
    "Low": 0.006431,
    "Vol": 100650
  },
  {
    "Date": "2019-09-01",
    "Price": 0.00677,
    "Open": 0.006695,
    "High": 0.006949,
    "Low": 0.006695,
    "Vol": 81630
  },
  {
    "Date": "2019-08-31",
    "Price": 0.006701,
    "Open": 0.006702,
    "High": 0.006764,
    "Low": 0.006568,
    "Vol": 80380
  },
  {
    "Date": "2019-08-30",
    "Price": 0.006702,
    "Open": 0.006698,
    "High": 0.006794,
    "Low": 0.006599,
    "Vol": 93210
  },
  {
    "Date": "2019-08-29",
    "Price": 0.006697,
    "Open": 0.006858,
    "High": 0.006959,
    "Low": 0.00664,
    "Vol": 140230
  },
  {
    "Date": "2019-08-28",
    "Price": 0.00686,
    "Open": 0.007149,
    "High": 0.007162,
    "Low": 0.006531,
    "Vol": 189480
  },
  {
    "Date": "2019-08-27",
    "Price": 0.007163,
    "Open": 0.007082,
    "High": 0.007223,
    "Low": 0.007055,
    "Vol": 63060
  },
  {
    "Date": "2019-08-26",
    "Price": 0.00709,
    "Open": 0.007112,
    "High": 0.00725,
    "Low": 0.007033,
    "Vol": 100100
  },
  {
    "Date": "2019-08-25",
    "Price": 0.007113,
    "Open": 0.00724,
    "High": 0.007375,
    "Low": 0.007062,
    "Vol": 92800
  },
  {
    "Date": "2019-08-24",
    "Price": 0.007236,
    "Open": 0.007256,
    "High": 0.007291,
    "Low": 0.007156,
    "Vol": 74440
  },
  {
    "Date": "2019-08-23",
    "Price": 0.00726,
    "Open": 0.007267,
    "High": 0.007304,
    "Low": 0.00711,
    "Vol": 74460
  },
  {
    "Date": "2019-08-22",
    "Price": 0.007268,
    "Open": 0.007223,
    "High": 0.007401,
    "Low": 0.007177,
    "Vol": 111010
  },
  {
    "Date": "2019-08-21",
    "Price": 0.007216,
    "Open": 0.006984,
    "High": 0.00731,
    "Low": 0.006958,
    "Vol": 135250
  },
  {
    "Date": "2019-08-20",
    "Price": 0.006987,
    "Open": 0.007056,
    "High": 0.007101,
    "Low": 0.006919,
    "Vol": 92780
  },
  {
    "Date": "2019-08-19",
    "Price": 0.007067,
    "Open": 0.007404,
    "High": 0.007413,
    "Low": 0.007057,
    "Vol": 109310
  },
  {
    "Date": "2019-08-18",
    "Price": 0.007402,
    "Open": 0.00711,
    "High": 0.007528,
    "Low": 0.00707,
    "Vol": 151250
  },
  {
    "Date": "2019-08-17",
    "Price": 0.007111,
    "Open": 0.007225,
    "High": 0.007257,
    "Low": 0.007029,
    "Vol": 166240
  },
  {
    "Date": "2019-08-16",
    "Price": 0.007222,
    "Open": 0.007413,
    "High": 0.007541,
    "Low": 0.007155,
    "Vol": 141820
  },
  {
    "Date": "2019-08-15",
    "Price": 0.007405,
    "Open": 0.007536,
    "High": 0.007658,
    "Low": 0.007328,
    "Vol": 129500
  },
  {
    "Date": "2019-08-14",
    "Price": 0.007553,
    "Open": 0.007785,
    "High": 0.008115,
    "Low": 0.007352,
    "Vol": 292330
  },
  {
    "Date": "2019-08-13",
    "Price": 0.007782,
    "Open": 0.00753,
    "High": 0.007938,
    "Low": 0.007408,
    "Vol": 159600
  },
  {
    "Date": "2019-08-12",
    "Price": 0.007529,
    "Open": 0.007806,
    "High": 0.007806,
    "Low": 0.007492,
    "Vol": 119470
  },
  {
    "Date": "2019-08-11",
    "Price": 0.007783,
    "Open": 0.007555,
    "High": 0.008027,
    "Low": 0.007555,
    "Vol": 168460
  },
  {
    "Date": "2019-08-10",
    "Price": 0.007558,
    "Open": 0.007098,
    "High": 0.0077,
    "Low": 0.007089,
    "Vol": 222190
  },
  {
    "Date": "2019-08-09",
    "Price": 0.007095,
    "Open": 0.007506,
    "High": 0.007564,
    "Low": 0.007033,
    "Vol": 149350
  },
  {
    "Date": "2019-08-08",
    "Price": 0.007503,
    "Open": 0.007562,
    "High": 0.00784,
    "Low": 0.007497,
    "Vol": 149120
  },
  {
    "Date": "2019-08-07",
    "Price": 0.007567,
    "Open": 0.008097,
    "High": 0.008108,
    "Low": 0.007511,
    "Vol": 183540
  },
  {
    "Date": "2019-08-06",
    "Price": 0.008103,
    "Open": 0.008155,
    "High": 0.008202,
    "Low": 0.007818,
    "Vol": 274570
  },
  {
    "Date": "2019-08-05",
    "Price": 0.008167,
    "Open": 0.00848,
    "High": 0.009031,
    "Low": 0.008002,
    "Vol": 453830
  },
  {
    "Date": "2019-08-04",
    "Price": 0.008479,
    "Open": 0.008705,
    "High": 0.008787,
    "Low": 0.008428,
    "Vol": 151330
  },
  {
    "Date": "2019-08-03",
    "Price": 0.008711,
    "Open": 0.009008,
    "High": 0.009043,
    "Low": 0.008667,
    "Vol": 125810
  },
  {
    "Date": "2019-08-02",
    "Price": 0.009008,
    "Open": 0.009503,
    "High": 0.009503,
    "Low": 0.008898,
    "Vol": 195530
  },
  {
    "Date": "2019-08-01",
    "Price": 0.009507,
    "Open": 0.0098,
    "High": 0.009854,
    "Low": 0.009452,
    "Vol": 190420
  },
  {
    "Date": "2019-07-31",
    "Price": 0.009799,
    "Open": 0.009414,
    "High": 0.00995,
    "Low": 0.009388,
    "Vol": 230610
  },
  {
    "Date": "2019-07-30",
    "Price": 0.009414,
    "Open": 0.009503,
    "High": 0.009544,
    "Low": 0.009387,
    "Vol": 93730
  },
  {
    "Date": "2019-07-29",
    "Price": 0.0095,
    "Open": 0.009438,
    "High": 0.009595,
    "Low": 0.009311,
    "Vol": 118350
  },
  {
    "Date": "2019-07-28",
    "Price": 0.009416,
    "Open": 0.009375,
    "High": 0.009508,
    "Low": 0.009168,
    "Vol": 118660
  },
  {
    "Date": "2019-07-27",
    "Price": 0.009369,
    "Open": 0.009565,
    "High": 0.009591,
    "Low": 0.009213,
    "Vol": 151600
  },
  {
    "Date": "2019-07-26",
    "Price": 0.00957,
    "Open": 0.009439,
    "High": 0.009613,
    "Low": 0.009332,
    "Vol": 103250
  },
  {
    "Date": "2019-07-25",
    "Price": 0.009438,
    "Open": 0.009666,
    "High": 0.009671,
    "Low": 0.00924,
    "Vol": 129170
  },
  {
    "Date": "2019-07-24",
    "Price": 0.009674,
    "Open": 0.009118,
    "High": 0.009792,
    "Low": 0.00899,
    "Vol": 189500
  },
  {
    "Date": "2019-07-23",
    "Price": 0.00915,
    "Open": 0.009214,
    "High": 0.009235,
    "Low": 0.008966,
    "Vol": 156580
  },
  {
    "Date": "2019-07-22",
    "Price": 0.009215,
    "Open": 0.009419,
    "High": 0.009451,
    "Low": 0.008914,
    "Vol": 182550
  },
  {
    "Date": "2019-07-21",
    "Price": 0.009411,
    "Open": 0.009335,
    "High": 0.009473,
    "Low": 0.009186,
    "Vol": 116820
  },
  {
    "Date": "2019-07-20",
    "Price": 0.009337,
    "Open": 0.009358,
    "High": 0.009775,
    "Low": 0.009322,
    "Vol": 170060
  },
  {
    "Date": "2019-07-19",
    "Price": 0.00936,
    "Open": 0.009494,
    "High": 0.009562,
    "Low": 0.00917,
    "Vol": 250940
  },
  {
    "Date": "2019-07-18",
    "Price": 0.009515,
    "Open": 0.009306,
    "High": 0.00985,
    "Low": 0.009094,
    "Vol": 429680
  },
  {
    "Date": "2019-07-17",
    "Price": 0.009314,
    "Open": 0.008441,
    "High": 0.009585,
    "Low": 0.008332,
    "Vol": 444690
  },
  {
    "Date": "2019-07-16",
    "Price": 0.00843,
    "Open": 0.008342,
    "High": 0.008493,
    "Low": 0.007986,
    "Vol": 269960
  },
  {
    "Date": "2019-07-15",
    "Price": 0.008344,
    "Open": 0.008812,
    "High": 0.008812,
    "Low": 0.008272,
    "Vol": 324490
  },
  {
    "Date": "2019-07-14",
    "Price": 0.008801,
    "Open": 0.008895,
    "High": 0.008997,
    "Low": 0.008477,
    "Vol": 307760
  },
  {
    "Date": "2019-07-13",
    "Price": 0.008897,
    "Open": 0.00891,
    "High": 0.0091,
    "Low": 0.008808,
    "Vol": 189420
  },
  {
    "Date": "2019-07-12",
    "Price": 0.008909,
    "Open": 0.009072,
    "High": 0.009188,
    "Low": 0.008798,
    "Vol": 220980
  },
  {
    "Date": "2019-07-11",
    "Price": 0.009083,
    "Open": 0.008946,
    "High": 0.009189,
    "Low": 0.008483,
    "Vol": 441670
  },
  {
    "Date": "2019-07-10",
    "Price": 0.008948,
    "Open": 0.009502,
    "High": 0.009514,
    "Low": 0.008214,
    "Vol": 460090
  },
  {
    "Date": "2019-07-09",
    "Price": 0.009497,
    "Open": 0.010023,
    "High": 0.010049,
    "Low": 0.009447,
    "Vol": 209990
  },
  {
    "Date": "2019-07-08",
    "Price": 0.010035,
    "Open": 0.010474,
    "High": 0.010488,
    "Low": 0.009814,
    "Vol": 190760
  },
  {
    "Date": "2019-07-07",
    "Price": 0.01047,
    "Open": 0.010533,
    "High": 0.010614,
    "Low": 0.010338,
    "Vol": 98550
  },
  {
    "Date": "2019-07-06",
    "Price": 0.010504,
    "Open": 0.010773,
    "High": 0.010773,
    "Low": 0.010333,
    "Vol": 121730
  },
  {
    "Date": "2019-07-05",
    "Price": 0.010791,
    "Open": 0.010715,
    "High": 0.01095,
    "Low": 0.010472,
    "Vol": 221220
  },
  {
    "Date": "2019-07-04",
    "Price": 0.01072,
    "Open": 0.010145,
    "High": 0.01078,
    "Low": 0.010026,
    "Vol": 272890
  },
  {
    "Date": "2019-07-03",
    "Price": 0.010172,
    "Open": 0.010927,
    "High": 0.01095,
    "Low": 0.010102,
    "Vol": 245730
  },
  {
    "Date": "2019-07-02",
    "Price": 0.010952,
    "Open": 0.011594,
    "High": 0.011773,
    "Low": 0.01075,
    "Vol": 305580
  },
  {
    "Date": "2019-07-01",
    "Price": 0.011593,
    "Open": 0.011365,
    "High": 0.011764,
    "Low": 0.01108,
    "Vol": 425230
  },
  {
    "Date": "2019-06-30",
    "Price": 0.011352,
    "Open": 0.011249,
    "High": 0.012134,
    "Low": 0.010842,
    "Vol": 640180
  },
  {
    "Date": "2019-06-29",
    "Price": 0.01124,
    "Open": 0.009669,
    "High": 0.011546,
    "Low": 0.009629,
    "Vol": 631950
  },
  {
    "Date": "2019-06-28",
    "Price": 0.009661,
    "Open": 0.010247,
    "High": 0.010469,
    "Low": 0.009638,
    "Vol": 362050
  },
  {
    "Date": "2019-06-27",
    "Price": 0.010237,
    "Open": 0.010094,
    "High": 0.010805,
    "Low": 0.009417,
    "Vol": 658500
  },
  {
    "Date": "2019-06-26",
    "Price": 0.010086,
    "Open": 0.011538,
    "High": 0.011553,
    "Low": 0.009753,
    "Vol": 567890
  },
  {
    "Date": "2019-06-25",
    "Price": 0.011527,
    "Open": 0.012279,
    "High": 0.01237,
    "Low": 0.011457,
    "Vol": 261860
  },
  {
    "Date": "2019-06-24",
    "Price": 0.012277,
    "Open": 0.012616,
    "High": 0.012725,
    "Low": 0.012086,
    "Vol": 167620
  },
  {
    "Date": "2019-06-23",
    "Price": 0.012607,
    "Open": 0.013254,
    "High": 0.013261,
    "Low": 0.012392,
    "Vol": 230570
  },
  {
    "Date": "2019-06-22",
    "Price": 0.013261,
    "Open": 0.013604,
    "High": 0.013778,
    "Low": 0.012614,
    "Vol": 459690
  },
  {
    "Date": "2019-06-21",
    "Price": 0.013604,
    "Open": 0.014241,
    "High": 0.014416,
    "Low": 0.013604,
    "Vol": 231860
  },
  {
    "Date": "2019-06-20",
    "Price": 0.014231,
    "Open": 0.014727,
    "High": 0.01475,
    "Low": 0.014001,
    "Vol": 232080
  },
  {
    "Date": "2019-06-19",
    "Price": 0.014738,
    "Open": 0.014893,
    "High": 0.01526,
    "Low": 0.01462,
    "Vol": 381830
  },
  {
    "Date": "2019-06-18",
    "Price": 0.014884,
    "Open": 0.014358,
    "High": 0.015088,
    "Low": 0.014232,
    "Vol": 274260
  },
  {
    "Date": "2019-06-17",
    "Price": 0.014367,
    "Open": 0.015239,
    "High": 0.015239,
    "Low": 0.014241,
    "Vol": 228420
  },
  {
    "Date": "2019-06-16",
    "Price": 0.01523,
    "Open": 0.015603,
    "High": 0.015603,
    "Low": 0.01455,
    "Vol": 300500
  },
  {
    "Date": "2019-06-15",
    "Price": 0.015611,
    "Open": 0.015266,
    "High": 0.01587,
    "Low": 0.015266,
    "Vol": 303530
  },
  {
    "Date": "2019-06-14",
    "Price": 0.015275,
    "Open": 0.015897,
    "High": 0.016,
    "Low": 0.01497,
    "Vol": 374320
  },
  {
    "Date": "2019-06-13",
    "Price": 0.015889,
    "Open": 0.016652,
    "High": 0.016757,
    "Low": 0.015592,
    "Vol": 411540
  },
  {
    "Date": "2019-06-12",
    "Price": 0.016649,
    "Open": 0.017215,
    "High": 0.01775,
    "Low": 0.016186,
    "Vol": 650600
  },
  {
    "Date": "2019-06-11",
    "Price": 0.01721,
    "Open": 0.01621,
    "High": 0.017526,
    "Low": 0.015962,
    "Vol": 504970
  },
  {
    "Date": "2019-06-10",
    "Price": 0.0162,
    "Open": 0.015022,
    "High": 0.016302,
    "Low": 0.014963,
    "Vol": 430180
  },
  {
    "Date": "2019-06-09",
    "Price": 0.01503,
    "Open": 0.014945,
    "High": 0.01504,
    "Low": 0.014678,
    "Vol": 210900
  },
  {
    "Date": "2019-06-08",
    "Price": 0.014951,
    "Open": 0.014626,
    "High": 0.015192,
    "Low": 0.014463,
    "Vol": 245590
  },
  {
    "Date": "2019-06-07",
    "Price": 0.014664,
    "Open": 0.014283,
    "High": 0.014927,
    "Low": 0.014112,
    "Vol": 363780
  },
  {
    "Date": "2019-06-06",
    "Price": 0.014275,
    "Open": 0.013323,
    "High": 0.014476,
    "Low": 0.01326,
    "Vol": 266580
  },
  {
    "Date": "2019-06-05",
    "Price": 0.013331,
    "Open": 0.013298,
    "High": 0.013416,
    "Low": 0.01309,
    "Vol": 162310
  },
  {
    "Date": "2019-06-04",
    "Price": 0.013284,
    "Open": 0.013036,
    "High": 0.013306,
    "Low": 0.01285,
    "Vol": 244760
  },
  {
    "Date": "2019-06-03",
    "Price": 0.013054,
    "Open": 0.01311,
    "High": 0.013375,
    "Low": 0.012829,
    "Vol": 221840
  },
  {
    "Date": "2019-06-02",
    "Price": 0.01311,
    "Open": 0.01313,
    "High": 0.013298,
    "Low": 0.01304,
    "Vol": 119220
  },
  {
    "Date": "2019-06-01",
    "Price": 0.013159,
    "Open": 0.013395,
    "High": 0.013546,
    "Low": 0.013077,
    "Vol": 179360
  },
  {
    "Date": "2019-05-31",
    "Price": 0.013385,
    "Open": 0.01299,
    "High": 0.013399,
    "Low": 0.012757,
    "Vol": 280020
  },
  {
    "Date": "2019-05-30",
    "Price": 0.013039,
    "Open": 0.013304,
    "High": 0.013546,
    "Low": 0.012703,
    "Vol": 439700
  },
  {
    "Date": "2019-05-29",
    "Price": 0.013312,
    "Open": 0.013174,
    "High": 0.013541,
    "Low": 0.012884,
    "Vol": 235900
  },
  {
    "Date": "2019-05-28",
    "Price": 0.01317,
    "Open": 0.013306,
    "High": 0.013441,
    "Low": 0.012969,
    "Vol": 247730
  },
  {
    "Date": "2019-05-27",
    "Price": 0.013298,
    "Open": 0.012892,
    "High": 0.013671,
    "Low": 0.012689,
    "Vol": 521160
  },
  {
    "Date": "2019-05-26",
    "Price": 0.012891,
    "Open": 0.012795,
    "High": 0.013332,
    "Low": 0.012232,
    "Vol": 406100
  },
  {
    "Date": "2019-05-25",
    "Price": 0.012791,
    "Open": 0.012632,
    "High": 0.0131,
    "Low": 0.012422,
    "Vol": 311630
  },
  {
    "Date": "2019-05-24",
    "Price": 0.012608,
    "Open": 0.011288,
    "High": 0.012838,
    "Low": 0.011278,
    "Vol": 489840
  },
  {
    "Date": "2019-05-23",
    "Price": 0.011286,
    "Open": 0.011499,
    "High": 0.011534,
    "Low": 0.011196,
    "Vol": 149640
  },
  {
    "Date": "2019-05-22",
    "Price": 0.011505,
    "Open": 0.011478,
    "High": 0.011694,
    "Low": 0.01104,
    "Vol": 211470
  },
  {
    "Date": "2019-05-21",
    "Price": 0.011481,
    "Open": 0.011468,
    "High": 0.011681,
    "Low": 0.011305,
    "Vol": 155560
  },
  {
    "Date": "2019-05-20",
    "Price": 0.011478,
    "Open": 0.011582,
    "High": 0.01166,
    "Low": 0.011368,
    "Vol": 196850
  },
  {
    "Date": "2019-05-19",
    "Price": 0.011597,
    "Open": 0.011932,
    "High": 0.012009,
    "Low": 0.01159,
    "Vol": 203650
  },
  {
    "Date": "2019-05-18",
    "Price": 0.011922,
    "Open": 0.012201,
    "High": 0.012201,
    "Low": 0.011786,
    "Vol": 160340
  },
  {
    "Date": "2019-05-17",
    "Price": 0.012186,
    "Open": 0.012131,
    "High": 0.01242,
    "Low": 0.011764,
    "Vol": 471770
  },
  {
    "Date": "2019-05-16",
    "Price": 0.01213,
    "Open": 0.012484,
    "High": 0.012901,
    "Low": 0.011541,
    "Vol": 557870
  },
  {
    "Date": "2019-05-15",
    "Price": 0.012491,
    "Open": 0.01147,
    "High": 0.012927,
    "Low": 0.01135,
    "Vol": 414170
  },
  {
    "Date": "2019-05-14",
    "Price": 0.011459,
    "Open": 0.011213,
    "High": 0.011689,
    "Low": 0.011068,
    "Vol": 382990
  },
  {
    "Date": "2019-05-13",
    "Price": 0.011228,
    "Open": 0.012162,
    "High": 0.012372,
    "Low": 0.011136,
    "Vol": 343430
  },
  {
    "Date": "2019-05-12",
    "Price": 0.012158,
    "Open": 0.012182,
    "High": 0.012636,
    "Low": 0.012025,
    "Vol": 386970
  },
  {
    "Date": "2019-05-11",
    "Price": 0.012241,
    "Open": 0.012105,
    "High": 0.013239,
    "Low": 0.011466,
    "Vol": 519210
  },
  {
    "Date": "2019-05-10",
    "Price": 0.012092,
    "Open": 0.011951,
    "High": 0.012436,
    "Low": 0.011567,
    "Vol": 184590
  },
  {
    "Date": "2019-05-09",
    "Price": 0.011951,
    "Open": 0.012428,
    "High": 0.012438,
    "Low": 0.011851,
    "Vol": 106980
  },
  {
    "Date": "2019-05-08",
    "Price": 0.012434,
    "Open": 0.012764,
    "High": 0.012764,
    "Low": 0.012388,
    "Vol": 117490
  },
  {
    "Date": "2019-05-07",
    "Price": 0.01275,
    "Open": 0.013058,
    "High": 0.01352,
    "Low": 0.012554,
    "Vol": 179640
  },
  {
    "Date": "2019-05-06",
    "Price": 0.013035,
    "Open": 0.013118,
    "High": 0.013306,
    "Low": 0.012672,
    "Vol": 182410
  },
  {
    "Date": "2019-05-05",
    "Price": 0.013093,
    "Open": 0.013336,
    "High": 0.013423,
    "Low": 0.013085,
    "Vol": 82830
  },
  {
    "Date": "2019-05-04",
    "Price": 0.013339,
    "Open": 0.013742,
    "High": 0.014097,
    "Low": 0.013205,
    "Vol": 240960
  },
  {
    "Date": "2019-05-03",
    "Price": 0.013733,
    "Open": 0.013406,
    "High": 0.013939,
    "Low": 0.012845,
    "Vol": 263470
  },
  {
    "Date": "2019-05-02",
    "Price": 0.013407,
    "Open": 0.01363,
    "High": 0.013725,
    "Low": 0.013257,
    "Vol": 114940
  },
  {
    "Date": "2019-05-01",
    "Price": 0.013626,
    "Open": 0.013963,
    "High": 0.01407,
    "Low": 0.013462,
    "Vol": 137810
  },
  {
    "Date": "2019-04-30",
    "Price": 0.013939,
    "Open": 0.012956,
    "High": 0.01399,
    "Low": 0.012956,
    "Vol": 205490
  },
  {
    "Date": "2019-04-29",
    "Price": 0.012925,
    "Open": 0.01314,
    "High": 0.013209,
    "Low": 0.012757,
    "Vol": 119190
  },
  {
    "Date": "2019-04-28",
    "Price": 0.013164,
    "Open": 0.013652,
    "High": 0.013662,
    "Low": 0.013076,
    "Vol": 117070
  },
  {
    "Date": "2019-04-27",
    "Price": 0.013639,
    "Open": 0.013892,
    "High": 0.013906,
    "Low": 0.013564,
    "Vol": 55280
  },
  {
    "Date": "2019-04-26",
    "Price": 0.013897,
    "Open": 0.013776,
    "High": 0.013962,
    "Low": 0.013619,
    "Vol": 168580
  },
  {
    "Date": "2019-04-25",
    "Price": 0.013757,
    "Open": 0.013476,
    "High": 0.013919,
    "Low": 0.013374,
    "Vol": 179920
  },
  {
    "Date": "2019-04-24",
    "Price": 0.013465,
    "Open": 0.013416,
    "High": 0.013519,
    "Low": 0.012974,
    "Vol": 270460
  },
  {
    "Date": "2019-04-23",
    "Price": 0.01338,
    "Open": 0.014263,
    "High": 0.014321,
    "Low": 0.01336,
    "Vol": 193410
  },
  {
    "Date": "2019-04-22",
    "Price": 0.014256,
    "Open": 0.014581,
    "High": 0.014657,
    "Low": 0.014208,
    "Vol": 135590
  },
  {
    "Date": "2019-04-21",
    "Price": 0.014575,
    "Open": 0.015336,
    "High": 0.015404,
    "Low": 0.014104,
    "Vol": 224160
  },
  {
    "Date": "2019-04-20",
    "Price": 0.015338,
    "Open": 0.015605,
    "High": 0.015659,
    "Low": 0.015159,
    "Vol": 103710
  },
  {
    "Date": "2019-04-19",
    "Price": 0.015603,
    "Open": 0.01554,
    "High": 0.015774,
    "Low": 0.015366,
    "Vol": 141510
  },
  {
    "Date": "2019-04-18",
    "Price": 0.015533,
    "Open": 0.01514,
    "High": 0.015836,
    "Low": 0.01514,
    "Vol": 139900
  },
  {
    "Date": "2019-04-17",
    "Price": 0.015142,
    "Open": 0.015517,
    "High": 0.015586,
    "Low": 0.015129,
    "Vol": 91540
  },
  {
    "Date": "2019-04-16",
    "Price": 0.015522,
    "Open": 0.015536,
    "High": 0.015739,
    "Low": 0.015375,
    "Vol": 113390
  },
  {
    "Date": "2019-04-15",
    "Price": 0.015551,
    "Open": 0.016232,
    "High": 0.016365,
    "Low": 0.015071,
    "Vol": 180810
  },
  {
    "Date": "2019-04-14",
    "Price": 0.016237,
    "Open": 0.015376,
    "High": 0.016237,
    "Low": 0.015185,
    "Vol": 114430
  },
  {
    "Date": "2019-04-13",
    "Price": 0.015389,
    "Open": 0.015529,
    "High": 0.015921,
    "Low": 0.015086,
    "Vol": 97320
  },
  {
    "Date": "2019-04-12",
    "Price": 0.015539,
    "Open": 0.01573,
    "High": 0.015864,
    "Low": 0.01531,
    "Vol": 126680
  },
  {
    "Date": "2019-04-11",
    "Price": 0.015738,
    "Open": 0.016617,
    "High": 0.016617,
    "Low": 0.01505,
    "Vol": 265860
  },
  {
    "Date": "2019-04-10",
    "Price": 0.016608,
    "Open": 0.016744,
    "High": 0.01699,
    "Low": 0.016484,
    "Vol": 124880
  },
  {
    "Date": "2019-04-09",
    "Price": 0.016746,
    "Open": 0.016909,
    "High": 0.017196,
    "Low": 0.016279,
    "Vol": 155180
  },
  {
    "Date": "2019-04-08",
    "Price": 0.016903,
    "Open": 0.017695,
    "High": 0.017836,
    "Low": 0.01673,
    "Vol": 216050
  },
  {
    "Date": "2019-04-07",
    "Price": 0.017697,
    "Open": 0.018261,
    "High": 0.018558,
    "Low": 0.017529,
    "Vol": 186780
  },
  {
    "Date": "2019-04-06",
    "Price": 0.018293,
    "Open": 0.017615,
    "High": 0.01887,
    "Low": 0.017206,
    "Vol": 281300
  },
  {
    "Date": "2019-04-05",
    "Price": 0.017627,
    "Open": 0.017277,
    "High": 0.017881,
    "Low": 0.017213,
    "Vol": 210860
  },
  {
    "Date": "2019-04-04",
    "Price": 0.017295,
    "Open": 0.017184,
    "High": 0.01781,
    "Low": 0.01674,
    "Vol": 406250
  },
  {
    "Date": "2019-04-03",
    "Price": 0.01725,
    "Open": 0.015805,
    "High": 0.018896,
    "Low": 0.015655,
    "Vol": 942080
  },
  {
    "Date": "2019-04-02",
    "Price": 0.015797,
    "Open": 0.014583,
    "High": 0.016,
    "Low": 0.013437,
    "Vol": 533550
  },
  {
    "Date": "2019-04-01",
    "Price": 0.014584,
    "Open": 0.014738,
    "High": 0.014773,
    "Low": 0.014524,
    "Vol": 94390
  },
  {
    "Date": "2019-03-31",
    "Price": 0.01475,
    "Open": 0.014724,
    "High": 0.014784,
    "Low": 0.014633,
    "Vol": 84450
  },
  {
    "Date": "2019-03-30",
    "Price": 0.01472,
    "Open": 0.014966,
    "High": 0.014966,
    "Low": 0.01471,
    "Vol": 90060
  },
  {
    "Date": "2019-03-29",
    "Price": 0.014966,
    "Open": 0.015019,
    "High": 0.015107,
    "Low": 0.01483,
    "Vol": 116960
  },
  {
    "Date": "2019-03-28",
    "Price": 0.015022,
    "Open": 0.01519,
    "High": 0.01521,
    "Low": 0.014986,
    "Vol": 102250
  },
  {
    "Date": "2019-03-27",
    "Price": 0.01522,
    "Open": 0.014894,
    "High": 0.015265,
    "Low": 0.014881,
    "Vol": 166790
  },
  {
    "Date": "2019-03-26",
    "Price": 0.014884,
    "Open": 0.01501,
    "High": 0.015036,
    "Low": 0.014734,
    "Vol": 123660
  },
  {
    "Date": "2019-03-25",
    "Price": 0.014996,
    "Open": 0.014989,
    "High": 0.015168,
    "Low": 0.014736,
    "Vol": 141370
  },
  {
    "Date": "2019-03-24",
    "Price": 0.014987,
    "Open": 0.015189,
    "High": 0.0152,
    "Low": 0.014834,
    "Vol": 144490
  },
  {
    "Date": "2019-03-23",
    "Price": 0.015204,
    "Open": 0.014857,
    "High": 0.015331,
    "Low": 0.014803,
    "Vol": 166310
  },
  {
    "Date": "2019-03-22",
    "Price": 0.014865,
    "Open": 0.014707,
    "High": 0.014895,
    "Low": 0.014602,
    "Vol": 128790
  },
  {
    "Date": "2019-03-21",
    "Price": 0.014707,
    "Open": 0.014933,
    "High": 0.014963,
    "Low": 0.01456,
    "Vol": 137450
  },
  {
    "Date": "2019-03-20",
    "Price": 0.014906,
    "Open": 0.014819,
    "High": 0.015014,
    "Low": 0.014397,
    "Vol": 160250
  },
  {
    "Date": "2019-03-19",
    "Price": 0.014826,
    "Open": 0.014841,
    "High": 0.014968,
    "Low": 0.014708,
    "Vol": 148180
  },
  {
    "Date": "2019-03-18",
    "Price": 0.014842,
    "Open": 0.015186,
    "High": 0.015483,
    "Low": 0.014734,
    "Vol": 216860
  },
  {
    "Date": "2019-03-17",
    "Price": 0.015185,
    "Open": 0.015285,
    "High": 0.015336,
    "Low": 0.015067,
    "Vol": 166410
  },
  {
    "Date": "2019-03-16",
    "Price": 0.015279,
    "Open": 0.014907,
    "High": 0.015635,
    "Low": 0.014887,
    "Vol": 315940
  },
  {
    "Date": "2019-03-15",
    "Price": 0.014906,
    "Open": 0.014428,
    "High": 0.015029,
    "Low": 0.01442,
    "Vol": 233030
  },
  {
    "Date": "2019-03-14",
    "Price": 0.014425,
    "Open": 0.014303,
    "High": 0.014767,
    "Low": 0.014024,
    "Vol": 208200
  },
  {
    "Date": "2019-03-13",
    "Price": 0.014314,
    "Open": 0.014583,
    "High": 0.014592,
    "Low": 0.014149,
    "Vol": 162420
  },
  {
    "Date": "2019-03-12",
    "Price": 0.014566,
    "Open": 0.014158,
    "High": 0.014632,
    "Low": 0.014,
    "Vol": 144820
  },
  {
    "Date": "2019-03-11",
    "Price": 0.01416,
    "Open": 0.014464,
    "High": 0.014587,
    "Low": 0.013952,
    "Vol": 201040
  },
  {
    "Date": "2019-03-10",
    "Price": 0.014466,
    "Open": 0.014647,
    "High": 0.014728,
    "Low": 0.014367,
    "Vol": 179850
  },
  {
    "Date": "2019-03-09",
    "Price": 0.01466,
    "Open": 0.014388,
    "High": 0.015107,
    "Low": 0.01436,
    "Vol": 369590
  },
  {
    "Date": "2019-03-08",
    "Price": 0.014392,
    "Open": 0.014661,
    "High": 0.014762,
    "Low": 0.014178,
    "Vol": 335900
  },
  {
    "Date": "2019-03-07",
    "Price": 0.014643,
    "Open": 0.014332,
    "High": 0.015097,
    "Low": 0.013998,
    "Vol": 545810
  },
  {
    "Date": "2019-03-06",
    "Price": 0.01434,
    "Open": 0.013621,
    "High": 0.014575,
    "Low": 0.013459,
    "Vol": 478830
  },
  {
    "Date": "2019-03-05",
    "Price": 0.013618,
    "Open": 0.012335,
    "High": 0.014062,
    "Low": 0.012227,
    "Vol": 501450
  },
  {
    "Date": "2019-03-04",
    "Price": 0.012319,
    "Open": 0.012568,
    "High": 0.012608,
    "Low": 0.01214,
    "Vol": 194450
  },
  {
    "Date": "2019-03-03",
    "Price": 0.012565,
    "Open": 0.012698,
    "High": 0.0128,
    "Low": 0.012477,
    "Vol": 149970
  },
  {
    "Date": "2019-03-02",
    "Price": 0.012696,
    "Open": 0.012298,
    "High": 0.012891,
    "Low": 0.012298,
    "Vol": 226680
  },
  {
    "Date": "2019-03-01",
    "Price": 0.012304,
    "Open": 0.011974,
    "High": 0.012703,
    "Low": 0.011936,
    "Vol": 236090
  },
  {
    "Date": "2019-02-28",
    "Price": 0.011962,
    "Open": 0.011824,
    "High": 0.012083,
    "Low": 0.0118,
    "Vol": 180630
  },
  {
    "Date": "2019-02-27",
    "Price": 0.011828,
    "Open": 0.011752,
    "High": 0.011882,
    "Low": 0.011565,
    "Vol": 148110
  },
  {
    "Date": "2019-02-26",
    "Price": 0.011767,
    "Open": 0.011861,
    "High": 0.01197,
    "Low": 0.011605,
    "Vol": 172820
  },
  {
    "Date": "2019-02-25",
    "Price": 0.011859,
    "Open": 0.011657,
    "High": 0.012145,
    "Low": 0.011583,
    "Vol": 289780
  },
  {
    "Date": "2019-02-24",
    "Price": 0.011674,
    "Open": 0.01248,
    "High": 0.012755,
    "Low": 0.011421,
    "Vol": 443600
  },
  {
    "Date": "2019-02-23",
    "Price": 0.012483,
    "Open": 0.012439,
    "High": 0.012722,
    "Low": 0.012216,
    "Vol": 219760
  },
  {
    "Date": "2019-02-22",
    "Price": 0.012426,
    "Open": 0.012419,
    "High": 0.012575,
    "Low": 0.012255,
    "Vol": 203320
  },
  {
    "Date": "2019-02-21",
    "Price": 0.012412,
    "Open": 0.012964,
    "High": 0.012992,
    "Low": 0.012237,
    "Vol": 250300
  },
  {
    "Date": "2019-02-20",
    "Price": 0.012966,
    "Open": 0.012071,
    "High": 0.013114,
    "Low": 0.011953,
    "Vol": 353740
  },
  {
    "Date": "2019-02-19",
    "Price": 0.012071,
    "Open": 0.012263,
    "High": 0.012429,
    "Low": 0.012009,
    "Vol": 248510
  },
  {
    "Date": "2019-02-18",
    "Price": 0.012266,
    "Open": 0.011968,
    "High": 0.012565,
    "Low": 0.011812,
    "Vol": 346860
  },
  {
    "Date": "2019-02-17",
    "Price": 0.011972,
    "Open": 0.011984,
    "High": 0.012199,
    "Low": 0.011826,
    "Vol": 178620
  },
  {
    "Date": "2019-02-16",
    "Price": 0.011991,
    "Open": 0.011823,
    "High": 0.012207,
    "Low": 0.011724,
    "Vol": 212200
  },
  {
    "Date": "2019-02-15",
    "Price": 0.011825,
    "Open": 0.011482,
    "High": 0.012165,
    "Low": 0.011474,
    "Vol": 224070
  },
  {
    "Date": "2019-02-14",
    "Price": 0.011489,
    "Open": 0.011527,
    "High": 0.011702,
    "Low": 0.011311,
    "Vol": 166140
  },
  {
    "Date": "2019-02-13",
    "Price": 0.011532,
    "Open": 0.012088,
    "High": 0.012222,
    "Low": 0.011352,
    "Vol": 244360
  },
  {
    "Date": "2019-02-12",
    "Price": 0.012089,
    "Open": 0.011805,
    "High": 0.012217,
    "Low": 0.011689,
    "Vol": 290610
  },
  {
    "Date": "2019-02-11",
    "Price": 0.011804,
    "Open": 0.012721,
    "High": 0.012721,
    "Low": 0.011578,
    "Vol": 391010
  },
  {
    "Date": "2019-02-10",
    "Price": 0.012723,
    "Open": 0.01219,
    "High": 0.012988,
    "Low": 0.011665,
    "Vol": 429060
  },
  {
    "Date": "2019-02-09",
    "Price": 0.012194,
    "Open": 0.011758,
    "High": 0.012669,
    "Low": 0.011574,
    "Vol": 644850
  },
  {
    "Date": "2019-02-08",
    "Price": 0.01176,
    "Open": 0.009773,
    "High": 0.012013,
    "Low": 0.00971,
    "Vol": 856610
  },
  {
    "Date": "2019-02-07",
    "Price": 0.009783,
    "Open": 0.009628,
    "High": 0.00982,
    "Low": 0.009627,
    "Vol": 112980
  },
  {
    "Date": "2019-02-06",
    "Price": 0.00963,
    "Open": 0.009901,
    "High": 0.009909,
    "Low": 0.009523,
    "Vol": 204310
  },
  {
    "Date": "2019-02-05",
    "Price": 0.009894,
    "Open": 0.009844,
    "High": 0.009945,
    "Low": 0.009738,
    "Vol": 182780
  },
  {
    "Date": "2019-02-04",
    "Price": 0.009849,
    "Open": 0.009664,
    "High": 0.009939,
    "Low": 0.009652,
    "Vol": 184470
  },
  {
    "Date": "2019-02-03",
    "Price": 0.009669,
    "Open": 0.009878,
    "High": 0.009947,
    "Low": 0.009598,
    "Vol": 246180
  },
  {
    "Date": "2019-02-02",
    "Price": 0.009866,
    "Open": 0.009408,
    "High": 0.009962,
    "Low": 0.009408,
    "Vol": 224270
  },
  {
    "Date": "2019-02-01",
    "Price": 0.009418,
    "Open": 0.009144,
    "High": 0.009654,
    "Low": 0.009031,
    "Vol": 226900
  },
  {
    "Date": "2019-01-31",
    "Price": 0.009142,
    "Open": 0.009168,
    "High": 0.009296,
    "Low": 0.009064,
    "Vol": 159280
  },
  {
    "Date": "2019-01-30",
    "Price": 0.009163,
    "Open": 0.00903,
    "High": 0.009198,
    "Low": 0.008968,
    "Vol": 125240
  },
  {
    "Date": "2019-01-29",
    "Price": 0.00903,
    "Open": 0.009019,
    "High": 0.009125,
    "Low": 0.008896,
    "Vol": 128950
  },
  {
    "Date": "2019-01-28",
    "Price": 0.009009,
    "Open": 0.009072,
    "High": 0.009143,
    "Low": 0.008805,
    "Vol": 198370
  },
  {
    "Date": "2019-01-27",
    "Price": 0.009071,
    "Open": 0.0092,
    "High": 0.009268,
    "Low": 0.008985,
    "Vol": 137080
  },
  {
    "Date": "2019-01-26",
    "Price": 0.009201,
    "Open": 0.009157,
    "High": 0.009352,
    "Low": 0.009137,
    "Vol": 142150
  },
  {
    "Date": "2019-01-25",
    "Price": 0.009169,
    "Open": 0.009112,
    "High": 0.009208,
    "Low": 0.009004,
    "Vol": 122500
  },
  {
    "Date": "2019-01-24",
    "Price": 0.009109,
    "Open": 0.008919,
    "High": 0.009224,
    "Low": 0.008789,
    "Vol": 136160
  },
  {
    "Date": "2019-01-23",
    "Price": 0.008917,
    "Open": 0.008796,
    "High": 0.00898,
    "Low": 0.008784,
    "Vol": 119880
  },
  {
    "Date": "2019-01-22",
    "Price": 0.008796,
    "Open": 0.008734,
    "High": 0.008873,
    "Low": 0.008533,
    "Vol": 150940
  },
  {
    "Date": "2019-01-21",
    "Price": 0.008735,
    "Open": 0.008659,
    "High": 0.008777,
    "Low": 0.008645,
    "Vol": 79510
  },
  {
    "Date": "2019-01-20",
    "Price": 0.008646,
    "Open": 0.008725,
    "High": 0.008981,
    "Low": 0.008598,
    "Vol": 174730
  },
  {
    "Date": "2019-01-19",
    "Price": 0.008726,
    "Open": 0.008562,
    "High": 0.00886,
    "Low": 0.008559,
    "Vol": 120490
  },
  {
    "Date": "2019-01-18",
    "Price": 0.008561,
    "Open": 0.008683,
    "High": 0.008705,
    "Low": 0.008487,
    "Vol": 107420
  },
  {
    "Date": "2019-01-17",
    "Price": 0.008689,
    "Open": 0.008713,
    "High": 0.008745,
    "Low": 0.008419,
    "Vol": 175910
  },
  {
    "Date": "2019-01-16",
    "Price": 0.008709,
    "Open": 0.008652,
    "High": 0.008764,
    "Low": 0.008573,
    "Vol": 109600
  },
  {
    "Date": "2019-01-15",
    "Price": 0.008658,
    "Open": 0.008745,
    "High": 0.008872,
    "Low": 0.008531,
    "Vol": 163050
  },
  {
    "Date": "2019-01-14",
    "Price": 0.008749,
    "Open": 0.008512,
    "High": 0.008843,
    "Low": 0.008495,
    "Vol": 151100
  },
  {
    "Date": "2019-01-13",
    "Price": 0.008515,
    "Open": 0.008852,
    "High": 0.00906,
    "Low": 0.008444,
    "Vol": 152240
  },
  {
    "Date": "2019-01-12",
    "Price": 0.008835,
    "Open": 0.008745,
    "High": 0.008891,
    "Low": 0.008682,
    "Vol": 128010
  },
  {
    "Date": "2019-01-11",
    "Price": 0.008731,
    "Open": 0.009152,
    "High": 0.009201,
    "Low": 0.008681,
    "Vol": 265040
  },
  {
    "Date": "2019-01-10",
    "Price": 0.009152,
    "Open": 0.009628,
    "High": 0.00972,
    "Low": 0.008913,
    "Vol": 342000
  },
  {
    "Date": "2019-01-09",
    "Price": 0.009622,
    "Open": 0.009785,
    "High": 0.00994,
    "Low": 0.009606,
    "Vol": 229480
  },
  {
    "Date": "2019-01-08",
    "Price": 0.009785,
    "Open": 0.009392,
    "High": 0.010058,
    "Low": 0.009388,
    "Vol": 352040
  },
  {
    "Date": "2019-01-07",
    "Price": 0.009384,
    "Open": 0.009599,
    "High": 0.009753,
    "Low": 0.009299,
    "Vol": 330290
  },
  {
    "Date": "2019-01-06",
    "Price": 0.00962,
    "Open": 0.009102,
    "High": 0.01007,
    "Low": 0.009017,
    "Vol": 610190
  },
  {
    "Date": "2019-01-05",
    "Price": 0.00911,
    "Open": 0.008399,
    "High": 0.009445,
    "Low": 0.008391,
    "Vol": 361830
  },
  {
    "Date": "2019-01-04",
    "Price": 0.008379,
    "Open": 0.008337,
    "High": 0.00857,
    "Low": 0.00827,
    "Vol": 114550
  },
  {
    "Date": "2019-01-03",
    "Price": 0.008336,
    "Open": 0.00847,
    "High": 0.008506,
    "Low": 0.008209,
    "Vol": 115430
  },
  {
    "Date": "2019-01-02",
    "Price": 0.008469,
    "Open": 0.008297,
    "High": 0.008574,
    "Low": 0.008293,
    "Vol": 113760
  },
  {
    "Date": "2019-01-01",
    "Price": 0.0083,
    "Open": 0.008092,
    "High": 0.008475,
    "Low": 0.008026,
    "Vol": 83790
  }
]